Iteration,Susceptible,Exposed,Infected,Recovered
0,19980,0,20,0
1,19968,12,20,0
2,19968,7,5,20
3,19964,10,4,22
4,19957,13,5,25
5,19954,11,9,26
6,19948,16,9,27
7,19937,22,11,30
8,19927,27,14,32
9,19913,32,21,34
10,19898,36,30,36
11,19867,56,34,43
12,19827,82,45,46
13,19787,99,55,59
14,19746,115,64,75
15,19691,134,86,89
16,19628,162,107,103
17,19518,221,139,122
18,19400,275,171,154
19,19254,358,196,192
20,19076,428,261,235
21,18892,477,348,283
22,18568,670,424,338
23,18258,804,516,422
24,17962,890,619,529
25,17470,1128,775,627
26,16948,1331,966,755
27,16304,1601,1153,942
28,15522,1937,1373,1168
29,14649,2333,1597,1421
30,13633,2724,1906,1737
31,12543,2990,2384,2083
32,11342,3374,2790,2494
33,10082,3707,3227,2984
34,8720,4063,3662,3555
35,7436,4293,4105,4166
36,6475,4151,4396,4978
37,5534,3899,4927,5640
38,4525,3819,5272,6384
39,3695,3574,5619,7112
40,3055,3139,5890,7916
41,2435,2812,6008,8745
42,1954,2519,5999,9528
43,1687,2096,5966,10251
44,1325,1947,5692,11036
45,1193,1534,5578,11695
46,960,1405,5264,12371
47,774,1261,4989,12976
48,771,975,4711,13543
49,680,804,4436,14080
50,666,630,4181,14523
51,717,468,3929,14886
52,703,420,3589,15288
53,693,361,3368,15578
54,716,310,3113,15861
55,718,269,2864,16149
56,745,192,2631,16432
57,705,233,2392,16670
58,719,150,2286,16845
59,771,119,2030,17080
60,812,104,1835,17249
61,863,93,1704,17340
62,933,66,1568,17433
63,962,96,1386,17556
64,1004,82,1311,17603
65,1083,44,1208,17665
66,1150,56,1086,17708
67,1200,58,1003,17739
68,1249,38,912,17801
69,1269,59,827,17845
70,1334,34,775,17857
71,1374,53,665,17908
72,1430,35,637,17898
73,1469,32,574,17925
74,1531,43,518,17908
75,1592,33,481,17894
76,1646,30,425,17899
77,1713,18,394,17875
78,1763,26,347,17864
79,1826,23,326,17825
80,1868,24,290,17818
81,1916,24,268,17792
82,1970,18,245,17767
83,2037,18,214,17731
84,2101,20,190,17689
85,2134,32,175,17659
86,2172,20,164,17644
87,2225,13,136,17626
88,2285,16,115,17584
89,2333,15,95,17557
90,2380,9,82,17529
91,2441,8,74,17477
92,2507,9,69,17415
93,2573,5,59,17363
94,2633,6,52,17309
95,2700,6,48,17246
96,2754,2,43,17201
97,2789,6,37,17168
98,2841,8,39,17112
99,2904,4,39,17053
100,2950,4,35,17011
101,3011,3,34,16952
102,3048,7,31,16914
103,3110,2,35,16853
104,3166,3,29,16802
105,3214,3,29,16754
106,3264,6,28,16702
107,3312,1,29,16658
108,3370,0,20,16610
109,3418,3,15,16564
110,3460,3,13,16524
111,3516,2,11,16471
112,3552,0,9,16439
113,3624,0,7,16369
114,3659,3,6,16332
115,3709,0,9,16282
116,3760,0,6,16234
117,3793,0,3,16204
118,3836,0,3,16161
119,3883,0,3,16114
120,3921,0,2,16077
121,3955,0,1,16044
122,3994,0,0,16006
123,4046,0,0,15954
124,4079,0,0,15921
125,4116,0,0,15884
126,4166,0,0,15834
127,4204,0,0,15796
128,4246,0,0,15754
129,4283,0,0,15717
130,4330,0,0,15670
131,4358,0,0,15642
132,4380,0,0,15620
133,4402,0,0,15598
134,4430,0,0,15570
135,4468,0,0,15532
136,4531,0,0,15469
137,4565,0,0,15435
138,4608,0,0,15392
139,4656,0,0,15344
140,4706,0,0,15294
141,4730,0,0,15270
142,4775,0,0,15225
143,4798,0,0,15202
144,4828,0,0,15172
145,4870,0,0,15130
146,4905,0,0,15095
147,4935,0,0,15065
148,4974,0,0,15026
149,5007,0,0,14993
150,5034,0,0,14966
151,5082,0,0,14918
152,5114,0,0,14886
153,5147,0,0,14853
154,5183,0,0,14817
155,5213,0,0,14787
156,5243,0,0,14757
157,5289,0,0,14711
158,5327,0,0,14673
159,5354,0,0,14646
160,5386,0,0,14614
161,5409,0,0,14591
162,5449,0,0,14551
163,5479,0,0,14521
164,5503,0,0,14497
165,5530,0,0,14470
166,5562,0,0,14438
167,5593,0,0,14407
168,5643,0,0,14357
169,5669,0,0,14331
170,5694,0,0,14306
171,5724,0,0,14276
172,5772,0,0,14228
173,5818,0,0,14182
174,5866,0,0,14134
175,5910,0,0,14090
176,5937,0,0,14063
177,5969,0,0,14031
178,6004,0,0,13996
179,6031,0,0,13969
180,6058,0,0,13942
181,6101,0,0,13899
182,6138,0,0,13862
183,6178,0,0,13822
184,6216,0,0,13784
185,6257,0,0,13743
186,6302,0,0,13698
187,6357,0,0,13643
188,6405,0,0,13595
189,6446,0,0,13554
190,6486,0,0,13514
191,6543,0,0,13457
192,6584,0,0,13416
193,6607,0,0,13393
194,6647,0,0,13353
195,6693,0,0,13307
196,6739,0,0,13261
197,6769,0,0,13231
198,6830,0,0,13170
199,6868,0,0,13132
200,6913,0,0,13087
201,6955,0,0,13045
202,6992,0,0,13008
203,7016,0,0,12984
204,7039,0,0,12961
205,7059,0,0,12941
206,7095,0,0,12905
207,7137,0,0,12863
208,7164,0,0,12836
209,7199,0,0,12801
210,7218,0,0,12782
211,7248,0,0,12752
212,7287,0,0,12713
213,7344,0,0,12656
214,7362,0,0,12638
215,7388,0,0,12612
216,7409,0,0,12591
217,7433,0,0,12567
218,7481,0,0,12519
219,7509,0,0,12491
220,7549,0,0,12451
221,7583,0,0,12417
222,7609,0,0,12391
223,7644,0,0,12356
224,7678,0,0,12322
225,7723,0,0,12277
226,7752,0,0,12248
227,7789,0,0,12211
228,7826,0,0,12174
229,7866,0,0,12134
230,7883,0,0,12117
231,7916,0,0,12084
232,7968,0,0,12032
233,8015,0,0,11985
234,8050,0,0,11950
235,8086,0,0,11914
236,8127,0,0,11873
237,8151,0,0,11849
238,8197,0,0,11803
239,8218,0,0,11782
240,8255,0,0,11745
241,8282,0,0,11718
242,8301,0,0,11699
243,8337,0,0,11663
244,8369,0,0,11631
245,8384,0,0,11616
246,8408,0,0,11592
247,8432,0,0,11568
248,8457,0,0,11543
249,8484,0,0,11516
250,8493,0,0,11507
251,8513,0,0,11487
252,8533,0,0,11467
253,8556,0,0,11444
254,8577,0,0,11423
255,8602,0,0,11398
256,8627,0,0,11373
257,8649,0,0,11351
258,8669,0,0,11331
259,8681,0,0,11319
260,8699,0,0,11301
261,8738,0,0,11262
262,8763,0,0,11237
263,8792,0,0,11208
264,8808,0,0,11192
265,8845,0,0,11155
266,8865,0,0,11135
267,8886,0,0,11114
268,8910,0,0,11090
269,8944,0,0,11056
270,8980,0,0,11020
271,9006,0,0,10994
272,9023,0,0,10977
273,9053,0,0,10947
274,9073,0,0,10927
275,9092,0,0,10908
276,9134,0,0,10866
277,9153,0,0,10847
278,9200,0,0,10800
279,9224,0,0,10776
280,9261,0,0,10739
281,9302,0,0,10698
282,9316,0,0,10684
283,9349,0,0,10651
284,9374,0,0,10626
285,9400,0,0,10600
286,9448,0,0,10552
287,9481,0,0,10519
288,9511,0,0,10489
289,9538,0,0,10462
290,9576,0,0,10424
291,9606,0,0,10394
292,9634,0,0,10366
293,9664,0,0,10336
294,9701,0,0,10299
295,9734,0,0,10266
296,9771,0,0,10229
297,9795,0,0,10205
298,9828,0,0,10172
299,9870,0,0,10130
300,9913,0,0,10087
301,9961,0,0,10039
302,10001,0,0,9999
303,10037,0,0,9963
304,10087,0,0,9913
305,10128,0,0,9872
306,10151,0,0,9849
307,10187,0,0,9813
308,10228,0,0,9772
309,10267,0,0,9733
310,10302,0,0,9698
311,10330,0,0,9670
312,10356,0,0,9644
313,10377,0,0,9623
314,10396,0,0,9604
315,10426,0,0,9574
316,10466,0,0,9534
317,10487,0,0,9513
318,10507,0,0,9493
319,10522,0,0,9478
320,10529,0,0,9471
321,10556,0,0,9444
322,10581,0,0,9419
323,10597,0,0,9403
324,10629,0,0,9371
325,10652,0,0,9348
326,10676,0,0,9324
327,10702,0,0,9298
328,10728,0,0,9272
329,10765,0,0,9235
330,10788,0,0,9212
331,10812,0,0,9188
332,10829,0,0,9171
333,10865,0,0,9135
334,10884,0,0,9116
335,10915,0,0,9085
336,10935,0,0,9065
337,10948,0,0,9052
338,10982,0,0,9018
339,11003,0,0,8997
340,11014,0,0,8986
341,11040,0,0,8960
342,11060,0,0,8940
343,11090,0,0,8910
344,11117,0,0,8883
345,11158,0,0,8842
346,11187,0,0,8813
347,11218,0,0,8782
348,11236,0,0,8764
349,11255,0,0,8745
350,11277,0,0,8723
351,11306,0,0,8694
352,11327,0,0,8673
353,11349,0,0,8651
354,11361,0,0,8639
355,11383,0,0,8617
356,11414,0,0,8586
357,11442,0,0,8558
358,11469,0,0,8531
359,11487,0,0,8513
360,11515,0,0,8485
361,11573,0,0,8427
362,11587,0,0,8413
363,11612,0,0,8388
364,11641,0,0,8359
365,11667,0,0,8333
366,11701,0,0,8299
367,11722,0,0,8278
368,11736,0,0,8264
369,11751,0,0,8249
370,11779,0,0,8221
371,11797,0,0,8203
372,11816,0,0,8184
373,11840,0,0,8160
374,11868,0,0,8132
375,11885,0,0,8115
376,11919,0,0,8081
377,11946,0,0,8054
378,11968,0,0,8032
379,11990,0,0,8010
380,12013,0,0,7987
381,12042,0,0,7958
382,12062,0,0,7938
383,12094,0,0,7906
384,12109,0,0,7891
385,12143,0,0,7857
386,12188,0,0,7812
387,12221,0,0,7779
388,12246,0,0,7754
389,12270,0,0,7730
390,12309,0,0,7691
391,12337,0,0,7663
392,12383,0,0,7617
393,12428,0,0,7572
394,12468,0,0,7532
395,12513,0,0,7487
396,12534,0,0,7466
397,12567,0,0,7433
398,12608,0,0,7392
399,12631,0,0,7369
400,12667,0,0,7333
401,12678,0,0,7322
402,12702,0,0,7298
403,12717,0,0,7283
404,12750,0,0,7250
405,12770,0,0,7230
406,12792,0,0,7208
407,12815,0,0,7185
408,12833,0,0,7167
409,12850,0,0,7150
410,12873,0,0,7127
411,12890,0,0,7110
412,12905,0,0,7095
413,12923,0,0,7077
414,12936,0,0,7064
415,12950,0,0,7050
416,12962,0,0,7038
417,12976,0,0,7024
418,12993,0,0,7007
419,13006,0,0,6994
420,13020,0,0,6980
421,13042,0,0,6958
422,13057,0,0,6943
423,13065,0,0,6935
424,13084,0,0,6916
425,13092,0,0,6908
426,13100,0,0,6900
427,13110,0,0,6890
428,13126,0,0,6874
429,13139,0,0,6861
430,13155,0,0,6845
431,13166,0,0,6834
432,13177,0,0,6823
433,13191,0,0,6809
434,13202,0,0,6798
435,13210,0,0,6790
436,13226,0,0,6774
437,13240,0,0,6760
438,13256,0,0,6744
439,13276,0,0,6724
440,13301,0,0,6699
441,13316,0,0,6684
442,13333,0,0,6667
443,13345,0,0,6655
444,13354,0,0,6646
445,13365,0,0,6635
446,13376,0,0,6624
447,13387,0,0,6613
448,13401,0,0,6599
449,13420,0,0,6580
450,13430,0,0,6570
451,13436,0,0,6564
452,13449,0,0,6551
453,13462,0,0,6538
454,13476,0,0,6524
455,13491,0,0,6509
456,13501,0,0,6499
457,13513,0,0,6487
458,13520,0,0,6480
459,13534,0,0,6466
460,13553,0,0,6447
461,13571,0,0,6429
462,13588,0,0,6412
463,13615,0,0,6385
464,13627,0,0,6373
465,13645,0,0,6355
466,13658,0,0,6342
467,13667,0,0,6333
468,13672,0,0,6328
469,13687,0,0,6313
470,13710,0,0,6290
471,13719,0,0,6281
472,13740,0,0,6260
473,13763,0,0,6237
474,13789,0,0,6211
475,13808,0,0,6192
476,13824,0,0,6176
477,13852,0,0,6148
478,13868,0,0,6132
479,13888,0,0,6112
480,13907,0,0,6093
481,13927,0,0,6073
482,13953,0,0,6047
483,13969,0,0,6031
484,13982,0,0,6018
485,13994,0,0,6006
486,14013,0,0,5987
487,14035,0,0,5965
488,14051,0,0,5949
489,14067,0,0,5933
490,14083,0,0,5917
491,14092,0,0,5908
492,14112,0,0,5888
493,14130,0,0,5870
494,14150,0,0,5850
495,14177,0,0,5823
496,14195,0,0,5805
497,14211,0,0,5789
498,14236,0,0,5764
499,14257,0,0,5743
500,14276,0,0,5724
501,14292,0,0,5708
502,14321,0,0,5679
503,14351,0,0,5649
504,14367,0,0,5633
505,14382,0,0,5618
506,14401,0,0,5599
507,14414,0,0,5586
508,14434,0,0,5566
509,14450,0,0,5550
510,14480,0,0,5520
511,14496,0,0,5504
512,14509,0,0,5491
513,14523,0,0,5477
514,14529,0,0,5471
515,14542,0,0,5458
516,14549,0,0,5451
517,14556,0,0,5444
518,14567,0,0,5433
519,14576,0,0,5424
520,14600,0,0,5400
521,14611,0,0,5389
522,14624,0,0,5376
523,14630,0,0,5370
524,14646,0,0,5354
525,14658,0,0,5342
526,14671,0,0,5329
527,14689,0,0,5311
528,14714,0,0,5286
529,14733,0,0,5267
530,14750,0,0,5250
531,14772,0,0,5228
532,14793,0,0,5207
533,14801,0,0,5199
534,14810,0,0,5190
535,14816,0,0,5184
536,14840,0,0,5160
537,14853,0,0,5147
538,14867,0,0,5133
539,14879,0,0,5121
540,14896,0,0,5104
541,14909,0,0,5091
542,14924,0,0,5076
543,14943,0,0,5057
544,14949,0,0,5051
545,14967,0,0,5033
546,14975,0,0,5025
547,14991,0,0,5009
548,15001,0,0,4999
549,15015,0,0,4985
550,15028,0,0,4972
551,15042,0,0,4958
552,15059,0,0,4941
553,15083,0,0,4917
554,15100,0,0,4900
555,15123,0,0,4877
556,15137,0,0,4863
557,15150,0,0,4850
558,15168,0,0,4832
559,15187,0,0,4813
560,15198,0,0,4802
561,15200,0,0,4800
562,15211,0,0,4789
563,15232,0,0,4768
564,15244,0,0,4756
565,15250,0,0,4750
566,15270,0,0,4730
567,15281,0,0,4719
568,15290,0,0,4710
569,15297,0,0,4703
570,15308,0,0,4692
571,15332,0,0,4668
572,15351,0,0,4649
573,15371,0,0,4629
574,15390,0,0,4610
575,15411,0,0,4589
576,15426,0,0,4574
577,15440,0,0,4560
578,15452,0,0,4548
579,15472,0,0,4528
580,15490,0,0,4510
581,15504,0,0,4496
582,15530,0,0,4470
583,15538,0,0,4462
584,15547,0,0,4453
585,15556,0,0,4444
586,15570,0,0,4430
587,15583,0,0,4417
588,15602,0,0,4398
589,15612,0,0,4388
590,15620,0,0,4380
591,15626,0,0,4374
592,15631,0,0,4369
593,15634,0,0,4366
594,15653,0,0,4347
595,15660,0,0,4340
596,15673,0,0,4327
597,15683,0,0,4317
598,15691,0,0,4309
599,15699,0,0,4301
600,15706,0,0,4294
601,15712,0,0,4288
602,15718,0,0,4282
603,15731,0,0,4269
604,15738,0,0,4262
605,15744,0,0,4256
606,15756,0,0,4244
607,15756,0,0,4244
608,15765,0,0,4235
609,15766,0,0,4234
610,15773,0,0,4227
611,15782,0,0,4218
612,15792,0,0,4208
613,15796,0,0,4204
614,15799,0,0,4201
615,15803,0,0,4197
616,15809,0,0,4191
617,15815,0,0,4185
618,15825,0,0,4175
619,15831,0,0,4169
620,15847,0,0,4153
621,15854,0,0,4146
622,15865,0,0,4135
623,15871,0,0,4129
624,15887,0,0,4113
625,15891,0,0,4109
626,15907,0,0,4093
627,15916,0,0,4084
628,15925,0,0,4075
629,15931,0,0,4069
630,15953,0,0,4047
631,15967,0,0,4033
632,15979,0,0,4021
633,15984,0,0,4016
634,15993,0,0,4007
635,16003,0,0,3997
636,16017,0,0,3983
637,16037,0,0,3963
638,16058,0,0,3942
639,16065,0,0,3935
640,16082,0,0,3918
641,16090,0,0,3910
642,16096,0,0,3904
643,16105,0,0,3895
644,16119,0,0,3881
645,16132,0,0,3868
646,16136,0,0,3864
647,16141,0,0,3859
648,16161,0,0,3839
649,16173,0,0,3827
650,16195,0,0,3805
651,16201,0,0,3799
652,16216,0,0,3784
653,16229,0,0,3771
654,16241,0,0,3759
655,16261,0,0,3739
656,16270,0,0,3730
657,16274,0,0,3726
658,16288,0,0,3712
659,16306,0,0,3694
660,16315,0,0,3685
661,16325,0,0,3675
662,16334,0,0,3666
663,16356,0,0,3644
664,16363,0,0,3637
665,16371,0,0,3629
666,16378,0,0,3622
667,16385,0,0,3615
668,16396,0,0,3604
669,16407,0,0,3593
670,16419,0,0,3581
671,16425,0,0,3575
672,16428,0,0,3572
673,16436,0,0,3564
674,16443,0,0,3557
675,16446,0,0,3554
676,16453,0,0,3547
677,16458,0,0,3542
678,16462,0,0,3538
679,16478,0,0,3522
680,16483,0,0,3517
681,16500,0,0,3500
682,16516,0,0,3484
683,16520,0,0,3480
684,16533,0,0,3467
685,16543,0,0,3457
686,16544,0,0,3456
687,16556,0,0,3444
688,16561,0,0,3439
689,16572,0,0,3428
690,16576,0,0,3424
691,16582,0,0,3418
692,16584,0,0,3416
693,16595,0,0,3405
694,16613,0,0,3387
695,16619,0,0,3381
696,16632,0,0,3368
697,16643,0,0,3357
698,16643,0,0,3357
699,16650,0,0,3350
700,16655,0,0,3345
701,16660,0,0,3340
702,16662,0,0,3338
703,16662,0,0,3338
704,16663,0,0,3337
705,16673,0,0,3327
706,16676,0,0,3324
707,16686,0,0,3314
708,16689,0,0,3311
709,16700,0,0,3300
710,16711,0,0,3289
711,16722,0,0,3278
712,16733,0,0,3267
713,16741,0,0,3259
714,16750,0,0,3250
715,16755,0,0,3245
716,16762,0,0,3238
717,16770,0,0,3230
718,16782,0,0,3218
719,16783,0,0,3217
720,16791,0,0,3209
721,16807,0,0,3193
722,16808,0,0,3192
723,16823,0,0,3177
724,16831,0,0,3169
725,16838,0,0,3162
726,16849,0,0,3151
727,16861,0,0,3139
728,16871,0,0,3129
729,16874,0,0,3126
730,16897,0,0,3103
