Iteration,Susceptible,Exposed,Infected,Recovered
0,19980,0,20,0
1,19967,13,20,0
2,19952,26,22,0
3,19931,39,29,1
4,19913,47,34,6
5,19879,67,44,10
6,19838,80,59,23
7,19778,116,70,36
8,19712,146,95,47
9,19638,182,111,69
10,19537,227,150,86
11,19400,295,181,124
12,19234,383,225,158
13,19031,469,294,206
14,18760,603,368,269
15,18488,717,456,339
16,18123,883,560,434
17,17665,1077,691,567
18,17124,1330,822,724
19,16478,1594,1020,908
20,15730,1878,1307,1085
21,14692,2442,1516,1350
22,13842,2543,1957,1658
23,12552,3007,2326,2115
24,11435,3264,2776,2525
25,10253,3461,3277,3009
26,9243,3514,3587,3656
27,7885,3913,3934,4268
28,6630,4118,4307,4945
29,5619,4041,4638,5702
30,4593,3913,5017,6477
31,3845,3602,5315,7238
32,3216,3268,5542,7974
33,2626,3003,5573,8798
34,2105,2802,5593,9500
35,1918,2252,5609,10221
36,1582,2001,5474,10943
37,1360,1766,5214,11660
38,1210,1489,5090,12211
39,1119,1254,4844,12783
40,1104,976,4662,13258
41,1055,902,4331,13712
42,971,770,4140,14119
43,961,582,3942,14515
44,1009,436,3664,14891
45,983,457,3366,15194
46,980,356,3156,15508
47,1005,305,2857,15833
48,1012,259,2663,16066
49,1016,247,2474,16263
50,1086,164,2324,16426
51,1079,210,2099,16612
52,1149,146,1968,16737
53,1171,155,1741,16933
54,1260,105,1638,16997
55,1351,73,1465,17111
56,1380,98,1303,17219
57,1425,112,1253,17210
58,1485,79,1199,17237
59,1548,55,1092,17305
60,1631,54,990,17325
61,1674,90,938,17298
62,1706,92,891,17311
63,1746,65,845,17344
64,1769,64,778,17389
65,1845,55,729,17371
66,1869,72,655,17404
67,1949,43,630,17378
68,2007,67,558,17368
69,2081,50,541,17328
70,2147,36,499,17318
71,2251,16,431,17302
72,2283,49,372,17296
73,2332,43,386,17239
74,2387,34,338,17241
75,2433,47,305,17215
76,2489,28,294,17189
77,2547,34,256,17163
78,2617,23,239,17121
79,2693,25,200,17082
80,2771,15,193,17021
81,2820,24,176,16980
82,2866,31,171,16932
83,2932,17,159,16892
84,2967,29,140,16864
85,3024,25,145,16806
86,3092,13,136,16759
87,3158,24,117,16701
88,3226,13,117,16644
89,3294,8,96,16602
90,3363,24,88,16525
91,3429,17,102,16452
92,3497,14,90,16399
93,3567,11,85,16337
94,3629,2,82,16287
95,3695,10,69,16226
96,3742,9,72,16177
97,3805,9,72,16114
98,3856,7,73,16064
99,3899,19,65,16017
100,3971,10,73,15946
101,4039,13,71,15877
102,4093,11,70,15826
103,4155,9,67,15769
104,4197,13,61,15729
105,4239,10,58,15693
106,4270,8,55,15667
107,4317,12,50,15621
108,4379,5,49,15567
109,4400,9,41,15550
110,4445,6,36,15513
111,4481,7,33,15479
112,4522,7,33,15438
113,4566,6,30,15398
114,4601,9,27,15363
115,4629,5,20,15346
116,4661,3,19,15317
117,4701,4,10,15285
118,4749,3,11,15237
119,4818,2,11,15169
120,4862,3,8,15127
121,4907,2,8,15083
122,4956,3,7,15034
123,4991,1,8,15000
124,5013,0,5,14982
125,5057,3,4,14936
126,5101,1,6,14892
127,5158,0,5,14837
128,5199,0,2,14799
129,5227,0,2,14771
130,5287,0,2,14711
131,5335,0,2,14663
132,5392,0,2,14606
133,5429,0,2,14569
134,5487,0,2,14511
135,5526,0,2,14472
136,5543,0,2,14455
137,5583,0,2,14415
138,5619,0,2,14379
139,5648,0,1,14351
140,5681,0,1,14318
141,5716,1,1,14282
142,5740,1,2,14257
143,5759,1,2,14238
144,5792,1,2,14205
145,5830,0,3,14167
146,5860,0,1,14139
147,5905,0,0,14095
148,5941,0,0,14059
149,5976,0,0,14024
150,6005,0,0,13995
151,6035,0,0,13965
152,6061,0,0,13939
153,6090,0,0,13910
154,6120,0,0,13880
155,6149,0,0,13851
156,6191,0,0,13809
157,6210,0,0,13790
158,6234,0,0,13766
159,6268,0,0,13732
160,6296,0,0,13704
161,6349,0,0,13651
162,6376,0,0,13624
163,6407,0,0,13593
164,6443,0,0,13557
165,6466,0,0,13534
166,6494,0,0,13506
167,6537,0,0,13463
168,6579,0,0,13421
169,6611,0,0,13389
170,6656,0,0,13344
171,6694,0,0,13306
172,6728,0,0,13272
173,6765,0,0,13235
174,6804,0,0,13196
175,6836,0,0,13164
176,6874,0,0,13126
177,6905,0,0,13095
178,6937,0,0,13063
179,6968,0,0,13032
180,7010,0,0,12990
181,7054,0,0,12946
182,7093,0,0,12907
183,7114,0,0,12886
184,7140,0,0,12860
185,7171,0,0,12829
186,7196,0,0,12804
187,7240,0,0,12760
188,7264,0,0,12736
189,7301,0,0,12699
190,7324,0,0,12676
191,7355,0,0,12645
192,7391,0,0,12609
193,7433,0,0,12567
194,7469,0,0,12531
195,7508,0,0,12492
196,7554,0,0,12446
197,7589,0,0,12411
198,7620,0,0,12380
199,7673,0,0,12327
200,7710,0,0,12290
201,7722,0,0,12278
202,7758,0,0,12242
203,7800,0,0,12200
204,7833,0,0,12167
205,7869,0,0,12131
206,7927,0,0,12073
207,7955,0,0,12045
208,7992,0,0,12008
209,8027,0,0,11973
210,8059,0,0,11941
211,8081,0,0,11919
212,8126,0,0,11874
213,8169,0,0,11831
214,8197,0,0,11803
215,8228,0,0,11772
216,8255,0,0,11745
217,8287,0,0,11713
218,8312,0,0,11688
219,8336,0,0,11664
220,8363,0,0,11637
221,8379,0,0,11621
222,8401,0,0,11599
223,8430,0,0,11570
224,8468,0,0,11532
225,8498,0,0,11502
226,8525,0,0,11475
227,8563,0,0,11437
228,8598,0,0,11402
229,8623,0,0,11377
230,8637,0,0,11363
231,8668,0,0,11332
232,8696,0,0,11304
233,8731,0,0,11269
234,8761,0,0,11239
235,8783,0,0,11217
236,8812,0,0,11188
237,8842,0,0,11158
238,8862,0,0,11138
239,8901,0,0,11099
240,8926,0,0,11074
241,8961,0,0,11039
242,8977,0,0,11023
243,8998,0,0,11002
244,9027,0,0,10973
245,9053,0,0,10947
246,9073,0,0,10927
247,9094,0,0,10906
248,9113,0,0,10887
249,9139,0,0,10861
250,9160,0,0,10840
251,9173,0,0,10827
252,9203,0,0,10797
253,9229,0,0,10771
254,9254,0,0,10746
255,9279,0,0,10721
256,9305,0,0,10695
257,9340,0,0,10660
258,9360,0,0,10640
259,9376,0,0,10624
260,9412,0,0,10588
261,9442,0,0,10558
262,9464,0,0,10536
263,9490,0,0,10510
264,9521,0,0,10479
265,9531,0,0,10469
266,9554,0,0,10446
267,9599,0,0,10401
268,9633,0,0,10367
269,9662,0,0,10338
270,9684,0,0,10316
271,9710,0,0,10290
272,9741,0,0,10259
273,9778,0,0,10222
274,9811,0,0,10189
275,9840,0,0,10160
276,9873,0,0,10127
277,9917,0,0,10083
278,9949,0,0,10051
279,9985,0,0,10015
280,10036,0,0,9964
281,10064,0,0,9936
282,10091,0,0,9909
283,10138,0,0,9862
284,10168,0,0,9832
285,10208,0,0,9792
286,10222,0,0,9778
287,10262,0,0,9738
288,10286,0,0,9714
289,10298,0,0,9702
290,10316,0,0,9684
291,10343,0,0,9657
292,10373,0,0,9627
293,10399,0,0,9601
294,10430,0,0,9570
295,10450,0,0,9550
296,10471,0,0,9529
297,10476,0,0,9524
298,10509,0,0,9491
299,10535,0,0,9465
300,10554,0,0,9446
301,10566,0,0,9434
302,10588,0,0,9412
303,10621,0,0,9379
304,10632,0,0,9368
305,10656,0,0,9344
306,10666,0,0,9334
307,10699,0,0,9301
308,10717,0,0,9283
309,10740,0,0,9260
310,10768,0,0,9232
311,10774,0,0,9226
312,10781,0,0,9219
313,10795,0,0,9205
314,10814,0,0,9186
315,10834,0,0,9166
316,10851,0,0,9149
317,10874,0,0,9126
318,10886,0,0,9114
319,10899,0,0,9101
320,10910,0,0,9090
321,10918,0,0,9082
322,10930,0,0,9070
323,10948,0,0,9052
324,10958,0,0,9042
325,10973,0,0,9027
326,10991,0,0,9009
327,11003,0,0,8997
328,11011,0,0,8989
329,11029,0,0,8971
330,11057,0,0,8943
331,11077,0,0,8923
332,11096,0,0,8904
333,11136,0,0,8864
334,11162,0,0,8838
335,11189,0,0,8811
336,11209,0,0,8791
337,11245,0,0,8755
338,11273,0,0,8727
339,11315,0,0,8685
340,11348,0,0,8652
341,11377,0,0,8623
342,11404,0,0,8596
343,11455,0,0,8545
344,11503,0,0,8497
345,11535,0,0,8465
346,11573,0,0,8427
347,11615,0,0,8385
348,11649,0,0,8351
349,11671,0,0,8329
350,11693,0,0,8307
351,11730,0,0,8270
352,11769,0,0,8231
353,11785,0,0,8215
354,11812,0,0,8188
355,11840,0,0,8160
356,11857,0,0,8143
357,11886,0,0,8114
358,11904,0,0,8096
359,11929,0,0,8071
360,11948,0,0,8052
361,11964,0,0,8036
362,11982,0,0,8018
363,12004,0,0,7996
364,12029,0,0,7971
365,12041,0,0,7959
366,12054,0,0,7946
367,12074,0,0,7926
368,12090,0,0,7910
369,12107,0,0,7893
370,12128,0,0,7872
371,12143,0,0,7857
372,12166,0,0,7834
373,12184,0,0,7816
374,12218,0,0,7782
375,12238,0,0,7762
376,12259,0,0,7741
377,12284,0,0,7716
378,12308,0,0,7692
379,12330,0,0,7670
380,12343,0,0,7657
381,12358,0,0,7642
382,12390,0,0,7610
383,12413,0,0,7587
384,12442,0,0,7558
385,12458,0,0,7542
386,12503,0,0,7497
387,12516,0,0,7484
388,12538,0,0,7462
389,12555,0,0,7445
390,12565,0,0,7435
391,12581,0,0,7419
392,12594,0,0,7406
393,12608,0,0,7392
394,12627,0,0,7373
395,12634,0,0,7366
396,12642,0,0,7358
397,12657,0,0,7343
398,12674,0,0,7326
399,12701,0,0,7299
400,12726,0,0,7274
401,12746,0,0,7254
402,12758,0,0,7242
403,12778,0,0,7222
404,12792,0,0,7208
405,12796,0,0,7204
406,12803,0,0,7197
407,12811,0,0,7189
408,12824,0,0,7176
409,12831,0,0,7169
410,12845,0,0,7155
411,12876,0,0,7124
412,12888,0,0,7112
413,12903,0,0,7097
414,12917,0,0,7083
415,12925,0,0,7075
416,12937,0,0,7063
417,12953,0,0,7047
418,12973,0,0,7027
419,12991,0,0,7009
420,13016,0,0,6984
421,13026,0,0,6974
422,13050,0,0,6950
423,13068,0,0,6932
424,13087,0,0,6913
425,13107,0,0,6893
426,13126,0,0,6874
427,13149,0,0,6851
428,13164,0,0,6836
429,13184,0,0,6816
430,13208,0,0,6792
431,13228,0,0,6772
432,13246,0,0,6754
433,13257,0,0,6743
434,13280,0,0,6720
435,13301,0,0,6699
436,13317,0,0,6683
437,13339,0,0,6661
438,13352,0,0,6648
439,13361,0,0,6639
440,13375,0,0,6625
441,13383,0,0,6617
442,13405,0,0,6595
443,13414,0,0,6586
444,13424,0,0,6576
445,13447,0,0,6553
446,13458,0,0,6542
447,13473,0,0,6527
448,13487,0,0,6513
449,13501,0,0,6499
450,13507,0,0,6493
451,13520,0,0,6480
452,13531,0,0,6469
453,13545,0,0,6455
454,13558,0,0,6442
455,13573,0,0,6427
456,13586,0,0,6414
457,13596,0,0,6404
458,13607,0,0,6393
459,13614,0,0,6386
460,13651,0,0,6349
461,13673,0,0,6327
462,13694,0,0,6306
463,13707,0,0,6293
464,13733,0,0,6267
465,13751,0,0,6249
466,13772,0,0,6228
467,13793,0,0,6207
468,13813,0,0,6187
469,13828,0,0,6172
470,13839,0,0,6161
471,13857,0,0,6143
472,13880,0,0,6120
473,13891,0,0,6109
474,13904,0,0,6096
475,13918,0,0,6082
476,13933,0,0,6067
477,13960,0,0,6040
478,13988,0,0,6012
479,14006,0,0,5994
480,14035,0,0,5965
481,14055,0,0,5945
482,14069,0,0,5931
483,14100,0,0,5900
484,14119,0,0,5881
485,14130,0,0,5870
486,14142,0,0,5858
487,14157,0,0,5843
488,14163,0,0,5837
489,14178,0,0,5822
490,14191,0,0,5809
491,14205,0,0,5795
492,14219,0,0,5781
493,14239,0,0,5761
494,14257,0,0,5743
495,14273,0,0,5727
496,14290,0,0,5710
497,14308,0,0,5692
498,14334,0,0,5666
499,14356,0,0,5644
500,14378,0,0,5622
501,14399,0,0,5601
502,14416,0,0,5584
503,14451,0,0,5549
504,14456,0,0,5544
505,14476,0,0,5524
506,14501,0,0,5499
507,14533,0,0,5467
508,14561,0,0,5439
509,14584,0,0,5416
510,14593,0,0,5407
511,14603,0,0,5397
512,14619,0,0,5381
513,14631,0,0,5369
514,14639,0,0,5361
515,14649,0,0,5351
516,14676,0,0,5324
517,14699,0,0,5301
518,14710,0,0,5290
519,14737,0,0,5263
520,14759,0,0,5241
521,14781,0,0,5219
522,14801,0,0,5199
523,14813,0,0,5187
524,14828,0,0,5172
525,14849,0,0,5151
526,14862,0,0,5138
527,14880,0,0,5120
528,14899,0,0,5101
529,14928,0,0,5072
530,14939,0,0,5061
531,14961,0,0,5039
532,14998,0,0,5002
533,15011,0,0,4989
534,15029,0,0,4971
535,15053,0,0,4947
536,15064,0,0,4936
537,15078,0,0,4922
538,15094,0,0,4906
539,15108,0,0,4892
540,15114,0,0,4886
541,15122,0,0,4878
542,15128,0,0,4872
543,15141,0,0,4859
544,15146,0,0,4854
545,15160,0,0,4840
546,15174,0,0,4826
547,15203,0,0,4797
548,15224,0,0,4776
549,15247,0,0,4753
550,15266,0,0,4734
551,15286,0,0,4714
552,15295,0,0,4705
553,15306,0,0,4694
554,15316,0,0,4684
555,15328,0,0,4672
556,15336,0,0,4664
557,15346,0,0,4654
558,15361,0,0,4639
559,15363,0,0,4637
560,15378,0,0,4622
561,15394,0,0,4606
562,15401,0,0,4599
563,15410,0,0,4590
564,15416,0,0,4584
565,15422,0,0,4578
566,15431,0,0,4569
567,15442,0,0,4558
568,15456,0,0,4544
569,15457,0,0,4543
570,15462,0,0,4538
571,15468,0,0,4532
572,15482,0,0,4518
573,15490,0,0,4510
574,15494,0,0,4506
575,15501,0,0,4499
576,15503,0,0,4497
577,15506,0,0,4494
578,15526,0,0,4474
579,15535,0,0,4465
580,15546,0,0,4454
581,15549,0,0,4451
582,15556,0,0,4444
583,15562,0,0,4438
584,15579,0,0,4421
585,15583,0,0,4417
586,15595,0,0,4405
587,15603,0,0,4397
588,15611,0,0,4389
589,15620,0,0,4380
590,15626,0,0,4374
591,15640,0,0,4360
592,15662,0,0,4338
593,15669,0,0,4331
594,15676,0,0,4324
595,15686,0,0,4314
596,15689,0,0,4311
597,15701,0,0,4299
598,15710,0,0,4290
599,15725,0,0,4275
600,15740,0,0,4260
601,15752,0,0,4248
602,15769,0,0,4231
603,15774,0,0,4226
604,15785,0,0,4215
605,15811,0,0,4189
606,15824,0,0,4176
607,15846,0,0,4154
608,15854,0,0,4146
609,15880,0,0,4120
610,15895,0,0,4105
611,15916,0,0,4084
612,15923,0,0,4077
613,15945,0,0,4055
614,15955,0,0,4045
615,15972,0,0,4028
616,15982,0,0,4018
617,15997,0,0,4003
618,16000,0,0,4000
619,16011,0,0,3989
620,16021,0,0,3979
621,16031,0,0,3969
622,16048,0,0,3952
623,16067,0,0,3933
624,16077,0,0,3923
625,16097,0,0,3903
626,16105,0,0,3895
627,16124,0,0,3876
628,16136,0,0,3864
629,16137,0,0,3863
630,16151,0,0,3849
631,16159,0,0,3841
632,16166,0,0,3834
633,16190,0,0,3810
634,16210,0,0,3790
635,16212,0,0,3788
636,16222,0,0,3778
637,16237,0,0,3763
638,16253,0,0,3747
639,16273,0,0,3727
640,16295,0,0,3705
641,16320,0,0,3680
642,16338,0,0,3662
643,16344,0,0,3656
644,16359,0,0,3641
645,16379,0,0,3621
646,16391,0,0,3609
647,16407,0,0,3593
648,16422,0,0,3578
649,16439,0,0,3561
650,16450,0,0,3550
651,16462,0,0,3538
652,16481,0,0,3519
653,16491,0,0,3509
654,16502,0,0,3498
655,16504,0,0,3496
656,16510,0,0,3490
657,16516,0,0,3484
658,16524,0,0,3476
659,16529,0,0,3471
660,16547,0,0,3453
661,16547,0,0,3453
662,16547,0,0,3453
663,16556,0,0,3444
664,16556,0,0,3444
665,16556,0,0,3444
666,16558,0,0,3442
667,16562,0,0,3438
668,16562,0,0,3438
669,16563,0,0,3437
670,16563,0,0,3437
671,16565,0,0,3435
672,16568,0,0,3432
673,16572,0,0,3428
674,16575,0,0,3425
675,16582,0,0,3418
676,16584,0,0,3416
677,16587,0,0,3413
678,16591,0,0,3409
679,16597,0,0,3403
680,16604,0,0,3396
681,16609,0,0,3391
682,16623,0,0,3377
683,16626,0,0,3374
684,16637,0,0,3363
685,16644,0,0,3356
686,16645,0,0,3355
687,16648,0,0,3352
688,16653,0,0,3347
689,16667,0,0,3333
690,16671,0,0,3329
691,16671,0,0,3329
692,16678,0,0,3322
693,16687,0,0,3313
694,16689,0,0,3311
695,16695,0,0,3305
696,16698,0,0,3302
697,16703,0,0,3297
698,16705,0,0,3295
699,16711,0,0,3289
700,16715,0,0,3285
701,16721,0,0,3279
702,16723,0,0,3277
703,16732,0,0,3268
704,16735,0,0,3265
705,16739,0,0,3261
706,16747,0,0,3253
707,16751,0,0,3249
708,16753,0,0,3247
709,16762,0,0,3238
710,16771,0,0,3229
711,16781,0,0,3219
712,16790,0,0,3210
713,16814,0,0,3186
714,16827,0,0,3173
715,16832,0,0,3168
716,16837,0,0,3163
717,16865,0,0,3135
718,16876,0,0,3124
719,16886,0,0,3114
720,16895,0,0,3105
721,16903,0,0,3097
722,16908,0,0,3092
723,16920,0,0,3080
724,16927,0,0,3073
725,16929,0,0,3071
726,16936,0,0,3064
727,16940,0,0,3060
728,16944,0,0,3056
729,16946,0,0,3054
730,16954,0,0,3046
