Iteration,Susceptible,Exposed,Infected,Recovered
0,19980,0,20,0
1,19967,13,13,7
2,19961,15,17,7
3,19946,27,17,10
4,19923,45,20,12
5,19910,47,15,28
6,19901,42,23,34
7,19884,47,32,37
8,19862,56,38,44
9,19834,70,44,52
10,19787,99,54,60
11,19738,114,75,73
12,19678,146,83,93
13,19598,182,106,114
14,19516,213,138,133
15,19389,279,172,160
16,19244,347,227,182
17,19039,464,270,227
18,18774,586,358,282
19,18464,722,465,349
20,18149,834,560,457
21,17765,1008,646,581
22,17218,1271,799,712
23,16560,1598,966,876
24,15987,1776,1171,1066
25,15177,2114,1407,1302
26,14260,2389,1829,1522
27,13280,2632,2277,1811
28,11892,3218,2688,2202
29,10711,3465,3105,2719
30,9467,3683,3501,3349
31,7983,4108,3939,3970
32,6736,4119,4522,4623
33,5613,4112,4864,5411
34,4726,3925,5097,6252
35,3909,3682,5351,7058
36,3232,3311,5602,7855
37,2615,3004,5681,8700
38,2344,2380,5897,9379
39,1970,2095,5848,10087
40,1616,1885,5699,10800
41,1316,1697,5455,11532
42,1141,1425,5261,12173
43,1006,1221,4994,12779
44,969,973,4800,13258
45,766,958,4413,13863
46,752,717,4304,14227
47,750,546,3964,14740
48,775,428,3629,15168
49,777,351,3410,15462
50,778,319,3153,15750
51,797,247,2884,16072
52,798,242,2610,16350
53,796,231,2416,16557
54,825,169,2230,16776
55,892,112,1976,17020
56,909,116,1802,17173
57,985,87,1645,17283
58,1067,83,1469,17381
59,1127,79,1338,17456
60,1173,73,1196,17558
61,1218,75,1104,17603
62,1257,80,1014,17649
63,1299,82,931,17688
64,1350,57,861,17732
65,1406,42,770,17782
66,1489,46,692,17773
67,1515,67,649,17769
68,1570,44,616,17770
69,1612,62,568,17758
70,1664,34,535,17767
71,1715,22,436,17827
72,1780,25,386,17809
73,1827,46,349,17778
74,1887,26,339,17748
75,1952,39,280,17729
76,2021,26,267,17686
77,2093,19,225,17663
78,2164,23,187,17626
79,2237,12,178,17573
80,2308,18,155,17519
81,2366,17,132,17485
82,2426,19,126,17429
83,2489,16,116,17379
84,2558,13,108,17321
85,2595,11,96,17298
86,2665,6,87,17242
87,2720,11,78,17191
88,2790,9,74,17127
89,2849,7,64,17080
90,2911,4,59,17026
91,2959,8,56,16977
92,3007,8,55,16930
93,3039,6,52,16903
94,3081,10,46,16863
95,3130,3,45,16822
96,3177,11,33,16779
97,3227,2,38,16733
98,3303,2,28,16667
99,3353,0,28,16619
100,3447,1,26,16526
101,3502,3,26,16469
102,3544,3,28,16425
103,3610,6,27,16357
104,3660,4,24,16312
105,3731,5,23,16241
106,3785,8,23,16184
107,3832,13,21,16134
108,3875,5,23,16097
109,3914,3,16,16067
110,3962,2,15,16021
111,4016,2,9,15973
112,4056,2,9,15933
113,4096,2,5,15897
114,4140,1,6,15853
115,4184,2,2,15812
116,4246,1,2,15751
117,4292,0,3,15705
118,4341,0,2,15657
119,4401,1,2,15596
120,4464,0,3,15533
121,4529,0,3,15468
122,4577,1,1,15421
123,4647,0,2,15351
124,4693,1,1,15305
125,4740,0,2,15258
126,4792,0,2,15206
127,4825,0,1,15174
128,4852,0,1,15147
129,4914,0,1,15085
130,4967,0,1,15032
131,4996,0,0,15004
132,5041,0,0,14959
133,5085,0,0,14915
134,5121,0,0,14879
135,5162,0,0,14838
136,5207,0,0,14793
137,5243,0,0,14757
138,5284,0,0,14716
139,5318,0,0,14682
140,5351,0,0,14649
141,5386,0,0,14614
142,5416,0,0,14584
143,5443,0,0,14557
144,5473,0,0,14527
145,5509,0,0,14491
146,5534,0,0,14466
147,5564,0,0,14436
148,5590,0,0,14410
149,5612,0,0,14388
150,5645,0,0,14355
151,5689,0,0,14311
152,5720,0,0,14280
153,5751,0,0,14249
154,5796,0,0,14204
155,5832,0,0,14168
156,5870,0,0,14130
157,5881,0,0,14119
158,5914,0,0,14086
159,5939,0,0,14061
160,5971,0,0,14029
161,6000,0,0,14000
162,6023,0,0,13977
163,6048,0,0,13952
164,6077,0,0,13923
165,6103,0,0,13897
166,6129,0,0,13871
167,6169,0,0,13831
168,6194,0,0,13806
169,6244,0,0,13756
170,6271,0,0,13729
171,6296,0,0,13704
172,6312,0,0,13688
173,6326,0,0,13674
174,6364,0,0,13636
175,6401,0,0,13599
176,6434,0,0,13566
177,6466,0,0,13534
178,6494,0,0,13506
179,6515,0,0,13485
180,6556,0,0,13444
181,6584,0,0,13416
182,6630,0,0,13370
183,6661,0,0,13339
184,6710,0,0,13290
185,6727,0,0,13273
186,6779,0,0,13221
187,6832,0,0,13168
188,6876,0,0,13124
189,6912,0,0,13088
190,6945,0,0,13055
191,6994,0,0,13006
192,7015,0,0,12985
193,7030,0,0,12970
194,7064,0,0,12936
195,7099,0,0,12901
196,7116,0,0,12884
197,7146,0,0,12854
198,7188,0,0,12812
199,7211,0,0,12789
200,7251,0,0,12749
201,7301,0,0,12699
202,7327,0,0,12673
203,7351,0,0,12649
204,7376,0,0,12624
205,7423,0,0,12577
206,7451,0,0,12549
207,7479,0,0,12521
208,7517,0,0,12483
209,7572,0,0,12428
210,7621,0,0,12379
211,7641,0,0,12359
212,7665,0,0,12335
213,7699,0,0,12301
214,7721,0,0,12279
215,7747,0,0,12253
216,7769,0,0,12231
217,7801,0,0,12199
218,7832,0,0,12168
219,7872,0,0,12128
220,7903,0,0,12097
221,7932,0,0,12068
222,7958,0,0,12042
223,8001,0,0,11999
224,8030,0,0,11970
225,8078,0,0,11922
226,8125,0,0,11875
227,8156,0,0,11844
228,8182,0,0,11818
229,8216,0,0,11784
230,8246,0,0,11754
231,8277,0,0,11723
232,8305,0,0,11695
233,8333,0,0,11667
234,8362,0,0,11638
235,8387,0,0,11613
236,8402,0,0,11598
237,8442,0,0,11558
238,8468,0,0,11532
239,8501,0,0,11499
240,8524,0,0,11476
241,8566,0,0,11434
242,8587,0,0,11413
243,8617,0,0,11383
244,8644,0,0,11356
245,8665,0,0,11335
246,8683,0,0,11317
247,8705,0,0,11295
248,8729,0,0,11271
249,8763,0,0,11237
250,8779,0,0,11221
251,8800,0,0,11200
252,8834,0,0,11166
253,8856,0,0,11144
254,8881,0,0,11119
255,8907,0,0,11093
256,8929,0,0,11071
257,8956,0,0,11044
258,8980,0,0,11020
259,9014,0,0,10986
260,9044,0,0,10956
261,9061,0,0,10939
262,9080,0,0,10920
263,9127,0,0,10873
264,9166,0,0,10834
265,9193,0,0,10807
266,9215,0,0,10785
267,9254,0,0,10746
268,9275,0,0,10725
269,9286,0,0,10714
270,9311,0,0,10689
271,9350,0,0,10650
272,9377,0,0,10623
273,9411,0,0,10589
274,9446,0,0,10554
275,9482,0,0,10518
276,9510,0,0,10490
277,9532,0,0,10468
278,9561,0,0,10439
279,9582,0,0,10418
280,9608,0,0,10392
281,9636,0,0,10364
282,9661,0,0,10339
283,9689,0,0,10311
284,9711,0,0,10289
285,9733,0,0,10267
286,9766,0,0,10234
287,9783,0,0,10217
288,9814,0,0,10186
289,9836,0,0,10164
290,9862,0,0,10138
291,9905,0,0,10095
292,9947,0,0,10053
293,9976,0,0,10024
294,10000,0,0,10000
295,10026,0,0,9974
296,10040,0,0,9960
297,10063,0,0,9937
298,10095,0,0,9905
299,10114,0,0,9886
300,10139,0,0,9861
301,10164,0,0,9836
302,10190,0,0,9810
303,10223,0,0,9777
304,10241,0,0,9759
305,10278,0,0,9722
306,10312,0,0,9688
307,10358,0,0,9642
308,10389,0,0,9611
309,10421,0,0,9579
310,10453,0,0,9547
311,10489,0,0,9511
312,10536,0,0,9464
313,10573,0,0,9427
314,10598,0,0,9402
315,10633,0,0,9367
316,10674,0,0,9326
317,10690,0,0,9310
318,10731,0,0,9269
319,10751,0,0,9249
320,10780,0,0,9220
321,10807,0,0,9193
322,10849,0,0,9151
323,10868,0,0,9132
324,10887,0,0,9113
325,10933,0,0,9067
326,10966,0,0,9034
327,10992,0,0,9008
328,11022,0,0,8978
329,11058,0,0,8942
330,11080,0,0,8920
331,11119,0,0,8881
332,11154,0,0,8846
333,11186,0,0,8814
334,11224,0,0,8776
335,11248,0,0,8752
336,11280,0,0,8720
337,11325,0,0,8675
338,11349,0,0,8651
339,11402,0,0,8598
340,11421,0,0,8579
341,11451,0,0,8549
342,11493,0,0,8507
343,11528,0,0,8472
344,11570,0,0,8430
345,11598,0,0,8402
346,11634,0,0,8366
347,11661,0,0,8339
348,11694,0,0,8306
349,11723,0,0,8277
350,11737,0,0,8263
351,11746,0,0,8254
352,11774,0,0,8226
353,11797,0,0,8203
354,11811,0,0,8189
355,11828,0,0,8172
356,11852,0,0,8148
357,11869,0,0,8131
358,11890,0,0,8110
359,11897,0,0,8103
360,11926,0,0,8074
361,11942,0,0,8058
362,11982,0,0,8018
363,12020,0,0,7980
364,12043,0,0,7957
365,12069,0,0,7931
366,12096,0,0,7904
367,12123,0,0,7877
368,12153,0,0,7847
369,12178,0,0,7822
370,12198,0,0,7802
371,12228,0,0,7772
372,12236,0,0,7764
373,12250,0,0,7750
374,12264,0,0,7736
375,12275,0,0,7725
376,12287,0,0,7713
377,12314,0,0,7686
378,12324,0,0,7676
379,12335,0,0,7665
380,12351,0,0,7649
381,12365,0,0,7635
382,12385,0,0,7615
383,12403,0,0,7597
384,12419,0,0,7581
385,12450,0,0,7550
386,12474,0,0,7526
387,12493,0,0,7507
388,12523,0,0,7477
389,12533,0,0,7467
390,12552,0,0,7448
391,12578,0,0,7422
392,12605,0,0,7395
393,12619,0,0,7381
394,12653,0,0,7347
395,12672,0,0,7328
396,12695,0,0,7305
397,12705,0,0,7295
398,12732,0,0,7268
399,12764,0,0,7236
400,12800,0,0,7200
401,12812,0,0,7188
402,12822,0,0,7178
403,12854,0,0,7146
404,12873,0,0,7127
405,12880,0,0,7120
406,12897,0,0,7103
407,12924,0,0,7076
408,12936,0,0,7064
409,12952,0,0,7048
410,12965,0,0,7035
411,13000,0,0,7000
412,13018,0,0,6982
413,13034,0,0,6966
414,13043,0,0,6957
415,13057,0,0,6943
416,13074,0,0,6926
417,13091,0,0,6909
418,13110,0,0,6890
419,13123,0,0,6877
420,13141,0,0,6859
421,13163,0,0,6837
422,13186,0,0,6814
423,13197,0,0,6803
424,13211,0,0,6789
425,13233,0,0,6767
426,13259,0,0,6741
427,13291,0,0,6709
428,13308,0,0,6692
429,13342,0,0,6658
430,13362,0,0,6638
431,13377,0,0,6623
432,13407,0,0,6593
433,13424,0,0,6576
434,13448,0,0,6552
435,13469,0,0,6531
436,13487,0,0,6513
437,13516,0,0,6484
438,13536,0,0,6464
439,13549,0,0,6451
440,13565,0,0,6435
441,13575,0,0,6425
442,13587,0,0,6413
443,13593,0,0,6407
444,13609,0,0,6391
445,13630,0,0,6370
446,13653,0,0,6347
447,13662,0,0,6338
448,13677,0,0,6323
449,13687,0,0,6313
450,13703,0,0,6297
451,13713,0,0,6287
452,13737,0,0,6263
453,13742,0,0,6258
454,13755,0,0,6245
455,13761,0,0,6239
456,13775,0,0,6225
457,13780,0,0,6220
458,13798,0,0,6202
459,13807,0,0,6193
460,13818,0,0,6182
461,13821,0,0,6179
462,13840,0,0,6160
463,13847,0,0,6153
464,13861,0,0,6139
465,13874,0,0,6126
466,13884,0,0,6116
467,13894,0,0,6106
468,13906,0,0,6094
469,13916,0,0,6084
470,13950,0,0,6050
471,13959,0,0,6041
472,13970,0,0,6030
473,13982,0,0,6018
474,14000,0,0,6000
475,14021,0,0,5979
476,14024,0,0,5976
477,14049,0,0,5951
478,14074,0,0,5926
479,14083,0,0,5917
480,14097,0,0,5903
481,14123,0,0,5877
482,14143,0,0,5857
483,14158,0,0,5842
484,14172,0,0,5828
485,14179,0,0,5821
486,14191,0,0,5809
487,14211,0,0,5789
488,14238,0,0,5762
489,14256,0,0,5744
490,14276,0,0,5724
491,14292,0,0,5708
492,14327,0,0,5673
493,14345,0,0,5655
494,14360,0,0,5640
495,14381,0,0,5619
496,14397,0,0,5603
497,14414,0,0,5586
498,14429,0,0,5571
499,14441,0,0,5559
500,14467,0,0,5533
501,14479,0,0,5521
502,14480,0,0,5520
503,14496,0,0,5504
504,14506,0,0,5494
505,14515,0,0,5485
506,14518,0,0,5482
507,14532,0,0,5468
508,14541,0,0,5459
509,14549,0,0,5451
510,14551,0,0,5449
511,14568,0,0,5432
512,14579,0,0,5421
513,14589,0,0,5411
514,14596,0,0,5404
515,14615,0,0,5385
516,14630,0,0,5370
517,14652,0,0,5348
518,14672,0,0,5328
519,14705,0,0,5295
520,14727,0,0,5273
521,14751,0,0,5249
522,14784,0,0,5216
523,14801,0,0,5199
524,14825,0,0,5175
525,14859,0,0,5141
526,14879,0,0,5121
527,14898,0,0,5102
528,14909,0,0,5091
529,14932,0,0,5068
530,14942,0,0,5058
531,14959,0,0,5041
532,14982,0,0,5018
533,14998,0,0,5002
534,15027,0,0,4973
535,15042,0,0,4958
536,15056,0,0,4944
537,15072,0,0,4928
538,15086,0,0,4914
539,15104,0,0,4896
540,15109,0,0,4891
541,15129,0,0,4871
542,15130,0,0,4870
543,15143,0,0,4857
544,15160,0,0,4840
545,15170,0,0,4830
546,15184,0,0,4816
547,15196,0,0,4804
548,15212,0,0,4788
549,15223,0,0,4777
550,15237,0,0,4763
551,15252,0,0,4748
552,15256,0,0,4744
553,15261,0,0,4739
554,15268,0,0,4732
555,15272,0,0,4728
556,15275,0,0,4725
557,15284,0,0,4716
558,15291,0,0,4709
559,15294,0,0,4706
560,15301,0,0,4699
561,15305,0,0,4695
562,15309,0,0,4691
563,15313,0,0,4687
564,15316,0,0,4684
565,15321,0,0,4679
566,15325,0,0,4675
567,15330,0,0,4670
568,15334,0,0,4666
569,15341,0,0,4659
570,15348,0,0,4652
571,15352,0,0,4648
572,15356,0,0,4644
573,15370,0,0,4630
574,15385,0,0,4615
575,15389,0,0,4611
576,15410,0,0,4590
577,15440,0,0,4560
578,15456,0,0,4544
579,15469,0,0,4531
580,15476,0,0,4524
581,15500,0,0,4500
582,15513,0,0,4487
583,15520,0,0,4480
584,15529,0,0,4471
585,15537,0,0,4463
586,15556,0,0,4444
587,15572,0,0,4428
588,15587,0,0,4413
589,15598,0,0,4402
590,15616,0,0,4384
591,15644,0,0,4356
592,15658,0,0,4342
593,15668,0,0,4332
594,15680,0,0,4320
595,15702,0,0,4298
596,15707,0,0,4293
597,15716,0,0,4284
598,15724,0,0,4276
599,15744,0,0,4256
600,15755,0,0,4245
601,15767,0,0,4233
602,15780,0,0,4220
603,15788,0,0,4212
604,15793,0,0,4207
605,15811,0,0,4189
606,15823,0,0,4177
607,15824,0,0,4176
608,15841,0,0,4159
609,15848,0,0,4152
610,15856,0,0,4144
611,15866,0,0,4134
612,15871,0,0,4129
613,15876,0,0,4124
614,15887,0,0,4113
615,15908,0,0,4092
616,15923,0,0,4077
617,15936,0,0,4064
618,15954,0,0,4046
619,15963,0,0,4037
620,15972,0,0,4028
621,15988,0,0,4012
622,15994,0,0,4006
623,16002,0,0,3998
624,16017,0,0,3983
625,16032,0,0,3968
626,16051,0,0,3949
627,16067,0,0,3933
628,16085,0,0,3915
629,16094,0,0,3906
630,16112,0,0,3888
631,16122,0,0,3878
632,16134,0,0,3866
633,16153,0,0,3847
634,16166,0,0,3834
635,16172,0,0,3828
636,16178,0,0,3822
637,16192,0,0,3808
638,16194,0,0,3806
639,16204,0,0,3796
640,16208,0,0,3792
641,16217,0,0,3783
642,16226,0,0,3774
643,16229,0,0,3771
644,16236,0,0,3764
645,16256,0,0,3744
646,16261,0,0,3739
647,16273,0,0,3727
648,16281,0,0,3719
649,16289,0,0,3711
650,16306,0,0,3694
651,16320,0,0,3680
652,16328,0,0,3672
653,16330,0,0,3670
654,16335,0,0,3665
655,16337,0,0,3663
656,16337,0,0,3663
657,16343,0,0,3657
658,16350,0,0,3650
659,16359,0,0,3641
660,16373,0,0,3627
661,16384,0,0,3616
662,16391,0,0,3609
663,16400,0,0,3600
664,16404,0,0,3596
665,16410,0,0,3590
666,16415,0,0,3585
667,16423,0,0,3577
668,16439,0,0,3561
669,16451,0,0,3549
670,16461,0,0,3539
671,16468,0,0,3532
672,16472,0,0,3528
673,16485,0,0,3515
674,16492,0,0,3508
675,16500,0,0,3500
676,16505,0,0,3495
677,16507,0,0,3493
678,16509,0,0,3491
679,16518,0,0,3482
680,16523,0,0,3477
681,16530,0,0,3470
682,16532,0,0,3468
683,16547,0,0,3453
684,16559,0,0,3441
685,16568,0,0,3432
686,16574,0,0,3426
687,16580,0,0,3420
688,16588,0,0,3412
689,16603,0,0,3397
690,16622,0,0,3378
691,16634,0,0,3366
692,16645,0,0,3355
693,16650,0,0,3350
694,16656,0,0,3344
695,16669,0,0,3331
696,16680,0,0,3320
697,16692,0,0,3308
698,16701,0,0,3299
699,16707,0,0,3293
700,16709,0,0,3291
701,16735,0,0,3265
702,16750,0,0,3250
703,16761,0,0,3239
704,16772,0,0,3228
705,16787,0,0,3213
706,16805,0,0,3195
707,16815,0,0,3185
708,16829,0,0,3171
709,16847,0,0,3153
710,16861,0,0,3139
711,16873,0,0,3127
712,16877,0,0,3123
713,16883,0,0,3117
714,16885,0,0,3115
715,16899,0,0,3101
716,16903,0,0,3097
717,16908,0,0,3092
718,16921,0,0,3079
719,16937,0,0,3063
720,16942,0,0,3058
721,16954,0,0,3046
722,16958,0,0,3042
723,16976,0,0,3024
724,16984,0,0,3016
725,17001,0,0,2999
726,17008,0,0,2992
727,17012,0,0,2988
728,17015,0,0,2985
729,17019,0,0,2981
730,17022,0,0,2978
