Iteration,Susceptible,Exposed,Infected,Recovered
0,19980,0,20,0
1,19966,14,20,0
2,19949,26,25,0
3,19926,45,26,3
4,19898,64,32,6
5,19860,82,49,9
6,19813,107,65,15
7,19749,138,86,27
8,19671,177,105,47
9,19567,234,141,58
10,19435,296,181,88
11,19260,386,232,122
12,19076,469,287,168
13,18862,550,356,232
14,18592,696,414,298
15,18253,846,504,397
16,17908,967,643,482
17,17396,1200,790,614
18,16781,1498,969,752
19,15975,1933,1150,942
20,15142,2238,1447,1173
21,14202,2555,1762,1481
22,13308,2780,2086,1826
23,12223,3186,2396,2195
24,11228,3398,2782,2592
25,10051,3672,3167,3110
26,8796,4010,3545,3649
27,7699,4047,4049,4205
28,6562,4095,4460,4883
29,5385,4148,4903,5564
30,4473,3959,5283,6285
31,3681,3673,5565,7081
32,3101,3331,5736,7832
33,2452,3118,5800,8630
34,2020,2726,5859,9395
35,1754,2237,5885,10124
36,1276,2173,5751,10800
37,1100,1764,5685,11451
38,919,1435,5621,12025
39,838,1148,5421,12593
40,677,1055,5064,13204
41,751,671,4942,13636
42,696,641,4538,14125
43,679,543,4277,14501
44,709,409,3975,14907
45,713,373,3630,15284
46,729,283,3388,15600
47,698,270,3095,15937
48,689,253,2884,16174
49,685,223,2617,16475
50,707,192,2429,16672
51,718,181,2230,16871
52,687,174,2042,17097
53,670,149,1873,17308
54,695,124,1708,17473
55,767,93,1541,17599
56,823,79,1407,17691
57,887,75,1272,17766
58,926,67,1158,17849
59,933,76,1040,17951
60,994,42,998,17966
61,1027,65,881,18027
62,1045,49,823,18083
63,1092,50,719,18139
64,1165,35,673,18127
65,1246,28,607,18119
66,1288,30,562,18120
67,1303,41,518,18138
68,1346,33,479,18142
69,1390,34,433,18143
70,1435,29,415,18121
71,1496,17,386,18101
72,1543,8,347,18102
73,1614,9,323,18054
74,1646,32,291,18031
75,1696,23,286,17995
76,1748,20,263,17969
77,1780,24,245,17951
78,1828,21,227,17924
79,1905,15,203,17877
80,1952,26,176,17846
81,2004,12,176,17808
82,2060,14,149,17777
83,2104,18,145,17733
84,2142,15,127,17716
85,2202,15,124,17659
86,2248,11,109,17632
87,2319,10,100,17571
88,2387,8,98,17507
89,2444,9,94,17453
90,2502,6,79,17413
91,2548,10,69,17373
92,2628,8,68,17296
93,2683,2,65,17250
94,2748,13,47,17192
95,2807,8,56,17129
96,2857,7,48,17088
97,2933,2,43,17022
98,2995,5,35,16965
99,3048,5,37,16910
100,3096,5,28,16871
101,3139,7,29,16825
102,3188,5,31,16776
103,3238,3,29,16730
104,3312,0,27,16661
105,3352,2,24,16622
106,3392,5,18,16585
107,3429,4,18,16549
108,3501,4,16,16479
109,3546,0,12,16442
110,3594,0,7,16399
111,3629,2,7,16362
112,3700,0,7,16293
113,3741,1,5,16253
114,3802,0,5,16193
115,3846,2,3,16149
116,3890,1,1,16108
117,3941,1,1,16057
118,3979,2,0,16019
119,4030,2,1,15967
120,4077,1,1,15921
121,4128,1,0,15871
122,4169,0,1,15830
123,4213,0,1,15786
124,4261,0,1,15738
125,4308,0,1,15691
126,4356,1,1,15642
127,4413,0,2,15585
128,4466,0,2,15532
129,4514,0,1,15485
130,4549,0,1,15450
131,4576,0,1,15423
132,4620,0,1,15379
133,4668,1,1,15330
134,4706,0,2,15292
135,4729,0,1,15270
136,4757,0,1,15242
137,4781,0,1,15218
138,4816,0,0,15184
139,4846,0,0,15154
140,4894,0,0,15106
141,4941,0,0,15059
142,4970,0,0,15030
143,5008,0,0,14992
144,5032,0,0,14968
145,5072,0,0,14928
146,5094,0,0,14906
147,5121,0,0,14879
148,5152,0,0,14848
149,5182,0,0,14818
150,5210,0,0,14790
151,5260,0,0,14740
152,5293,0,0,14707
153,5343,0,0,14657
154,5384,0,0,14616
155,5422,0,0,14578
156,5456,0,0,14544
157,5500,0,0,14500
158,5564,0,0,14436
159,5608,0,0,14392
160,5665,0,0,14335
161,5738,0,0,14262
162,5804,0,0,14196
163,5840,0,0,14160
164,5905,0,0,14095
165,5949,0,0,14051
166,6013,0,0,13987
167,6062,0,0,13938
168,6094,0,0,13906
169,6143,0,0,13857
170,6187,0,0,13813
171,6230,0,0,13770
172,6278,0,0,13722
173,6313,0,0,13687
174,6365,0,0,13635
175,6412,0,0,13588
176,6475,0,0,13525
177,6523,0,0,13477
178,6558,0,0,13442
179,6624,0,0,13376
180,6656,0,0,13344
181,6684,0,0,13316
182,6715,0,0,13285
183,6752,0,0,13248
184,6795,0,0,13205
185,6825,0,0,13175
186,6868,0,0,13132
187,6898,0,0,13102
188,6936,0,0,13064
189,6958,0,0,13042
190,6982,0,0,13018
191,7003,0,0,12997
192,7015,0,0,12985
193,7037,0,0,12963
194,7069,0,0,12931
195,7095,0,0,12905
196,7128,0,0,12872
197,7169,0,0,12831
198,7222,0,0,12778
199,7258,0,0,12742
200,7286,0,0,12714
201,7314,0,0,12686
202,7339,0,0,12661
203,7373,0,0,12627
204,7391,0,0,12609
205,7416,0,0,12584
206,7439,0,0,12561
207,7468,0,0,12532
208,7498,0,0,12502
209,7524,0,0,12476
210,7567,0,0,12433
211,7602,0,0,12398
212,7626,0,0,12374
213,7650,0,0,12350
214,7676,0,0,12324
215,7716,0,0,12284
216,7751,0,0,12249
217,7807,0,0,12193
218,7861,0,0,12139
219,7905,0,0,12095
220,7951,0,0,12049
221,7987,0,0,12013
222,8030,0,0,11970
223,8081,0,0,11919
224,8125,0,0,11875
225,8160,0,0,11840
226,8202,0,0,11798
227,8234,0,0,11766
228,8277,0,0,11723
229,8290,0,0,11710
230,8337,0,0,11663
231,8360,0,0,11640
232,8386,0,0,11614
233,8417,0,0,11583
234,8448,0,0,11552
235,8478,0,0,11522
236,8498,0,0,11502
237,8530,0,0,11470
238,8550,0,0,11450
239,8566,0,0,11434
240,8587,0,0,11413
241,8611,0,0,11389
242,8638,0,0,11362
243,8650,0,0,11350
244,8682,0,0,11318
245,8711,0,0,11289
246,8733,0,0,11267
247,8760,0,0,11240
248,8786,0,0,11214
249,8814,0,0,11186
250,8831,0,0,11169
251,8850,0,0,11150
252,8884,0,0,11116
253,8922,0,0,11078
254,8938,0,0,11062
255,8952,0,0,11048
256,8981,0,0,11019
257,9014,0,0,10986
258,9041,0,0,10959
259,9072,0,0,10928
260,9098,0,0,10902
261,9123,0,0,10877
262,9147,0,0,10853
263,9173,0,0,10827
264,9214,0,0,10786
265,9242,0,0,10758
266,9261,0,0,10739
267,9296,0,0,10704
268,9321,0,0,10679
269,9352,0,0,10648
270,9385,0,0,10615
271,9410,0,0,10590
272,9443,0,0,10557
273,9474,0,0,10526
274,9493,0,0,10507
275,9543,0,0,10457
276,9552,0,0,10448
277,9580,0,0,10420
278,9609,0,0,10391
279,9636,0,0,10364
280,9651,0,0,10349
281,9670,0,0,10330
282,9707,0,0,10293
283,9721,0,0,10279
284,9738,0,0,10262
285,9765,0,0,10235
286,9793,0,0,10207
287,9807,0,0,10193
288,9833,0,0,10167
289,9846,0,0,10154
290,9883,0,0,10117
291,9918,0,0,10082
292,9950,0,0,10050
293,9996,0,0,10004
294,10017,0,0,9983
295,10042,0,0,9958
296,10083,0,0,9917
297,10113,0,0,9887
298,10141,0,0,9859
299,10168,0,0,9832
300,10194,0,0,9806
301,10221,0,0,9779
302,10256,0,0,9744
303,10276,0,0,9724
304,10307,0,0,9693
305,10329,0,0,9671
306,10358,0,0,9642
307,10378,0,0,9622
308,10397,0,0,9603
309,10420,0,0,9580
310,10453,0,0,9547
311,10485,0,0,9515
312,10511,0,0,9489
313,10539,0,0,9461
314,10575,0,0,9425
315,10596,0,0,9404
316,10627,0,0,9373
317,10649,0,0,9351
318,10688,0,0,9312
319,10694,0,0,9306
320,10711,0,0,9289
321,10738,0,0,9262
322,10761,0,0,9239
323,10781,0,0,9219
324,10798,0,0,9202
325,10816,0,0,9184
326,10839,0,0,9161
327,10860,0,0,9140
328,10885,0,0,9115
329,10905,0,0,9095
330,10908,0,0,9092
331,10929,0,0,9071
332,10944,0,0,9056
333,10959,0,0,9041
334,10972,0,0,9028
335,10990,0,0,9010
336,11017,0,0,8983
337,11033,0,0,8967
338,11048,0,0,8952
339,11064,0,0,8936
340,11081,0,0,8919
341,11093,0,0,8907
342,11109,0,0,8891
343,11130,0,0,8870
344,11144,0,0,8856
345,11163,0,0,8837
346,11180,0,0,8820
347,11191,0,0,8809
348,11209,0,0,8791
349,11226,0,0,8774
350,11241,0,0,8759
351,11258,0,0,8742
352,11283,0,0,8717
353,11291,0,0,8709
354,11307,0,0,8693
355,11331,0,0,8669
356,11361,0,0,8639
357,11378,0,0,8622
358,11422,0,0,8578
359,11437,0,0,8563
360,11466,0,0,8534
361,11484,0,0,8516
362,11501,0,0,8499
363,11518,0,0,8482
364,11540,0,0,8460
365,11552,0,0,8448
366,11576,0,0,8424
367,11591,0,0,8409
368,11627,0,0,8373
369,11663,0,0,8337
370,11685,0,0,8315
371,11714,0,0,8286
372,11740,0,0,8260
373,11761,0,0,8239
374,11775,0,0,8225
375,11790,0,0,8210
376,11807,0,0,8193
377,11817,0,0,8183
378,11844,0,0,8156
379,11870,0,0,8130
380,11881,0,0,8119
381,11894,0,0,8106
382,11914,0,0,8086
383,11934,0,0,8066
384,11943,0,0,8057
385,11956,0,0,8044
386,11982,0,0,8018
387,12004,0,0,7996
388,12022,0,0,7978
389,12038,0,0,7962
390,12044,0,0,7956
391,12067,0,0,7933
392,12081,0,0,7919
393,12113,0,0,7887
394,12131,0,0,7869
395,12135,0,0,7865
396,12145,0,0,7855
397,12161,0,0,7839
398,12179,0,0,7821
399,12200,0,0,7800
400,12216,0,0,7784
401,12244,0,0,7756
402,12258,0,0,7742
403,12284,0,0,7716
404,12299,0,0,7701
405,12318,0,0,7682
406,12351,0,0,7649
407,12387,0,0,7613
408,12409,0,0,7591
409,12429,0,0,7571
410,12447,0,0,7553
411,12469,0,0,7531
412,12492,0,0,7508
413,12520,0,0,7480
414,12536,0,0,7464
415,12564,0,0,7436
416,12581,0,0,7419
417,12609,0,0,7391
418,12631,0,0,7369
419,12654,0,0,7346
420,12662,0,0,7338
421,12687,0,0,7313
422,12706,0,0,7294
423,12731,0,0,7269
424,12748,0,0,7252
425,12765,0,0,7235
426,12779,0,0,7221
427,12796,0,0,7204
428,12801,0,0,7199
429,12821,0,0,7179
430,12831,0,0,7169
431,12842,0,0,7158
432,12854,0,0,7146
433,12878,0,0,7122
434,12893,0,0,7107
435,12913,0,0,7087
436,12921,0,0,7079
437,12937,0,0,7063
438,12965,0,0,7035
439,12990,0,0,7010
440,12994,0,0,7006
441,13017,0,0,6983
442,13049,0,0,6951
443,13060,0,0,6940
444,13090,0,0,6910
445,13112,0,0,6888
446,13140,0,0,6860
447,13176,0,0,6824
448,13197,0,0,6803
449,13216,0,0,6784
450,13225,0,0,6775
451,13238,0,0,6762
452,13249,0,0,6751
453,13261,0,0,6739
454,13272,0,0,6728
455,13295,0,0,6705
456,13304,0,0,6696
457,13317,0,0,6683
458,13334,0,0,6666
459,13353,0,0,6647
460,13365,0,0,6635
461,13391,0,0,6609
462,13410,0,0,6590
463,13421,0,0,6579
464,13425,0,0,6575
465,13433,0,0,6567
466,13448,0,0,6552
467,13469,0,0,6531
468,13474,0,0,6526
469,13481,0,0,6519
470,13492,0,0,6508
471,13504,0,0,6496
472,13507,0,0,6493
473,13516,0,0,6484
474,13532,0,0,6468
475,13540,0,0,6460
476,13551,0,0,6449
477,13562,0,0,6438
478,13579,0,0,6421
479,13586,0,0,6414
480,13592,0,0,6408
481,13608,0,0,6392
482,13611,0,0,6389
483,13616,0,0,6384
484,13624,0,0,6376
485,13628,0,0,6372
486,13632,0,0,6368
487,13641,0,0,6359
488,13655,0,0,6345
489,13661,0,0,6339
490,13678,0,0,6322
491,13682,0,0,6318
492,13697,0,0,6303
493,13712,0,0,6288
494,13720,0,0,6280
495,13730,0,0,6270
496,13738,0,0,6262
497,13745,0,0,6255
498,13758,0,0,6242
499,13774,0,0,6226
500,13793,0,0,6207
501,13816,0,0,6184
502,13843,0,0,6157
503,13856,0,0,6144
504,13870,0,0,6130
505,13877,0,0,6123
506,13885,0,0,6115
507,13900,0,0,6100
508,13917,0,0,6083
509,13931,0,0,6069
510,13947,0,0,6053
511,13954,0,0,6046
512,13969,0,0,6031
513,13985,0,0,6015
514,13990,0,0,6010
515,13995,0,0,6005
516,14003,0,0,5997
517,14011,0,0,5989
518,14022,0,0,5978
519,14036,0,0,5964
520,14050,0,0,5950
521,14063,0,0,5937
522,14070,0,0,5930
523,14076,0,0,5924
524,14085,0,0,5915
525,14097,0,0,5903
526,14103,0,0,5897
527,14116,0,0,5884
528,14133,0,0,5867
529,14150,0,0,5850
530,14165,0,0,5835
531,14180,0,0,5820
532,14185,0,0,5815
533,14196,0,0,5804
534,14221,0,0,5779
535,14231,0,0,5769
536,14245,0,0,5755
537,14255,0,0,5745
538,14266,0,0,5734
539,14287,0,0,5713
540,14306,0,0,5694
541,14321,0,0,5679
542,14346,0,0,5654
543,14366,0,0,5634
544,14378,0,0,5622
545,14400,0,0,5600
546,14403,0,0,5597
547,14425,0,0,5575
548,14442,0,0,5558
549,14474,0,0,5526
550,14489,0,0,5511
551,14504,0,0,5496
552,14514,0,0,5486
553,14518,0,0,5482
554,14529,0,0,5471
555,14534,0,0,5466
556,14543,0,0,5457
557,14552,0,0,5448
558,14558,0,0,5442
559,14572,0,0,5428
560,14577,0,0,5423
561,14579,0,0,5421
562,14597,0,0,5403
563,14609,0,0,5391
564,14613,0,0,5387
565,14623,0,0,5377
566,14632,0,0,5368
567,14638,0,0,5362
568,14651,0,0,5349
569,14664,0,0,5336
570,14687,0,0,5313
571,14711,0,0,5289
572,14722,0,0,5278
573,14753,0,0,5247
574,14777,0,0,5223
575,14792,0,0,5208
576,14815,0,0,5185
577,14835,0,0,5165
578,14856,0,0,5144
579,14874,0,0,5126
580,14881,0,0,5119
581,14904,0,0,5096
582,14914,0,0,5086
583,14930,0,0,5070
584,14946,0,0,5054
585,14966,0,0,5034
586,14991,0,0,5009
587,15006,0,0,4994
588,15032,0,0,4968
589,15039,0,0,4961
590,15057,0,0,4943
591,15068,0,0,4932
592,15084,0,0,4916
593,15100,0,0,4900
594,15113,0,0,4887
595,15126,0,0,4874
596,15145,0,0,4855
597,15164,0,0,4836
598,15180,0,0,4820
599,15185,0,0,4815
600,15201,0,0,4799
601,15208,0,0,4792
602,15220,0,0,4780
603,15231,0,0,4769
604,15254,0,0,4746
605,15286,0,0,4714
606,15302,0,0,4698
607,15320,0,0,4680
608,15337,0,0,4663
609,15358,0,0,4642
610,15379,0,0,4621
611,15388,0,0,4612
612,15398,0,0,4602
613,15412,0,0,4588
614,15429,0,0,4571
615,15453,0,0,4547
616,15461,0,0,4539
617,15476,0,0,4524
618,15484,0,0,4516
619,15490,0,0,4510
620,15507,0,0,4493
621,15514,0,0,4486
622,15522,0,0,4478
623,15528,0,0,4472
624,15535,0,0,4465
625,15542,0,0,4458
626,15553,0,0,4447
627,15569,0,0,4431
628,15576,0,0,4424
629,15585,0,0,4415
630,15602,0,0,4398
631,15616,0,0,4384
632,15625,0,0,4375
633,15651,0,0,4349
634,15663,0,0,4337
635,15678,0,0,4322
636,15691,0,0,4309
637,15710,0,0,4290
638,15731,0,0,4269
639,15747,0,0,4253
640,15759,0,0,4241
641,15779,0,0,4221
642,15796,0,0,4204
643,15807,0,0,4193
644,15815,0,0,4185
645,15821,0,0,4179
646,15836,0,0,4164
647,15847,0,0,4153
648,15860,0,0,4140
649,15866,0,0,4134
650,15892,0,0,4108
651,15905,0,0,4095
652,15919,0,0,4081
653,15930,0,0,4070
654,15942,0,0,4058
655,15952,0,0,4048
656,15960,0,0,4040
657,15962,0,0,4038
658,15978,0,0,4022
659,16002,0,0,3998
660,16010,0,0,3990
661,16018,0,0,3982
662,16026,0,0,3974
663,16038,0,0,3962
664,16043,0,0,3957
665,16057,0,0,3943
666,16060,0,0,3940
667,16070,0,0,3930
668,16078,0,0,3922
669,16083,0,0,3917
670,16085,0,0,3915
671,16097,0,0,3903
672,16106,0,0,3894
673,16116,0,0,3884
674,16125,0,0,3875
675,16132,0,0,3868
676,16137,0,0,3863
677,16144,0,0,3856
678,16146,0,0,3854
679,16154,0,0,3846
680,16160,0,0,3840
681,16162,0,0,3838
682,16169,0,0,3831
683,16179,0,0,3821
684,16186,0,0,3814
685,16188,0,0,3812
686,16194,0,0,3806
687,16204,0,0,3796
688,16205,0,0,3795
689,16206,0,0,3794
690,16207,0,0,3793
691,16210,0,0,3790
692,16214,0,0,3786
693,16215,0,0,3785
694,16217,0,0,3783
695,16218,0,0,3782
696,16218,0,0,3782
697,16219,0,0,3781
698,16220,0,0,3780
699,16220,0,0,3780
700,16223,0,0,3777
701,16228,0,0,3772
702,16232,0,0,3768
703,16238,0,0,3762
704,16245,0,0,3755
705,16250,0,0,3750
706,16261,0,0,3739
707,16263,0,0,3737
708,16267,0,0,3733
709,16280,0,0,3720
710,16291,0,0,3709
711,16300,0,0,3700
712,16305,0,0,3695
713,16309,0,0,3691
714,16312,0,0,3688
715,16318,0,0,3682
716,16326,0,0,3674
717,16327,0,0,3673
718,16328,0,0,3672
719,16332,0,0,3668
720,16340,0,0,3660
721,16346,0,0,3654
722,16360,0,0,3640
723,16366,0,0,3634
724,16376,0,0,3624
725,16386,0,0,3614
726,16401,0,0,3599
727,16412,0,0,3588
728,16420,0,0,3580
729,16427,0,0,3573
730,16432,0,0,3568
