Iteration,Susceptible,Exposed,Infected,Recovered
0,19980,0,20,0
1,19963,17,20,0
2,19953,22,22,3
3,19927,36,33,4
4,19898,52,41,9
5,19871,63,52,14
6,19834,82,58,26
7,19788,105,68,39
8,19748,122,55,75
9,19700,135,81,84
10,19630,168,102,100
11,19550,202,130,118
12,19456,249,150,145
13,19340,297,191,172
14,19191,365,234,210
15,19003,460,280,257
16,18754,581,352,313
17,18497,687,439,377
18,18128,869,537,466
19,17642,1101,696,561
20,17173,1286,843,698
21,16530,1529,1081,860
22,15806,1847,1293,1054
23,15021,2118,1562,1299
24,14222,2368,1811,1599
25,13122,2846,2084,1948
26,11923,3246,2516,2315
27,10754,3524,2932,2790
28,9405,3792,3518,3285
29,8000,4053,4041,3906
30,6867,3938,4533,4662
31,5803,4012,4775,5410
32,4752,3984,5021,6243
33,3930,3720,5343,7007
34,3174,3405,5476,7945
35,2641,3080,5510,8769
36,2219,2706,5511,9564
37,1993,2276,5383,10348
38,1595,2088,5231,11086
39,1463,1702,5190,11645
40,1356,1394,5046,12204
41,1222,1199,4835,12744
42,1174,1020,4566,13240
43,1130,829,4270,13771
44,1097,705,3995,14203
45,973,677,3751,14599
46,960,583,3552,14905
47,945,476,3299,15280
48,882,462,3061,15595
49,906,373,2907,15814
50,880,334,2754,16032
51,917,225,2593,16265
52,913,246,2322,16519
53,901,223,2196,16680
54,946,145,2025,16884
55,942,172,1847,17039
56,943,164,1785,17108
57,990,114,1640,17256
58,1006,122,1463,17409
59,1029,125,1390,17456
60,1055,110,1315,17520
61,1081,62,1217,17640
62,1130,85,1116,17669
63,1196,68,1059,17677
64,1231,84,966,17719
65,1240,74,928,17758
66,1281,59,882,17778
67,1322,50,810,17818
68,1413,45,757,17785
69,1475,38,715,17772
70,1537,58,676,17729
71,1598,53,650,17699
72,1607,50,602,17741
73,1652,37,569,17742
74,1702,49,525,17724
75,1733,42,487,17738
76,1765,44,458,17733
77,1804,46,435,17715
78,1822,46,409,17723
79,1845,46,392,17717
80,1903,35,375,17687
81,1944,39,345,17672
82,1973,43,329,17655
83,2046,14,314,17626
84,2108,22,277,17593
85,2160,23,262,17555
86,2216,24,250,17510
87,2273,29,228,17470
88,2312,21,215,17452
89,2365,25,202,17408
90,2433,14,195,17358
91,2459,21,160,17360
92,2554,13,149,17284
93,2643,9,135,17213
94,2709,13,121,17157
95,2791,9,112,17088
96,2851,10,93,17046
97,2900,14,82,17004
98,2946,9,78,16967
99,3022,7,74,16897
100,3062,12,65,16861
101,3110,19,58,16813
102,3145,9,52,16794
103,3230,6,42,16722
104,3299,6,30,16665
105,3362,4,24,16610
106,3424,1,18,16557
107,3468,4,9,16519
108,3505,2,9,16484
109,3543,2,8,16447
110,3600,0,6,16394
111,3642,0,3,16355
112,3696,0,2,16302
113,3741,0,1,16258
114,3783,0,1,16216
115,3854,0,1,16145
116,3893,0,1,16106
117,3932,0,1,16067
118,3965,0,1,16034
119,3994,0,1,16005
120,4016,1,1,15982
121,4055,0,2,15943
122,4094,1,1,15904
123,4139,0,1,15860
124,4177,0,1,15822
125,4226,0,0,15774
126,4276,0,0,15724
127,4309,0,0,15691
128,4347,0,0,15653
129,4394,0,0,15606
130,4429,0,0,15571
131,4460,0,0,15540
132,4499,0,0,15501
133,4550,0,0,15450
134,4607,0,0,15393
135,4663,0,0,15337
136,4721,0,0,15279
137,4762,0,0,15238
138,4812,0,0,15188
139,4861,0,0,15139
140,4895,0,0,15105
141,4955,0,0,15045
142,5022,0,0,14978
143,5077,0,0,14923
144,5118,0,0,14882
145,5175,0,0,14825
146,5215,0,0,14785
147,5261,0,0,14739
148,5302,0,0,14698
149,5343,0,0,14657
150,5395,0,0,14605
151,5427,0,0,14573
152,5461,0,0,14539
153,5524,0,0,14476
154,5576,0,0,14424
155,5601,0,0,14399
156,5656,0,0,14344
157,5712,0,0,14288
158,5760,0,0,14240
159,5815,0,0,14185
160,5859,0,0,14141
161,5902,0,0,14098
162,5950,0,0,14050
163,6013,0,0,13987
164,6050,0,0,13950
165,6107,0,0,13893
166,6164,0,0,13836
167,6207,0,0,13793
168,6259,0,0,13741
169,6296,0,0,13704
170,6354,0,0,13646
171,6400,0,0,13600
172,6440,0,0,13560
173,6478,0,0,13522
174,6534,0,0,13466
175,6564,0,0,13436
176,6613,0,0,13387
177,6652,0,0,13348
178,6695,0,0,13305
179,6736,0,0,13264
180,6783,0,0,13217
181,6819,0,0,13181
182,6867,0,0,13133
183,6915,0,0,13085
184,6951,0,0,13049
185,6993,0,0,13007
186,7024,0,0,12976
187,7054,0,0,12946
188,7096,0,0,12904
189,7126,0,0,12874
190,7169,0,0,12831
191,7202,0,0,12798
192,7235,0,0,12765
193,7270,0,0,12730
194,7297,0,0,12703
195,7317,0,0,12683
196,7344,0,0,12656
197,7382,0,0,12618
198,7412,0,0,12588
199,7477,0,0,12523
200,7514,0,0,12486
201,7545,0,0,12455
202,7583,0,0,12417
203,7614,0,0,12386
204,7650,0,0,12350
205,7670,0,0,12330
206,7715,0,0,12285
207,7753,0,0,12247
208,7779,0,0,12221
209,7831,0,0,12169
210,7891,0,0,12109
211,7939,0,0,12061
212,7987,0,0,12013
213,8035,0,0,11965
214,8091,0,0,11909
215,8153,0,0,11847
216,8191,0,0,11809
217,8228,0,0,11772
218,8268,0,0,11732
219,8328,0,0,11672
220,8369,0,0,11631
221,8412,0,0,11588
222,8454,0,0,11546
223,8486,0,0,11514
224,8541,0,0,11459
225,8583,0,0,11417
226,8621,0,0,11379
227,8655,0,0,11345
228,8695,0,0,11305
229,8748,0,0,11252
230,8789,0,0,11211
231,8808,0,0,11192
232,8832,0,0,11168
233,8877,0,0,11123
234,8911,0,0,11089
235,8938,0,0,11062
236,8961,0,0,11039
237,8974,0,0,11026
238,8998,0,0,11002
239,9027,0,0,10973
240,9049,0,0,10951
241,9074,0,0,10926
242,9104,0,0,10896
243,9136,0,0,10864
244,9167,0,0,10833
245,9184,0,0,10816
246,9211,0,0,10789
247,9234,0,0,10766
248,9256,0,0,10744
249,9281,0,0,10719
250,9301,0,0,10699
251,9323,0,0,10677
252,9344,0,0,10656
253,9382,0,0,10618
254,9406,0,0,10594
255,9423,0,0,10577
256,9464,0,0,10536
257,9490,0,0,10510
258,9545,0,0,10455
259,9564,0,0,10436
260,9592,0,0,10408
261,9622,0,0,10378
262,9646,0,0,10354
263,9700,0,0,10300
264,9742,0,0,10258
265,9786,0,0,10214
266,9812,0,0,10188
267,9846,0,0,10154
268,9879,0,0,10121
269,9907,0,0,10093
270,9921,0,0,10079
271,9939,0,0,10061
272,9974,0,0,10026
273,10010,0,0,9990
274,10053,0,0,9947
275,10087,0,0,9913
276,10108,0,0,9892
277,10130,0,0,9870
278,10153,0,0,9847
279,10173,0,0,9827
280,10182,0,0,9818
281,10201,0,0,9799
282,10220,0,0,9780
283,10240,0,0,9760
284,10260,0,0,9740
285,10274,0,0,9726
286,10300,0,0,9700
287,10322,0,0,9678
288,10345,0,0,9655
289,10389,0,0,9611
290,10406,0,0,9594
291,10429,0,0,9571
292,10444,0,0,9556
293,10473,0,0,9527
294,10505,0,0,9495
295,10516,0,0,9484
296,10558,0,0,9442
297,10586,0,0,9414
298,10610,0,0,9390
299,10635,0,0,9365
300,10664,0,0,9336
301,10699,0,0,9301
302,10729,0,0,9271
303,10764,0,0,9236
304,10803,0,0,9197
305,10837,0,0,9163
306,10874,0,0,9126
307,10913,0,0,9087
308,10936,0,0,9064
309,10978,0,0,9022
310,11029,0,0,8971
311,11067,0,0,8933
312,11097,0,0,8903
313,11143,0,0,8857
314,11179,0,0,8821
315,11209,0,0,8791
316,11238,0,0,8762
317,11280,0,0,8720
318,11315,0,0,8685
319,11331,0,0,8669
320,11365,0,0,8635
321,11395,0,0,8605
322,11417,0,0,8583
323,11445,0,0,8555
324,11476,0,0,8524
325,11503,0,0,8497
326,11516,0,0,8484
327,11549,0,0,8451
328,11562,0,0,8438
329,11586,0,0,8414
330,11618,0,0,8382
331,11636,0,0,8364
332,11651,0,0,8349
333,11669,0,0,8331
334,11693,0,0,8307
335,11725,0,0,8275
336,11748,0,0,8252
337,11779,0,0,8221
338,11791,0,0,8209
339,11813,0,0,8187
340,11828,0,0,8172
341,11849,0,0,8151
342,11862,0,0,8138
343,11891,0,0,8109
344,11917,0,0,8083
345,11934,0,0,8066
346,11948,0,0,8052
347,11970,0,0,8030
348,11984,0,0,8016
349,11992,0,0,8008
350,12004,0,0,7996
351,12024,0,0,7976
352,12038,0,0,7962
353,12051,0,0,7949
354,12064,0,0,7936
355,12069,0,0,7931
356,12080,0,0,7920
357,12098,0,0,7902
358,12111,0,0,7889
359,12137,0,0,7863
360,12154,0,0,7846
361,12182,0,0,7818
362,12197,0,0,7803
363,12214,0,0,7786
364,12246,0,0,7754
365,12276,0,0,7724
366,12299,0,0,7701
367,12312,0,0,7688
368,12343,0,0,7657
369,12360,0,0,7640
370,12384,0,0,7616
371,12401,0,0,7599
372,12427,0,0,7573
373,12440,0,0,7560
374,12459,0,0,7541
375,12473,0,0,7527
376,12491,0,0,7509
377,12505,0,0,7495
378,12525,0,0,7475
379,12536,0,0,7464
380,12550,0,0,7450
381,12573,0,0,7427
382,12605,0,0,7395
383,12626,0,0,7374
384,12647,0,0,7353
385,12670,0,0,7330
386,12685,0,0,7315
387,12710,0,0,7290
388,12724,0,0,7276
389,12749,0,0,7251
390,12769,0,0,7231
391,12786,0,0,7214
392,12798,0,0,7202
393,12823,0,0,7177
394,12847,0,0,7153
395,12859,0,0,7141
396,12876,0,0,7124
397,12887,0,0,7113
398,12906,0,0,7094
399,12919,0,0,7081
400,12951,0,0,7049
401,12969,0,0,7031
402,12990,0,0,7010
403,13015,0,0,6985
404,13045,0,0,6955
405,13057,0,0,6943
406,13073,0,0,6927
407,13090,0,0,6910
408,13123,0,0,6877
409,13151,0,0,6849
410,13161,0,0,6839
411,13181,0,0,6819
412,13198,0,0,6802
413,13212,0,0,6788
414,13236,0,0,6764
415,13257,0,0,6743
416,13274,0,0,6726
417,13298,0,0,6702
418,13312,0,0,6688
419,13319,0,0,6681
420,13325,0,0,6675
421,13343,0,0,6657
422,13360,0,0,6640
423,13370,0,0,6630
424,13387,0,0,6613
425,13413,0,0,6587
426,13429,0,0,6571
427,13436,0,0,6564
428,13446,0,0,6554
429,13460,0,0,6540
430,13473,0,0,6527
431,13490,0,0,6510
432,13509,0,0,6491
433,13517,0,0,6483
434,13532,0,0,6468
435,13546,0,0,6454
436,13561,0,0,6439
437,13576,0,0,6424
438,13588,0,0,6412
439,13597,0,0,6403
440,13609,0,0,6391
441,13617,0,0,6383
442,13630,0,0,6370
443,13647,0,0,6353
444,13669,0,0,6331
445,13678,0,0,6322
446,13684,0,0,6316
447,13703,0,0,6297
448,13714,0,0,6286
449,13723,0,0,6277
450,13733,0,0,6267
451,13750,0,0,6250
452,13764,0,0,6236
453,13774,0,0,6226
454,13795,0,0,6205
455,13808,0,0,6192
456,13821,0,0,6179
457,13838,0,0,6162
458,13847,0,0,6153
459,13858,0,0,6142
460,13878,0,0,6122
461,13902,0,0,6098
462,13924,0,0,6076
463,13939,0,0,6061
464,13954,0,0,6046
465,13972,0,0,6028
466,13998,0,0,6002
467,14017,0,0,5983
468,14034,0,0,5966
469,14051,0,0,5949
470,14068,0,0,5932
471,14088,0,0,5912
472,14106,0,0,5894
473,14114,0,0,5886
474,14128,0,0,5872
475,14147,0,0,5853
476,14156,0,0,5844
477,14181,0,0,5819
478,14193,0,0,5807
479,14212,0,0,5788
480,14219,0,0,5781
481,14239,0,0,5761
482,14262,0,0,5738
483,14274,0,0,5726
484,14283,0,0,5717
485,14290,0,0,5710
486,14308,0,0,5692
487,14330,0,0,5670
488,14347,0,0,5653
489,14359,0,0,5641
490,14367,0,0,5633
491,14378,0,0,5622
492,14385,0,0,5615
493,14390,0,0,5610
494,14408,0,0,5592
495,14414,0,0,5586
496,14430,0,0,5570
497,14438,0,0,5562
498,14447,0,0,5553
499,14450,0,0,5550
500,14456,0,0,5544
501,14477,0,0,5523
502,14488,0,0,5512
503,14495,0,0,5505
504,14501,0,0,5499
505,14507,0,0,5493
506,14513,0,0,5487
507,14522,0,0,5478
508,14527,0,0,5473
509,14537,0,0,5463
510,14539,0,0,5461
511,14551,0,0,5449
512,14555,0,0,5445
513,14564,0,0,5436
514,14565,0,0,5435
515,14573,0,0,5427
516,14580,0,0,5420
517,14589,0,0,5411
518,14607,0,0,5393
519,14618,0,0,5382
520,14631,0,0,5369
521,14641,0,0,5359
522,14654,0,0,5346
523,14672,0,0,5328
524,14681,0,0,5319
525,14694,0,0,5306
526,14709,0,0,5291
527,14718,0,0,5282
528,14739,0,0,5261
529,14750,0,0,5250
530,14755,0,0,5245
531,14773,0,0,5227
532,14794,0,0,5206
533,14813,0,0,5187
534,14823,0,0,5177
535,14848,0,0,5152
536,14872,0,0,5128
537,14890,0,0,5110
538,14906,0,0,5094
539,14922,0,0,5078
540,14932,0,0,5068
541,14957,0,0,5043
542,14978,0,0,5022
543,14999,0,0,5001
544,15006,0,0,4994
545,15028,0,0,4972
546,15051,0,0,4949
547,15062,0,0,4938
548,15081,0,0,4919
549,15093,0,0,4907
550,15110,0,0,4890
551,15122,0,0,4878
552,15149,0,0,4851
553,15160,0,0,4840
554,15170,0,0,4830
555,15187,0,0,4813
556,15204,0,0,4796
557,15215,0,0,4785
558,15224,0,0,4776
559,15243,0,0,4757
560,15254,0,0,4746
561,15266,0,0,4734
562,15286,0,0,4714
563,15298,0,0,4702
564,15310,0,0,4690
565,15342,0,0,4658
566,15361,0,0,4639
567,15376,0,0,4624
568,15392,0,0,4608
569,15410,0,0,4590
570,15421,0,0,4579
571,15440,0,0,4560
572,15448,0,0,4552
573,15470,0,0,4530
574,15485,0,0,4515
575,15500,0,0,4500
576,15519,0,0,4481
577,15543,0,0,4457
578,15553,0,0,4447
579,15569,0,0,4431
580,15589,0,0,4411
581,15605,0,0,4395
582,15622,0,0,4378
583,15631,0,0,4369
584,15650,0,0,4350
585,15668,0,0,4332
586,15675,0,0,4325
587,15694,0,0,4306
588,15699,0,0,4301
589,15706,0,0,4294
590,15719,0,0,4281
591,15724,0,0,4276
592,15733,0,0,4267
593,15737,0,0,4263
594,15740,0,0,4260
595,15751,0,0,4249
596,15759,0,0,4241
597,15767,0,0,4233
598,15771,0,0,4229
599,15777,0,0,4223
600,15786,0,0,4214
601,15788,0,0,4212
602,15809,0,0,4191
603,15822,0,0,4178
604,15852,0,0,4148
605,15864,0,0,4136
606,15879,0,0,4121
607,15890,0,0,4110
608,15909,0,0,4091
609,15911,0,0,4089
610,15927,0,0,4073
611,15951,0,0,4049
612,15967,0,0,4033
613,15971,0,0,4029
614,15978,0,0,4022
615,16004,0,0,3996
616,16012,0,0,3988
617,16029,0,0,3971
618,16031,0,0,3969
619,16041,0,0,3959
620,16048,0,0,3952
621,16060,0,0,3940
622,16075,0,0,3925
623,16095,0,0,3905
624,16107,0,0,3893
625,16118,0,0,3882
626,16132,0,0,3868
627,16144,0,0,3856
628,16154,0,0,3846
629,16158,0,0,3842
630,16167,0,0,3833
631,16178,0,0,3822
632,16186,0,0,3814
633,16196,0,0,3804
634,16198,0,0,3802
635,16211,0,0,3789
636,16230,0,0,3770
637,16234,0,0,3766
638,16249,0,0,3751
639,16252,0,0,3748
640,16256,0,0,3744
641,16273,0,0,3727
642,16286,0,0,3714
643,16293,0,0,3707
644,16300,0,0,3700
645,16304,0,0,3696
646,16310,0,0,3690
647,16313,0,0,3687
648,16318,0,0,3682
649,16326,0,0,3674
650,16334,0,0,3666
651,16335,0,0,3665
652,16341,0,0,3659
653,16344,0,0,3656
654,16351,0,0,3649
655,16356,0,0,3644
656,16359,0,0,3641
657,16366,0,0,3634
658,16369,0,0,3631
659,16376,0,0,3624
660,16378,0,0,3622
661,16378,0,0,3622
662,16382,0,0,3618
663,16393,0,0,3607
664,16394,0,0,3606
665,16398,0,0,3602
666,16405,0,0,3595
667,16413,0,0,3587
668,16419,0,0,3581
669,16423,0,0,3577
670,16424,0,0,3576
671,16425,0,0,3575
672,16426,0,0,3574
673,16431,0,0,3569
674,16435,0,0,3565
675,16437,0,0,3563
676,16443,0,0,3557
677,16444,0,0,3556
678,16449,0,0,3551
679,16449,0,0,3551
680,16452,0,0,3548
681,16453,0,0,3547
682,16464,0,0,3536
683,16464,0,0,3536
684,16466,0,0,3534
685,16466,0,0,3534
686,16467,0,0,3533
687,16474,0,0,3526
688,16478,0,0,3522
689,16479,0,0,3521
690,16481,0,0,3519
691,16483,0,0,3517
692,16484,0,0,3516
693,16493,0,0,3507
694,16496,0,0,3504
695,16501,0,0,3499
696,16501,0,0,3499
697,16503,0,0,3497
698,16503,0,0,3497
699,16505,0,0,3495
700,16506,0,0,3494
701,16515,0,0,3485
702,16517,0,0,3483
703,16525,0,0,3475
704,16525,0,0,3475
705,16530,0,0,3470
706,16535,0,0,3465
707,16543,0,0,3457
708,16544,0,0,3456
709,16547,0,0,3453
710,16549,0,0,3451
711,16553,0,0,3447
712,16555,0,0,3445
713,16562,0,0,3438
714,16566,0,0,3434
715,16574,0,0,3426
716,16584,0,0,3416
717,16591,0,0,3409
718,16599,0,0,3401
719,16604,0,0,3396
720,16605,0,0,3395
721,16614,0,0,3386
722,16620,0,0,3380
723,16625,0,0,3375
724,16640,0,0,3360
725,16651,0,0,3349
726,16656,0,0,3344
727,16659,0,0,3341
728,16667,0,0,3333
729,16679,0,0,3321
730,16687,0,0,3313
