Iteration,Susceptible,Exposed,Infected,Recovered
0,19980,0,20,0
1,19963,17,20,0
2,19945,30,25,0
3,19922,43,31,4
4,19909,42,23,26
5,19884,54,27,35
6,19858,65,36,41
7,19835,72,40,53
8,19810,77,57,56
9,19761,109,66,64
10,19713,126,86,75
11,19641,161,112,86
12,19555,207,130,108
13,19446,264,149,141
14,19284,351,203,162
15,19117,422,247,214
16,18906,522,306,266
17,18629,659,388,324
18,18314,784,498,404
19,17912,977,625,486
20,17459,1152,791,598
21,16860,1404,1007,729
22,16167,1733,1192,908
23,15359,2088,1388,1165
24,14524,2343,1744,1389
25,13531,2706,2043,1720
26,12613,2897,2361,2129
27,11394,3342,2689,2575
28,10409,3490,3088,3013
29,9290,3660,3476,3574
30,8244,3666,3928,4162
31,7094,3817,4286,4803
32,6023,3935,4681,5361
33,4912,3922,5068,6098
34,3870,3966,5376,6788
35,3290,3540,5637,7533
36,2676,3216,5827,8281
37,2293,2769,5883,9055
38,1925,2399,5965,9711
39,1658,2106,5777,10459
40,1351,1882,5643,11124
41,1190,1526,5533,11751
42,1075,1218,5311,12396
43,1030,936,5095,12939
44,902,786,4858,13454
45,843,630,4576,13951
46,828,503,4206,14463
47,835,426,3925,14814
48,859,309,3616,15216
49,836,296,3336,15532
50,836,242,3119,15803
51,838,213,2875,16074
52,864,172,2657,16307
53,847,177,2386,16590
54,911,123,2208,16758
55,924,160,2004,16912
56,897,181,1864,17058
57,909,133,1755,17203
58,912,131,1598,17359
59,943,129,1444,17484
60,1001,70,1325,17604
61,1043,83,1152,17722
62,1111,58,1076,17755
63,1162,70,933,17835
64,1237,51,851,17861
65,1288,64,752,17896
66,1308,79,677,17936
67,1345,81,647,17927
68,1419,47,593,17941
69,1500,36,497,17967
70,1544,45,433,17978
71,1588,41,399,17972
72,1657,30,373,17940
73,1686,36,335,17943
74,1726,29,296,17949
75,1785,17,257,17941
76,1843,12,215,17930
77,1906,15,184,17895
78,1971,16,170,17843
79,2017,16,159,17808
80,2074,13,139,17774
81,2138,16,128,17718
82,2206,9,117,17668
83,2266,15,103,17616
84,2336,12,102,17550
85,2378,20,92,17510
86,2440,9,91,17460
87,2502,13,77,17408
88,2547,5,69,17379
89,2597,9,58,17336
90,2650,6,57,17287
91,2685,11,51,17253
92,2752,6,53,17189
93,2815,5,50,17130
94,2864,4,45,17087
95,2922,4,42,17032
96,2979,8,42,16971
97,3038,7,42,16913
98,3068,10,39,16883
99,3118,4,42,16836
100,3171,5,38,16786
101,3215,6,39,16740
102,3239,10,39,16712
103,3271,8,42,16679
104,3306,6,42,16646
105,3328,6,37,16629
106,3372,3,34,16591
107,3415,7,29,16549
108,3465,4,28,16503
109,3496,3,26,16475
110,3516,2,21,16461
111,3549,4,22,16425
112,3581,2,21,16396
113,3609,2,15,16374
114,3651,3,10,16336
115,3675,2,12,16311
116,3706,1,7,16286
117,3754,1,7,16238
118,3816,1,6,16177
119,3845,2,6,16147
120,3879,3,8,16110
121,3907,1,8,16084
122,3933,0,6,16061
123,3969,1,3,16027
124,4013,0,3,15984
125,4055,2,1,15942
126,4103,0,3,15894
127,4136,1,1,15862
128,4175,0,2,15823
129,4214,1,2,15783
130,4243,0,2,15755
131,4272,0,0,15728
132,4296,0,0,15704
133,4332,0,0,15668
134,4360,0,0,15640
135,4393,0,0,15607
136,4447,0,0,15553
137,4488,0,0,15512
138,4539,0,0,15461
139,4600,0,0,15400
140,4649,0,0,15351
141,4702,0,0,15298
142,4752,0,0,15248
143,4807,0,0,15193
144,4841,0,0,15159
145,4869,0,0,15131
146,4910,0,0,15090
147,4934,0,0,15066
148,4985,0,0,15015
149,5017,0,0,14983
150,5053,0,0,14947
151,5089,0,0,14911
152,5117,0,0,14883
153,5156,0,0,14844
154,5188,0,0,14812
155,5216,0,0,14784
156,5239,0,0,14761
157,5272,0,0,14728
158,5328,0,0,14672
159,5361,0,0,14639
160,5395,0,0,14605
161,5412,0,0,14588
162,5438,0,0,14562
163,5459,0,0,14541
164,5501,0,0,14499
165,5520,0,0,14480
166,5575,0,0,14425
167,5609,0,0,14391
168,5628,0,0,14372
169,5651,0,0,14349
170,5682,0,0,14318
171,5710,0,0,14290
172,5747,0,0,14253
173,5783,0,0,14217
174,5813,0,0,14187
175,5865,0,0,14135
176,5888,0,0,14112
177,5916,0,0,14084
178,5936,0,0,14064
179,5966,0,0,14034
180,5998,0,0,14002
181,6033,0,0,13967
182,6070,0,0,13930
183,6090,0,0,13910
184,6142,0,0,13858
185,6181,0,0,13819
186,6234,0,0,13766
187,6265,0,0,13735
188,6307,0,0,13693
189,6354,0,0,13646
190,6383,0,0,13617
191,6412,0,0,13588
192,6440,0,0,13560
193,6482,0,0,13518
194,6511,0,0,13489
195,6535,0,0,13465
196,6568,0,0,13432
197,6606,0,0,13394
198,6632,0,0,13368
199,6663,0,0,13337
200,6705,0,0,13295
201,6735,0,0,13265
202,6779,0,0,13221
203,6809,0,0,13191
204,6862,0,0,13138
205,6895,0,0,13105
206,6918,0,0,13082
207,6942,0,0,13058
208,6979,0,0,13021
209,7009,0,0,12991
210,7038,0,0,12962
211,7073,0,0,12927
212,7109,0,0,12891
213,7147,0,0,12853
214,7182,0,0,12818
215,7224,0,0,12776
216,7249,0,0,12751
217,7292,0,0,12708
218,7338,0,0,12662
219,7376,0,0,12624
220,7402,0,0,12598
221,7445,0,0,12555
222,7491,0,0,12509
223,7529,0,0,12471
224,7574,0,0,12426
225,7595,0,0,12405
226,7623,0,0,12377
227,7648,0,0,12352
228,7682,0,0,12318
229,7725,0,0,12275
230,7752,0,0,12248
231,7797,0,0,12203
232,7840,0,0,12160
233,7887,0,0,12113
234,7921,0,0,12079
235,7942,0,0,12058
236,7966,0,0,12034
237,7987,0,0,12013
238,8015,0,0,11985
239,8029,0,0,11971
240,8068,0,0,11932
241,8112,0,0,11888
242,8144,0,0,11856
243,8184,0,0,11816
244,8214,0,0,11786
245,8264,0,0,11736
246,8316,0,0,11684
247,8365,0,0,11635
248,8401,0,0,11599
249,8425,0,0,11575
250,8464,0,0,11536
251,8489,0,0,11511
252,8523,0,0,11477
253,8561,0,0,11439
254,8607,0,0,11393
255,8649,0,0,11351
256,8679,0,0,11321
257,8721,0,0,11279
258,8754,0,0,11246
259,8780,0,0,11220
260,8812,0,0,11188
261,8852,0,0,11148
262,8895,0,0,11105
263,8922,0,0,11078
264,8953,0,0,11047
265,8974,0,0,11026
266,8996,0,0,11004
267,9017,0,0,10983
268,9051,0,0,10949
269,9086,0,0,10914
270,9104,0,0,10896
271,9126,0,0,10874
272,9144,0,0,10856
273,9177,0,0,10823
274,9210,0,0,10790
275,9239,0,0,10761
276,9260,0,0,10740
277,9286,0,0,10714
278,9315,0,0,10685
279,9331,0,0,10669
280,9345,0,0,10655
281,9380,0,0,10620
282,9422,0,0,10578
283,9448,0,0,10552
284,9487,0,0,10513
285,9506,0,0,10494
286,9534,0,0,10466
287,9562,0,0,10438
288,9590,0,0,10410
289,9625,0,0,10375
290,9656,0,0,10344
291,9671,0,0,10329
292,9718,0,0,10282
293,9735,0,0,10265
294,9757,0,0,10243
295,9800,0,0,10200
296,9838,0,0,10162
297,9870,0,0,10130
298,9895,0,0,10105
299,9919,0,0,10081
300,9942,0,0,10058
301,9989,0,0,10011
302,10016,0,0,9984
303,10049,0,0,9951
304,10062,0,0,9938
305,10078,0,0,9922
306,10090,0,0,9910
307,10127,0,0,9873
308,10144,0,0,9856
309,10170,0,0,9830
310,10198,0,0,9802
311,10216,0,0,9784
312,10233,0,0,9767
313,10261,0,0,9739
314,10288,0,0,9712
315,10316,0,0,9684
316,10340,0,0,9660
317,10355,0,0,9645
318,10375,0,0,9625
319,10386,0,0,9614
320,10403,0,0,9597
321,10430,0,0,9570
322,10455,0,0,9545
323,10494,0,0,9506
324,10521,0,0,9479
325,10538,0,0,9462
326,10560,0,0,9440
327,10570,0,0,9430
328,10584,0,0,9416
329,10605,0,0,9395
330,10622,0,0,9378
331,10645,0,0,9355
332,10669,0,0,9331
333,10685,0,0,9315
334,10708,0,0,9292
335,10726,0,0,9274
336,10743,0,0,9257
337,10763,0,0,9237
338,10782,0,0,9218
339,10818,0,0,9182
340,10837,0,0,9163
341,10862,0,0,9138
342,10886,0,0,9114
343,10905,0,0,9095
344,10916,0,0,9084
345,10940,0,0,9060
346,10953,0,0,9047
347,10985,0,0,9015
348,11005,0,0,8995
349,11021,0,0,8979
350,11038,0,0,8962
351,11064,0,0,8936
352,11084,0,0,8916
353,11107,0,0,8893
354,11141,0,0,8859
355,11152,0,0,8848
356,11181,0,0,8819
357,11207,0,0,8793
358,11228,0,0,8772
359,11244,0,0,8756
360,11268,0,0,8732
361,11300,0,0,8700
362,11320,0,0,8680
363,11353,0,0,8647
364,11372,0,0,8628
365,11400,0,0,8600
366,11412,0,0,8588
367,11431,0,0,8569
368,11458,0,0,8542
369,11471,0,0,8529
370,11486,0,0,8514
371,11519,0,0,8481
372,11546,0,0,8454
373,11556,0,0,8444
374,11576,0,0,8424
375,11601,0,0,8399
376,11615,0,0,8385
377,11627,0,0,8373
378,11642,0,0,8358
379,11665,0,0,8335
380,11704,0,0,8296
381,11727,0,0,8273
382,11751,0,0,8249
383,11773,0,0,8227
384,11790,0,0,8210
385,11816,0,0,8184
386,11827,0,0,8173
387,11847,0,0,8153
388,11862,0,0,8138
389,11890,0,0,8110
390,11916,0,0,8084
391,11942,0,0,8058
392,11963,0,0,8037
393,11999,0,0,8001
394,12020,0,0,7980
395,12043,0,0,7957
396,12059,0,0,7941
397,12077,0,0,7923
398,12102,0,0,7898
399,12118,0,0,7882
400,12147,0,0,7853
401,12175,0,0,7825
402,12192,0,0,7808
403,12212,0,0,7788
404,12228,0,0,7772
405,12250,0,0,7750
406,12270,0,0,7730
407,12291,0,0,7709
408,12321,0,0,7679
409,12338,0,0,7662
410,12353,0,0,7647
411,12382,0,0,7618
412,12399,0,0,7601
413,12416,0,0,7584
414,12441,0,0,7559
415,12452,0,0,7548
416,12475,0,0,7525
417,12497,0,0,7503
418,12517,0,0,7483
419,12539,0,0,7461
420,12555,0,0,7445
421,12567,0,0,7433
422,12588,0,0,7412
423,12596,0,0,7404
424,12606,0,0,7394
425,12631,0,0,7369
426,12640,0,0,7360
427,12665,0,0,7335
428,12673,0,0,7327
429,12694,0,0,7306
430,12725,0,0,7275
431,12754,0,0,7246
432,12781,0,0,7219
433,12811,0,0,7189
434,12830,0,0,7170
435,12855,0,0,7145
436,12889,0,0,7111
437,12922,0,0,7078
438,12942,0,0,7058
439,12971,0,0,7029
440,13006,0,0,6994
441,13022,0,0,6978
442,13052,0,0,6948
443,13072,0,0,6928
444,13097,0,0,6903
445,13124,0,0,6876
446,13137,0,0,6863
447,13172,0,0,6828
448,13178,0,0,6822
449,13189,0,0,6811
450,13202,0,0,6798
451,13230,0,0,6770
452,13254,0,0,6746
453,13265,0,0,6735
454,13270,0,0,6730
455,13284,0,0,6716
456,13299,0,0,6701
457,13312,0,0,6688
458,13323,0,0,6677
459,13328,0,0,6672
460,13345,0,0,6655
461,13358,0,0,6642
462,13375,0,0,6625
463,13378,0,0,6622
464,13391,0,0,6609
465,13402,0,0,6598
466,13409,0,0,6591
467,13425,0,0,6575
468,13439,0,0,6561
469,13457,0,0,6543
470,13467,0,0,6533
471,13472,0,0,6528
472,13484,0,0,6516
473,13506,0,0,6494
474,13518,0,0,6482
475,13544,0,0,6456
476,13560,0,0,6440
477,13575,0,0,6425
478,13584,0,0,6416
479,13596,0,0,6404
480,13612,0,0,6388
481,13634,0,0,6366
482,13653,0,0,6347
483,13668,0,0,6332
484,13691,0,0,6309
485,13706,0,0,6294
486,13728,0,0,6272
487,13749,0,0,6251
488,13773,0,0,6227
489,13790,0,0,6210
490,13823,0,0,6177
491,13837,0,0,6163
492,13852,0,0,6148
493,13868,0,0,6132
494,13885,0,0,6115
495,13904,0,0,6096
496,13925,0,0,6075
497,13937,0,0,6063
498,13954,0,0,6046
499,13979,0,0,6021
500,13990,0,0,6010
501,14001,0,0,5999
502,14010,0,0,5990
503,14025,0,0,5975
504,14043,0,0,5957
505,14051,0,0,5949
506,14063,0,0,5937
507,14071,0,0,5929
508,14086,0,0,5914
509,14105,0,0,5895
510,14117,0,0,5883
511,14138,0,0,5862
512,14146,0,0,5854
513,14169,0,0,5831
514,14174,0,0,5826
515,14186,0,0,5814
516,14192,0,0,5808
517,14211,0,0,5789
518,14235,0,0,5765
519,14240,0,0,5760
520,14248,0,0,5752
521,14257,0,0,5743
522,14276,0,0,5724
523,14292,0,0,5708
524,14311,0,0,5689
525,14339,0,0,5661
526,14351,0,0,5649
527,14373,0,0,5627
528,14392,0,0,5608
529,14421,0,0,5579
530,14442,0,0,5558
531,14470,0,0,5530
532,14494,0,0,5506
533,14510,0,0,5490
534,14535,0,0,5465
535,14556,0,0,5444
536,14569,0,0,5431
537,14582,0,0,5418
538,14591,0,0,5409
539,14610,0,0,5390
540,14615,0,0,5385
541,14632,0,0,5368
542,14646,0,0,5354
543,14666,0,0,5334
544,14675,0,0,5325
545,14682,0,0,5318
546,14692,0,0,5308
547,14700,0,0,5300
548,14712,0,0,5288
549,14722,0,0,5278
550,14733,0,0,5267
551,14738,0,0,5262
552,14750,0,0,5250
553,14754,0,0,5246
554,14758,0,0,5242
555,14771,0,0,5229
556,14783,0,0,5217
557,14788,0,0,5212
558,14793,0,0,5207
559,14803,0,0,5197
560,14821,0,0,5179
561,14824,0,0,5176
562,14834,0,0,5166
563,14846,0,0,5154
564,14856,0,0,5144
565,14865,0,0,5135
566,14875,0,0,5125
567,14888,0,0,5112
568,14900,0,0,5100
569,14913,0,0,5087
570,14937,0,0,5063
571,14942,0,0,5058
572,14950,0,0,5050
573,14965,0,0,5035
574,14974,0,0,5026
575,14999,0,0,5001
576,15008,0,0,4992
577,15019,0,0,4981
578,15026,0,0,4974
579,15031,0,0,4969
580,15040,0,0,4960
581,15062,0,0,4938
582,15075,0,0,4925
583,15078,0,0,4922
584,15089,0,0,4911
585,15108,0,0,4892
586,15124,0,0,4876
587,15127,0,0,4873
588,15138,0,0,4862
589,15147,0,0,4853
590,15174,0,0,4826
591,15196,0,0,4804
592,15216,0,0,4784
593,15230,0,0,4770
594,15257,0,0,4743
595,15268,0,0,4732
596,15290,0,0,4710
597,15310,0,0,4690
598,15323,0,0,4677
599,15337,0,0,4663
600,15350,0,0,4650
601,15363,0,0,4637
602,15379,0,0,4621
603,15408,0,0,4592
604,15418,0,0,4582
605,15429,0,0,4571
606,15436,0,0,4564
607,15448,0,0,4552
608,15469,0,0,4531
609,15487,0,0,4513
610,15497,0,0,4503
611,15510,0,0,4490
612,15522,0,0,4478
613,15532,0,0,4468
614,15547,0,0,4453
615,15549,0,0,4451
616,15566,0,0,4434
617,15585,0,0,4415
618,15589,0,0,4411
619,15593,0,0,4407
620,15607,0,0,4393
621,15618,0,0,4382
622,15623,0,0,4377
623,15634,0,0,4366
624,15641,0,0,4359
625,15646,0,0,4354
626,15657,0,0,4343
627,15661,0,0,4339
628,15670,0,0,4330
629,15675,0,0,4325
630,15682,0,0,4318
631,15687,0,0,4313
632,15695,0,0,4305
633,15696,0,0,4304
634,15707,0,0,4293
635,15719,0,0,4281
636,15724,0,0,4276
637,15727,0,0,4273
638,15734,0,0,4266
639,15742,0,0,4258
640,15749,0,0,4251
641,15755,0,0,4245
642,15759,0,0,4241
643,15762,0,0,4238
644,15775,0,0,4225
645,15779,0,0,4221
646,15782,0,0,4218
647,15793,0,0,4207
648,15803,0,0,4197
649,15807,0,0,4193
650,15823,0,0,4177
651,15828,0,0,4172
652,15836,0,0,4164
653,15847,0,0,4153
654,15855,0,0,4145
655,15859,0,0,4141
656,15868,0,0,4132
657,15878,0,0,4122
658,15891,0,0,4109
659,15897,0,0,4103
660,15907,0,0,4093
661,15917,0,0,4083
662,15928,0,0,4072
663,15938,0,0,4062
664,15949,0,0,4051
665,15966,0,0,4034
666,15982,0,0,4018
667,16002,0,0,3998
668,16020,0,0,3980
669,16033,0,0,3967
670,16046,0,0,3954
671,16062,0,0,3938
672,16081,0,0,3919
673,16092,0,0,3908
674,16105,0,0,3895
675,16116,0,0,3884
676,16125,0,0,3875
677,16134,0,0,3866
678,16151,0,0,3849
679,16160,0,0,3840
680,16185,0,0,3815
681,16196,0,0,3804
682,16208,0,0,3792
683,16219,0,0,3781
684,16226,0,0,3774
685,16235,0,0,3765
686,16246,0,0,3754
687,16270,0,0,3730
688,16294,0,0,3706
689,16305,0,0,3695
690,16320,0,0,3680
691,16326,0,0,3674
692,16342,0,0,3658
693,16355,0,0,3645
694,16361,0,0,3639
695,16382,0,0,3618
696,16394,0,0,3606
697,16409,0,0,3591
698,16421,0,0,3579
699,16443,0,0,3557
700,16461,0,0,3539
701,16469,0,0,3531
702,16499,0,0,3501
703,16509,0,0,3491
704,16538,0,0,3462
705,16559,0,0,3441
706,16583,0,0,3417
707,16603,0,0,3397
708,16624,0,0,3376
709,16635,0,0,3365
710,16646,0,0,3354
711,16650,0,0,3350
712,16654,0,0,3346
713,16663,0,0,3337
714,16679,0,0,3321
715,16688,0,0,3312
716,16691,0,0,3309
717,16692,0,0,3308
718,16706,0,0,3294
719,16713,0,0,3287
720,16716,0,0,3284
721,16719,0,0,3281
722,16736,0,0,3264
723,16747,0,0,3253
724,16765,0,0,3235
725,16774,0,0,3226
726,16779,0,0,3221
727,16788,0,0,3212
728,16796,0,0,3204
729,16808,0,0,3192
730,16814,0,0,3186
