Iteration,Susceptible,Exposed,Infected,Recovered
0,19980,0,20,0
1,19962,18,20,0
2,19951,24,18,7
3,19932,37,21,10
4,19906,54,26,14
5,19875,69,41,15
6,19838,87,58,17
7,19790,108,73,29
8,19731,143,64,62
9,19679,163,82,76
10,19619,183,96,102
11,19534,222,123,121
12,19437,255,166,142
13,19311,308,211,170
14,19133,406,260,201
15,18914,527,314,245
16,18645,659,391,305
17,18293,832,489,386
18,17899,990,633,478
19,17394,1232,774,600
20,16734,1557,967,742
21,15915,1956,1245,884
22,15158,2262,1452,1128
23,14208,2615,1765,1412
24,13175,2970,2146,1709
25,12164,3152,2625,2059
26,10914,3592,2964,2530
27,9809,3762,3391,3038
28,8554,4014,3851,3581
29,7306,4248,4282,4164
30,6206,4166,4820,4808
31,5057,4252,5195,5496
32,4155,4004,5573,6268
33,3310,3732,5943,7015
34,2551,3499,6033,7917
35,1902,3200,6221,8677
36,1503,2730,6330,9437
37,1221,2306,6209,10264
38,970,1909,6207,10914
39,723,1645,6029,11603
40,659,1256,5746,12339
41,546,1017,5563,12874
42,458,817,5239,13486
43,398,700,4989,13913
44,408,516,4691,14385
45,440,372,4330,14858
46,366,356,4010,15268
47,384,233,3689,15694
48,413,194,3309,16084
49,460,155,3054,16331
50,469,128,2765,16638
51,527,101,2529,16843
52,610,70,2310,17010
53,656,75,2079,17190
54,728,55,1886,17331
55,766,58,1708,17468
56,786,58,1567,17589
57,842,54,1420,17684
58,860,71,1274,17795
59,839,92,1143,17926
60,868,59,1022,18051
61,901,52,872,18175
62,960,37,759,18244
63,1006,67,622,18305
64,1060,40,590,18310
65,1082,44,489,18385
66,1161,29,430,18380
67,1227,32,375,18366
68,1303,19,343,18335
69,1361,11,290,18338
70,1412,6,239,18343
71,1487,10,206,18297
72,1539,13,185,18263
73,1604,7,172,18217
74,1674,5,141,18180
75,1724,9,117,18150
76,1747,10,103,18140
77,1804,2,99,18095
78,1850,13,83,18054
79,1919,5,91,17985
80,1994,7,82,17917
81,2056,9,76,17859
82,2110,2,71,17817
83,2154,7,55,17784
84,2197,6,47,17750
85,2237,1,39,17723
86,2301,0,30,17669
87,2350,1,22,17627
88,2391,3,22,17584
89,2421,7,19,17553
90,2462,3,18,17517
91,2515,3,13,17469
92,2559,1,14,17426
93,2599,1,11,17389
94,2636,2,10,17352
95,2658,0,12,17330
96,2703,0,8,17289
97,2752,0,8,17240
98,2801,1,6,17192
99,2844,0,5,17151
100,2887,1,2,17110
101,2927,0,2,17071
102,2967,0,0,17033
103,3011,0,0,16989
104,3033,0,0,16967
105,3090,0,0,16910
106,3140,0,0,16860
107,3169,0,0,16831
108,3212,0,0,16788
109,3262,0,0,16738
110,3289,0,0,16711
111,3347,0,0,16653
112,3409,0,0,16591
113,3431,0,0,16569
114,3473,0,0,16527
115,3512,0,0,16488
116,3553,0,0,16447
117,3584,0,0,16416
118,3647,0,0,16353
119,3682,0,0,16318
120,3731,0,0,16269
121,3777,0,0,16223
122,3800,0,0,16200
123,3817,0,0,16183
124,3856,0,0,16144
125,3883,0,0,16117
126,3910,0,0,16090
127,3943,0,0,16057
128,3956,0,0,16044
129,3989,0,0,16011
130,4018,0,0,15982
131,4054,0,0,15946
132,4085,0,0,15915
133,4103,0,0,15897
134,4137,0,0,15863
135,4166,0,0,15834
136,4190,0,0,15810
137,4231,0,0,15769
138,4244,0,0,15756
139,4263,0,0,15737
140,4296,0,0,15704
141,4330,0,0,15670
142,4355,0,0,15645
143,4377,0,0,15623
144,4405,0,0,15595
145,4430,0,0,15570
146,4458,0,0,15542
147,4486,0,0,15514
148,4522,0,0,15478
149,4565,0,0,15435
150,4592,0,0,15408
151,4624,0,0,15376
152,4652,0,0,15348
153,4688,0,0,15312
154,4727,0,0,15273
155,4766,0,0,15234
156,4800,0,0,15200
157,4841,0,0,15159
158,4882,0,0,15118
159,4898,0,0,15102
160,4942,0,0,15058
161,4972,0,0,15028
162,4995,0,0,15005
163,5023,0,0,14977
164,5068,0,0,14932
165,5117,0,0,14883
166,5161,0,0,14839
167,5200,0,0,14800
168,5265,0,0,14735
169,5301,0,0,14699
170,5355,0,0,14645
171,5391,0,0,14609
172,5446,0,0,14554
173,5487,0,0,14513
174,5505,0,0,14495
175,5547,0,0,14453
176,5587,0,0,14413
177,5623,0,0,14377
178,5665,0,0,14335
179,5697,0,0,14303
180,5714,0,0,14286
181,5751,0,0,14249
182,5788,0,0,14212
183,5796,0,0,14204
184,5818,0,0,14182
185,5841,0,0,14159
186,5869,0,0,14131
187,5904,0,0,14096
188,5933,0,0,14067
189,5956,0,0,14044
190,5983,0,0,14017
191,6033,0,0,13967
192,6079,0,0,13921
193,6114,0,0,13886
194,6144,0,0,13856
195,6172,0,0,13828
196,6208,0,0,13792
197,6244,0,0,13756
198,6268,0,0,13732
199,6302,0,0,13698
200,6337,0,0,13663
201,6371,0,0,13629
202,6396,0,0,13604
203,6424,0,0,13576
204,6454,0,0,13546
205,6488,0,0,13512
206,6528,0,0,13472
207,6565,0,0,13435
208,6575,0,0,13425
209,6612,0,0,13388
210,6628,0,0,13372
211,6652,0,0,13348
212,6686,0,0,13314
213,6709,0,0,13291
214,6736,0,0,13264
215,6764,0,0,13236
216,6796,0,0,13204
217,6815,0,0,13185
218,6833,0,0,13167
219,6866,0,0,13134
220,6895,0,0,13105
221,6933,0,0,13067
222,6975,0,0,13025
223,7015,0,0,12985
224,7061,0,0,12939
225,7104,0,0,12896
226,7143,0,0,12857
227,7178,0,0,12822
228,7207,0,0,12793
229,7248,0,0,12752
230,7285,0,0,12715
231,7317,0,0,12683
232,7348,0,0,12652
233,7408,0,0,12592
234,7440,0,0,12560
235,7484,0,0,12516
236,7540,0,0,12460
237,7575,0,0,12425
238,7594,0,0,12406
239,7635,0,0,12365
240,7657,0,0,12343
241,7722,0,0,12278
242,7760,0,0,12240
243,7818,0,0,12182
244,7842,0,0,12158
245,7862,0,0,12138
246,7886,0,0,12114
247,7907,0,0,12093
248,7918,0,0,12082
249,7952,0,0,12048
250,7993,0,0,12007
251,8025,0,0,11975
252,8056,0,0,11944
253,8080,0,0,11920
254,8120,0,0,11880
255,8160,0,0,11840
256,8200,0,0,11800
257,8224,0,0,11776
258,8273,0,0,11727
259,8297,0,0,11703
260,8339,0,0,11661
261,8366,0,0,11634
262,8402,0,0,11598
263,8437,0,0,11563
264,8463,0,0,11537
265,8499,0,0,11501
266,8512,0,0,11488
267,8552,0,0,11448
268,8579,0,0,11421
269,8610,0,0,11390
270,8641,0,0,11359
271,8674,0,0,11326
272,8711,0,0,11289
273,8734,0,0,11266
274,8757,0,0,11243
275,8778,0,0,11222
276,8804,0,0,11196
277,8821,0,0,11179
278,8839,0,0,11161
279,8859,0,0,11141
280,8893,0,0,11107
281,8923,0,0,11077
282,8952,0,0,11048
283,8977,0,0,11023
284,9012,0,0,10988
285,9040,0,0,10960
286,9070,0,0,10930
287,9104,0,0,10896
288,9148,0,0,10852
289,9179,0,0,10821
290,9211,0,0,10789
291,9252,0,0,10748
292,9280,0,0,10720
293,9321,0,0,10679
294,9348,0,0,10652
295,9387,0,0,10613
296,9423,0,0,10577
297,9467,0,0,10533
298,9499,0,0,10501
299,9530,0,0,10470
300,9558,0,0,10442
301,9597,0,0,10403
302,9618,0,0,10382
303,9643,0,0,10357
304,9672,0,0,10328
305,9686,0,0,10314
306,9732,0,0,10268
307,9785,0,0,10215
308,9815,0,0,10185
309,9843,0,0,10157
310,9875,0,0,10125
311,9908,0,0,10092
312,9945,0,0,10055
313,9990,0,0,10010
314,10041,0,0,9959
315,10080,0,0,9920
316,10115,0,0,9885
317,10134,0,0,9866
318,10171,0,0,9829
319,10201,0,0,9799
320,10231,0,0,9769
321,10263,0,0,9737
322,10299,0,0,9701
323,10320,0,0,9680
324,10346,0,0,9654
325,10391,0,0,9609
326,10428,0,0,9572
327,10452,0,0,9548
328,10484,0,0,9516
329,10535,0,0,9465
330,10561,0,0,9439
331,10580,0,0,9420
332,10618,0,0,9382
333,10652,0,0,9348
334,10677,0,0,9323
335,10714,0,0,9286
336,10729,0,0,9271
337,10741,0,0,9259
338,10761,0,0,9239
339,10793,0,0,9207
340,10814,0,0,9186
341,10837,0,0,9163
342,10866,0,0,9134
343,10894,0,0,9106
344,10927,0,0,9073
345,10950,0,0,9050
346,10968,0,0,9032
347,10982,0,0,9018
348,10992,0,0,9008
349,11011,0,0,8989
350,11042,0,0,8958
351,11068,0,0,8932
352,11089,0,0,8911
353,11105,0,0,8895
354,11136,0,0,8864
355,11160,0,0,8840
356,11187,0,0,8813
357,11201,0,0,8799
358,11209,0,0,8791
359,11236,0,0,8764
360,11265,0,0,8735
361,11290,0,0,8710
362,11325,0,0,8675
363,11343,0,0,8657
364,11361,0,0,8639
365,11372,0,0,8628
366,11405,0,0,8595
367,11425,0,0,8575
368,11449,0,0,8551
369,11475,0,0,8525
370,11496,0,0,8504
371,11521,0,0,8479
372,11540,0,0,8460
373,11558,0,0,8442
374,11593,0,0,8407
375,11609,0,0,8391
376,11625,0,0,8375
377,11640,0,0,8360
378,11665,0,0,8335
379,11687,0,0,8313
380,11711,0,0,8289
381,11727,0,0,8273
382,11741,0,0,8259
383,11763,0,0,8237
384,11784,0,0,8216
385,11809,0,0,8191
386,11824,0,0,8176
387,11847,0,0,8153
388,11869,0,0,8131
389,11908,0,0,8092
390,11923,0,0,8077
391,11955,0,0,8045
392,11972,0,0,8028
393,11988,0,0,8012
394,12013,0,0,7987
395,12042,0,0,7958
396,12068,0,0,7932
397,12095,0,0,7905
398,12103,0,0,7897
399,12124,0,0,7876
400,12158,0,0,7842
401,12181,0,0,7819
402,12204,0,0,7796
403,12226,0,0,7774
404,12241,0,0,7759
405,12264,0,0,7736
406,12276,0,0,7724
407,12292,0,0,7708
408,12309,0,0,7691
409,12326,0,0,7674
410,12341,0,0,7659
411,12356,0,0,7644
412,12380,0,0,7620
413,12390,0,0,7610
414,12416,0,0,7584
415,12432,0,0,7568
416,12446,0,0,7554
417,12463,0,0,7537
418,12483,0,0,7517
419,12504,0,0,7496
420,12527,0,0,7473
421,12544,0,0,7456
422,12555,0,0,7445
423,12574,0,0,7426
424,12599,0,0,7401
425,12618,0,0,7382
426,12639,0,0,7361
427,12667,0,0,7333
428,12678,0,0,7322
429,12687,0,0,7313
430,12712,0,0,7288
431,12737,0,0,7263
432,12757,0,0,7243
433,12768,0,0,7232
434,12786,0,0,7214
435,12802,0,0,7198
436,12824,0,0,7176
437,12853,0,0,7147
438,12875,0,0,7125
439,12889,0,0,7111
440,12894,0,0,7106
441,12906,0,0,7094
442,12927,0,0,7073
443,12945,0,0,7055
444,12976,0,0,7024
445,13002,0,0,6998
446,13019,0,0,6981
447,13033,0,0,6967
448,13049,0,0,6951
449,13066,0,0,6934
450,13083,0,0,6917
451,13104,0,0,6896
452,13118,0,0,6882
453,13125,0,0,6875
454,13136,0,0,6864
455,13161,0,0,6839
456,13176,0,0,6824
457,13184,0,0,6816
458,13199,0,0,6801
459,13215,0,0,6785
460,13223,0,0,6777
461,13242,0,0,6758
462,13263,0,0,6737
463,13275,0,0,6725
464,13293,0,0,6707
465,13319,0,0,6681
466,13346,0,0,6654
467,13362,0,0,6638
468,13385,0,0,6615
469,13417,0,0,6583
470,13432,0,0,6568
471,13441,0,0,6559
472,13459,0,0,6541
473,13485,0,0,6515
474,13511,0,0,6489
475,13533,0,0,6467
476,13566,0,0,6434
477,13584,0,0,6416
478,13613,0,0,6387
479,13650,0,0,6350
480,13657,0,0,6343
481,13677,0,0,6323
482,13699,0,0,6301
483,13726,0,0,6274
484,13742,0,0,6258
485,13758,0,0,6242
486,13772,0,0,6228
487,13799,0,0,6201
488,13810,0,0,6190
489,13834,0,0,6166
490,13846,0,0,6154
491,13868,0,0,6132
492,13891,0,0,6109
493,13898,0,0,6102
494,13921,0,0,6079
495,13928,0,0,6072
496,13949,0,0,6051
497,13965,0,0,6035
498,13985,0,0,6015
499,13991,0,0,6009
500,14001,0,0,5999
501,14020,0,0,5980
502,14035,0,0,5965
503,14039,0,0,5961
504,14051,0,0,5949
505,14064,0,0,5936
506,14084,0,0,5916
507,14100,0,0,5900
508,14114,0,0,5886
509,14126,0,0,5874
510,14138,0,0,5862
511,14143,0,0,5857
512,14147,0,0,5853
513,14169,0,0,5831
514,14178,0,0,5822
515,14191,0,0,5809
516,14205,0,0,5795
517,14205,0,0,5795
518,14233,0,0,5767
519,14241,0,0,5759
520,14266,0,0,5734
521,14277,0,0,5723
522,14288,0,0,5712
523,14292,0,0,5708
524,14305,0,0,5695
525,14324,0,0,5676
526,14339,0,0,5661
527,14344,0,0,5656
528,14361,0,0,5639
529,14370,0,0,5630
530,14393,0,0,5607
531,14410,0,0,5590
532,14419,0,0,5581
533,14429,0,0,5571
534,14446,0,0,5554
535,14468,0,0,5532
536,14476,0,0,5524
537,14484,0,0,5516
538,14489,0,0,5511
539,14496,0,0,5504
540,14504,0,0,5496
541,14518,0,0,5482
542,14527,0,0,5473
543,14540,0,0,5460
544,14549,0,0,5451
545,14565,0,0,5435
546,14567,0,0,5433
547,14569,0,0,5431
548,14572,0,0,5428
549,14577,0,0,5423
550,14584,0,0,5416
551,14584,0,0,5416
552,14588,0,0,5412
553,14601,0,0,5399
554,14601,0,0,5399
555,14607,0,0,5393
556,14611,0,0,5389
557,14621,0,0,5379
558,14635,0,0,5365
559,14639,0,0,5361
560,14641,0,0,5359
561,14647,0,0,5353
562,14651,0,0,5349
563,14661,0,0,5339
564,14667,0,0,5333
565,14672,0,0,5328
566,14682,0,0,5318
567,14691,0,0,5309
568,14704,0,0,5296
569,14711,0,0,5289
570,14728,0,0,5272
571,14738,0,0,5262
572,14755,0,0,5245
573,14766,0,0,5234
574,14780,0,0,5220
575,14791,0,0,5209
576,14792,0,0,5208
577,14803,0,0,5197
578,14811,0,0,5189
579,14824,0,0,5176
580,14836,0,0,5164
581,14865,0,0,5135
582,14869,0,0,5131
583,14884,0,0,5116
584,14888,0,0,5112
585,14911,0,0,5089
586,14922,0,0,5078
587,14936,0,0,5064
588,14954,0,0,5046
589,14969,0,0,5031
590,14992,0,0,5008
591,15010,0,0,4990
592,15015,0,0,4985
593,15024,0,0,4976
594,15047,0,0,4953
595,15060,0,0,4940
596,15070,0,0,4930
597,15081,0,0,4919
598,15098,0,0,4902
599,15117,0,0,4883
600,15128,0,0,4872
601,15131,0,0,4869
602,15140,0,0,4860
603,15144,0,0,4856
604,15149,0,0,4851
605,15155,0,0,4845
606,15161,0,0,4839
607,15164,0,0,4836
608,15167,0,0,4833
609,15176,0,0,4824
610,15179,0,0,4821
611,15186,0,0,4814
612,15194,0,0,4806
613,15204,0,0,4796
614,15208,0,0,4792
615,15216,0,0,4784
616,15224,0,0,4776
617,15240,0,0,4760
618,15258,0,0,4742
619,15268,0,0,4732
620,15282,0,0,4718
621,15296,0,0,4704
622,15308,0,0,4692
623,15324,0,0,4676
624,15339,0,0,4661
625,15350,0,0,4650
626,15375,0,0,4625
627,15391,0,0,4609
628,15410,0,0,4590
629,15425,0,0,4575
630,15441,0,0,4559
631,15467,0,0,4533
632,15481,0,0,4519
633,15502,0,0,4498
634,15509,0,0,4491
635,15522,0,0,4478
636,15541,0,0,4459
637,15568,0,0,4432
638,15581,0,0,4419
639,15598,0,0,4402
640,15612,0,0,4388
641,15624,0,0,4376
642,15654,0,0,4346
643,15670,0,0,4330
644,15689,0,0,4311
645,15711,0,0,4289
646,15720,0,0,4280
647,15732,0,0,4268
648,15743,0,0,4257
649,15751,0,0,4249
650,15757,0,0,4243
651,15773,0,0,4227
652,15784,0,0,4216
653,15790,0,0,4210
654,15802,0,0,4198
655,15803,0,0,4197
656,15814,0,0,4186
657,15824,0,0,4176
658,15835,0,0,4165
659,15838,0,0,4162
660,15843,0,0,4157
661,15847,0,0,4153
662,15863,0,0,4137
663,15868,0,0,4132
664,15877,0,0,4123
665,15882,0,0,4118
666,15895,0,0,4105
667,15921,0,0,4079
668,15934,0,0,4066
669,15942,0,0,4058
670,15949,0,0,4051
671,15961,0,0,4039
672,15974,0,0,4026
673,15990,0,0,4010
674,16006,0,0,3994
675,16011,0,0,3989
676,16016,0,0,3984
677,16023,0,0,3977
678,16036,0,0,3964
679,16040,0,0,3960
680,16046,0,0,3954
681,16053,0,0,3947
682,16062,0,0,3938
683,16074,0,0,3926
684,16077,0,0,3923
685,16088,0,0,3912
686,16096,0,0,3904
687,16100,0,0,3900
688,16103,0,0,3897
689,16112,0,0,3888
690,16119,0,0,3881
691,16130,0,0,3870
692,16141,0,0,3859
693,16149,0,0,3851
694,16157,0,0,3843
695,16166,0,0,3834
696,16179,0,0,3821
697,16188,0,0,3812
698,16195,0,0,3805
699,16197,0,0,3803
700,16213,0,0,3787
701,16227,0,0,3773
702,16238,0,0,3762
703,16244,0,0,3756
704,16252,0,0,3748
705,16267,0,0,3733
706,16271,0,0,3729
707,16275,0,0,3725
708,16282,0,0,3718
709,16289,0,0,3711
710,16292,0,0,3708
711,16308,0,0,3692
712,16315,0,0,3685
713,16322,0,0,3678
714,16330,0,0,3670
715,16338,0,0,3662
716,16351,0,0,3649
717,16356,0,0,3644
718,16368,0,0,3632
719,16380,0,0,3620
720,16392,0,0,3608
721,16398,0,0,3602
722,16409,0,0,3591
723,16426,0,0,3574
724,16442,0,0,3558
725,16478,0,0,3522
726,16490,0,0,3510
727,16506,0,0,3494
728,16535,0,0,3465
729,16548,0,0,3452
730,16558,0,0,3442
