Iteration,Susceptible,Exposed,Infected,Recovered
0,19980,0,20,0
1,19968,12,20,0
2,19951,27,22,0
3,19921,49,30,0
4,19882,76,36,6
5,19840,96,57,7
6,19794,116,73,17
7,19735,142,98,25
8,19663,182,109,46
9,19564,231,144,61
10,19429,304,183,84
11,19276,390,200,134
12,19105,467,242,186
13,18903,541,321,235
14,18640,644,419,297
15,18293,819,514,374
16,17907,961,670,462
17,17386,1209,819,586
18,16697,1539,1035,729
19,16013,1840,1208,939
20,15096,2233,1495,1176
21,14103,2611,1841,1445
22,12984,2926,2281,1809
23,11960,3111,2692,2237
24,10730,3521,3054,2695
25,9400,3832,3498,3270
26,8119,4114,3867,3900
27,6933,4218,4323,4526
28,5615,4344,4795,5246
29,4685,4081,5320,5914
30,3821,3782,5633,6764
31,3153,3385,5805,7657
32,2526,3056,5947,8471
33,2087,2667,5957,9289
34,1652,2407,5801,10140
35,1415,1952,5744,10889
36,1206,1632,5608,11554
37,1008,1356,5380,12256
38,919,1062,5189,12830
39,883,855,4964,13298
40,800,756,4609,13835
41,707,681,4286,14326
42,679,512,4049,14760
43,650,417,3773,15160
44,652,335,3525,15488
45,724,219,3234,15823
46,734,239,2920,16107
47,761,209,2694,16336
48,785,192,2492,16531
49,818,160,2264,16758
50,869,121,2055,16955
51,875,125,1836,17164
52,905,119,1691,17285
53,943,94,1536,17427
54,987,91,1377,17545
55,1036,92,1261,17611
56,1057,76,1161,17706
57,1070,84,1062,17784
58,1104,71,981,17844
59,1162,55,870,17913
60,1202,36,780,17982
61,1266,34,683,18017
62,1292,58,607,18043
63,1347,30,571,18052
64,1393,24,491,18092
65,1431,32,433,18104
66,1490,29,407,18074
67,1522,22,367,18089
68,1564,27,316,18093
69,1617,26,280,18077
70,1649,21,239,18091
71,1687,24,222,18067
72,1745,9,202,18044
73,1782,12,173,18033
74,1850,15,151,17984
75,1894,11,143,17952
76,1943,10,131,17916
77,1984,11,120,17885
78,2029,8,115,17848
79,2076,16,109,17799
80,2139,12,105,17744
81,2196,11,91,17702
82,2258,8,78,17656
83,2329,13,69,17589
84,2386,8,66,17540
85,2447,5,55,17493
86,2510,5,48,17437
87,2568,6,47,17379
88,2624,4,42,17330
89,2685,5,38,17272
90,2739,5,30,17226
91,2807,5,28,17160
92,2872,2,20,17106
93,2920,2,18,17060
94,2970,3,13,17014
95,3041,5,12,16942
96,3108,1,13,16878
97,3163,1,9,16827
98,3224,0,8,16768
99,3290,0,7,16703
100,3356,1,7,16636
101,3400,2,4,16594
102,3481,0,5,16514
103,3530,0,2,16468
104,3562,1,2,16435
105,3619,0,2,16379
106,3673,0,1,16326
107,3727,0,1,16272
108,3774,0,1,16225
109,3810,0,1,16189
110,3859,0,1,16140
111,3912,0,1,16087
112,3956,0,1,16043
113,4002,0,1,15997
114,4037,1,1,15961
115,4091,0,2,15907
116,4145,0,0,15855
117,4199,0,0,15801
118,4229,0,0,15771
119,4259,0,0,15741
120,4287,0,0,15713
121,4321,0,0,15679
122,4364,0,0,15636
123,4391,0,0,15609
124,4419,0,0,15581
125,4454,0,0,15546
126,4491,0,0,15509
127,4521,0,0,15479
128,4553,0,0,15447
129,4585,0,0,15415
130,4618,0,0,15382
131,4640,0,0,15360
132,4668,0,0,15332
133,4709,0,0,15291
134,4728,0,0,15272
135,4750,0,0,15250
136,4770,0,0,15230
137,4797,0,0,15203
138,4819,0,0,15181
139,4840,0,0,15160
140,4869,0,0,15131
141,4900,0,0,15100
142,4963,0,0,15037
143,4996,0,0,15004
144,5025,0,0,14975
145,5043,0,0,14957
146,5078,0,0,14922
147,5102,0,0,14898
148,5138,0,0,14862
149,5177,0,0,14823
150,5200,0,0,14800
151,5227,0,0,14773
152,5267,0,0,14733
153,5322,0,0,14678
154,5355,0,0,14645
155,5389,0,0,14611
156,5429,0,0,14571
157,5483,0,0,14517
158,5506,0,0,14494
159,5551,0,0,14449
160,5583,0,0,14417
161,5622,0,0,14378
162,5659,0,0,14341
163,5683,0,0,14317
164,5721,0,0,14279
165,5758,0,0,14242
166,5806,0,0,14194
167,5871,0,0,14129
168,5929,0,0,14071
169,5965,0,0,14035
170,6013,0,0,13987
171,6037,0,0,13963
172,6085,0,0,13915
173,6116,0,0,13884
174,6159,0,0,13841
175,6197,0,0,13803
176,6229,0,0,13771
177,6271,0,0,13729
178,6322,0,0,13678
179,6355,0,0,13645
180,6394,0,0,13606
181,6432,0,0,13568
182,6476,0,0,13524
183,6524,0,0,13476
184,6551,0,0,13449
185,6593,0,0,13407
186,6628,0,0,13372
187,6678,0,0,13322
188,6724,0,0,13276
189,6776,0,0,13224
190,6823,0,0,13177
191,6872,0,0,13128
192,6910,0,0,13090
193,6943,0,0,13057
194,6970,0,0,13030
195,6993,0,0,13007
196,7019,0,0,12981
197,7065,0,0,12935
198,7098,0,0,12902
199,7142,0,0,12858
200,7180,0,0,12820
201,7206,0,0,12794
202,7251,0,0,12749
203,7282,0,0,12718
204,7298,0,0,12702
205,7327,0,0,12673
206,7362,0,0,12638
207,7400,0,0,12600
208,7431,0,0,12569
209,7487,0,0,12513
210,7534,0,0,12466
211,7577,0,0,12423
212,7622,0,0,12378
213,7691,0,0,12309
214,7737,0,0,12263
215,7787,0,0,12213
216,7831,0,0,12169
217,7883,0,0,12117
218,7923,0,0,12077
219,7961,0,0,12039
220,7998,0,0,12002
221,8041,0,0,11959
222,8067,0,0,11933
223,8109,0,0,11891
224,8127,0,0,11873
225,8153,0,0,11847
226,8167,0,0,11833
227,8198,0,0,11802
228,8211,0,0,11789
229,8253,0,0,11747
230,8262,0,0,11738
231,8286,0,0,11714
232,8308,0,0,11692
233,8335,0,0,11665
234,8357,0,0,11643
235,8381,0,0,11619
236,8411,0,0,11589
237,8439,0,0,11561
238,8457,0,0,11543
239,8477,0,0,11523
240,8503,0,0,11497
241,8514,0,0,11486
242,8536,0,0,11464
243,8559,0,0,11441
244,8577,0,0,11423
245,8601,0,0,11399
246,8617,0,0,11383
247,8641,0,0,11359
248,8679,0,0,11321
249,8714,0,0,11286
250,8755,0,0,11245
251,8785,0,0,11215
252,8827,0,0,11173
253,8849,0,0,11151
254,8878,0,0,11122
255,8899,0,0,11101
256,8937,0,0,11063
257,8973,0,0,11027
258,9008,0,0,10992
259,9038,0,0,10962
260,9081,0,0,10919
261,9111,0,0,10889
262,9136,0,0,10864
263,9183,0,0,10817
264,9219,0,0,10781
265,9242,0,0,10758
266,9268,0,0,10732
267,9297,0,0,10703
268,9320,0,0,10680
269,9346,0,0,10654
270,9374,0,0,10626
271,9415,0,0,10585
272,9452,0,0,10548
273,9494,0,0,10506
274,9533,0,0,10467
275,9567,0,0,10433
276,9597,0,0,10403
277,9633,0,0,10367
278,9668,0,0,10332
279,9700,0,0,10300
280,9729,0,0,10271
281,9772,0,0,10228
282,9800,0,0,10200
283,9832,0,0,10168
284,9859,0,0,10141
285,9878,0,0,10122
286,9902,0,0,10098
287,9930,0,0,10070
288,9965,0,0,10035
289,9994,0,0,10006
290,10018,0,0,9982
291,10042,0,0,9958
292,10064,0,0,9936
293,10078,0,0,9922
294,10098,0,0,9902
295,10110,0,0,9890
296,10136,0,0,9864
297,10165,0,0,9835
298,10188,0,0,9812
299,10211,0,0,9789
300,10242,0,0,9758
301,10267,0,0,9733
302,10295,0,0,9705
303,10322,0,0,9678
304,10356,0,0,9644
305,10376,0,0,9624
306,10395,0,0,9605
307,10432,0,0,9568
308,10461,0,0,9539
309,10498,0,0,9502
310,10535,0,0,9465
311,10564,0,0,9436
312,10593,0,0,9407
313,10636,0,0,9364
314,10656,0,0,9344
315,10687,0,0,9313
316,10712,0,0,9288
317,10739,0,0,9261
318,10763,0,0,9237
319,10793,0,0,9207
320,10818,0,0,9182
321,10838,0,0,9162
322,10879,0,0,9121
323,10904,0,0,9096
324,10934,0,0,9066
325,10967,0,0,9033
326,11000,0,0,9000
327,11022,0,0,8978
328,11039,0,0,8961
329,11068,0,0,8932
330,11097,0,0,8903
331,11125,0,0,8875
332,11161,0,0,8839
333,11175,0,0,8825
334,11201,0,0,8799
335,11233,0,0,8767
336,11268,0,0,8732
337,11299,0,0,8701
338,11326,0,0,8674
339,11353,0,0,8647
340,11374,0,0,8626
341,11399,0,0,8601
342,11433,0,0,8567
343,11457,0,0,8543
344,11486,0,0,8514
345,11514,0,0,8486
346,11530,0,0,8470
347,11552,0,0,8448
348,11571,0,0,8429
349,11595,0,0,8405
350,11632,0,0,8368
351,11662,0,0,8338
352,11686,0,0,8314
353,11701,0,0,8299
354,11731,0,0,8269
355,11755,0,0,8245
356,11784,0,0,8216
357,11809,0,0,8191
358,11828,0,0,8172
359,11849,0,0,8151
360,11867,0,0,8133
361,11879,0,0,8121
362,11894,0,0,8106
363,11917,0,0,8083
364,11941,0,0,8059
365,11964,0,0,8036
366,11978,0,0,8022
367,11993,0,0,8007
368,12009,0,0,7991
369,12029,0,0,7971
370,12037,0,0,7963
371,12050,0,0,7950
372,12072,0,0,7928
373,12084,0,0,7916
374,12097,0,0,7903
375,12108,0,0,7892
376,12133,0,0,7867
377,12154,0,0,7846
378,12176,0,0,7824
379,12201,0,0,7799
380,12215,0,0,7785
381,12229,0,0,7771
382,12256,0,0,7744
383,12274,0,0,7726
384,12291,0,0,7709
385,12311,0,0,7689
386,12331,0,0,7669
387,12359,0,0,7641
388,12382,0,0,7618
389,12398,0,0,7602
390,12420,0,0,7580
391,12448,0,0,7552
392,12470,0,0,7530
393,12500,0,0,7500
394,12515,0,0,7485
395,12533,0,0,7467
396,12543,0,0,7457
397,12553,0,0,7447
398,12562,0,0,7438
399,12579,0,0,7421
400,12595,0,0,7405
401,12616,0,0,7384
402,12630,0,0,7370
403,12654,0,0,7346
404,12672,0,0,7328
405,12693,0,0,7307
406,12712,0,0,7288
407,12727,0,0,7273
408,12744,0,0,7256
409,12752,0,0,7248
410,12771,0,0,7229
411,12795,0,0,7205
412,12808,0,0,7192
413,12823,0,0,7177
414,12837,0,0,7163
415,12851,0,0,7149
416,12858,0,0,7142
417,12877,0,0,7123
418,12895,0,0,7105
419,12903,0,0,7097
420,12912,0,0,7088
421,12937,0,0,7063
422,12951,0,0,7049
423,12980,0,0,7020
424,13008,0,0,6992
425,13023,0,0,6977
426,13044,0,0,6956
427,13065,0,0,6935
428,13081,0,0,6919
429,13106,0,0,6894
430,13130,0,0,6870
431,13148,0,0,6852
432,13174,0,0,6826
433,13200,0,0,6800
434,13215,0,0,6785
435,13240,0,0,6760
436,13256,0,0,6744
437,13270,0,0,6730
438,13289,0,0,6711
439,13320,0,0,6680
440,13328,0,0,6672
441,13357,0,0,6643
442,13370,0,0,6630
443,13381,0,0,6619
444,13393,0,0,6607
445,13401,0,0,6599
446,13417,0,0,6583
447,13424,0,0,6576
448,13433,0,0,6567
449,13440,0,0,6560
450,13448,0,0,6552
451,13453,0,0,6547
452,13458,0,0,6542
453,13466,0,0,6534
454,13476,0,0,6524
455,13481,0,0,6519
456,13489,0,0,6511
457,13495,0,0,6505
458,13509,0,0,6491
459,13518,0,0,6482
460,13531,0,0,6469
461,13546,0,0,6454
462,13556,0,0,6444
463,13569,0,0,6431
464,13583,0,0,6417
465,13589,0,0,6411
466,13595,0,0,6405
467,13616,0,0,6384
468,13646,0,0,6354
469,13662,0,0,6338
470,13682,0,0,6318
471,13701,0,0,6299
472,13737,0,0,6263
473,13748,0,0,6252
474,13773,0,0,6227
475,13787,0,0,6213
476,13795,0,0,6205
477,13803,0,0,6197
478,13815,0,0,6185
479,13830,0,0,6170
480,13842,0,0,6158
481,13849,0,0,6151
482,13863,0,0,6137
483,13873,0,0,6127
484,13877,0,0,6123
485,13901,0,0,6099
486,13906,0,0,6094
487,13932,0,0,6068
488,13943,0,0,6057
489,13959,0,0,6041
490,13988,0,0,6012
491,14004,0,0,5996
492,14040,0,0,5960
493,14057,0,0,5943
494,14086,0,0,5914
495,14106,0,0,5894
496,14139,0,0,5861
497,14160,0,0,5840
498,14184,0,0,5816
499,14200,0,0,5800
500,14212,0,0,5788
501,14233,0,0,5767
502,14243,0,0,5757
503,14267,0,0,5733
504,14282,0,0,5718
505,14322,0,0,5678
506,14353,0,0,5647
507,14373,0,0,5627
508,14380,0,0,5620
509,14399,0,0,5601
510,14414,0,0,5586
511,14428,0,0,5572
512,14437,0,0,5563
513,14454,0,0,5546
514,14468,0,0,5532
515,14490,0,0,5510
516,14513,0,0,5487
517,14531,0,0,5469
518,14547,0,0,5453
519,14568,0,0,5432
520,14576,0,0,5424
521,14596,0,0,5404
522,14615,0,0,5385
523,14634,0,0,5366
524,14655,0,0,5345
525,14681,0,0,5319
526,14705,0,0,5295
527,14728,0,0,5272
528,14735,0,0,5265
529,14751,0,0,5249
530,14760,0,0,5240
531,14774,0,0,5226
532,14788,0,0,5212
533,14824,0,0,5176
534,14846,0,0,5154
535,14873,0,0,5127
536,14896,0,0,5104
537,14918,0,0,5082
538,14931,0,0,5069
539,14946,0,0,5054
540,14963,0,0,5037
541,14987,0,0,5013
542,14999,0,0,5001
543,15011,0,0,4989
544,15015,0,0,4985
545,15036,0,0,4964
546,15038,0,0,4962
547,15051,0,0,4949
548,15080,0,0,4920
549,15086,0,0,4914
550,15099,0,0,4901
551,15115,0,0,4885
552,15127,0,0,4873
553,15144,0,0,4856
554,15161,0,0,4839
555,15173,0,0,4827
556,15188,0,0,4812
557,15198,0,0,4802
558,15216,0,0,4784
559,15242,0,0,4758
560,15263,0,0,4737
561,15282,0,0,4718
562,15314,0,0,4686
563,15324,0,0,4676
564,15350,0,0,4650
565,15370,0,0,4630
566,15390,0,0,4610
567,15423,0,0,4577
568,15436,0,0,4564
569,15444,0,0,4556
570,15446,0,0,4554
571,15456,0,0,4544
572,15471,0,0,4529
573,15485,0,0,4515
574,15500,0,0,4500
575,15509,0,0,4491
576,15514,0,0,4486
577,15520,0,0,4480
578,15530,0,0,4470
579,15534,0,0,4466
580,15551,0,0,4449
581,15553,0,0,4447
582,15556,0,0,4444
583,15565,0,0,4435
584,15573,0,0,4427
585,15582,0,0,4418
586,15586,0,0,4414
587,15599,0,0,4401
588,15615,0,0,4385
589,15624,0,0,4376
590,15640,0,0,4360
591,15648,0,0,4352
592,15657,0,0,4343
593,15664,0,0,4336
594,15675,0,0,4325
595,15686,0,0,4314
596,15689,0,0,4311
597,15700,0,0,4300
598,15710,0,0,4290
599,15721,0,0,4279
600,15734,0,0,4266
601,15748,0,0,4252
602,15777,0,0,4223
603,15785,0,0,4215
604,15792,0,0,4208
605,15812,0,0,4188
606,15838,0,0,4162
607,15854,0,0,4146
608,15862,0,0,4138
609,15880,0,0,4120
610,15888,0,0,4112
611,15918,0,0,4082
612,15922,0,0,4078
613,15935,0,0,4065
614,15957,0,0,4043
615,15982,0,0,4018
616,15996,0,0,4004
617,16014,0,0,3986
618,16024,0,0,3976
619,16030,0,0,3970
620,16038,0,0,3962
621,16050,0,0,3950
622,16062,0,0,3938
623,16069,0,0,3931
624,16075,0,0,3925
625,16077,0,0,3923
626,16085,0,0,3915
627,16088,0,0,3912
628,16092,0,0,3908
629,16107,0,0,3893
630,16110,0,0,3890
631,16117,0,0,3883
632,16122,0,0,3878
633,16128,0,0,3872
634,16135,0,0,3865
635,16138,0,0,3862
636,16150,0,0,3850
637,16155,0,0,3845
638,16170,0,0,3830
639,16180,0,0,3820
640,16190,0,0,3810
641,16203,0,0,3797
642,16208,0,0,3792
643,16209,0,0,3791
644,16216,0,0,3784
645,16222,0,0,3778
646,16230,0,0,3770
647,16234,0,0,3766
648,16244,0,0,3756
649,16250,0,0,3750
650,16257,0,0,3743
651,16272,0,0,3728
652,16280,0,0,3720
653,16292,0,0,3708
654,16297,0,0,3703
655,16301,0,0,3699
656,16311,0,0,3689
657,16326,0,0,3674
658,16336,0,0,3664
659,16353,0,0,3647
660,16369,0,0,3631
661,16378,0,0,3622
662,16410,0,0,3590
663,16414,0,0,3586
664,16439,0,0,3561
665,16448,0,0,3552
666,16459,0,0,3541
667,16475,0,0,3525
668,16497,0,0,3503
669,16511,0,0,3489
670,16515,0,0,3485
671,16534,0,0,3466
672,16545,0,0,3455
673,16557,0,0,3443
674,16570,0,0,3430
675,16579,0,0,3421
676,16596,0,0,3404
677,16600,0,0,3400
678,16618,0,0,3382
679,16629,0,0,3371
680,16641,0,0,3359
681,16656,0,0,3344
682,16665,0,0,3335
683,16669,0,0,3331
684,16686,0,0,3314
685,16712,0,0,3288
686,16733,0,0,3267
687,16740,0,0,3260
688,16753,0,0,3247
689,16765,0,0,3235
690,16778,0,0,3222
691,16786,0,0,3214
692,16812,0,0,3188
693,16822,0,0,3178
694,16826,0,0,3174
695,16851,0,0,3149
696,16855,0,0,3145
697,16872,0,0,3128
698,16881,0,0,3119
699,16889,0,0,3111
700,16894,0,0,3106
701,16906,0,0,3094
702,16910,0,0,3090
703,16917,0,0,3083
704,16918,0,0,3082
705,16933,0,0,3067
706,16938,0,0,3062
707,16948,0,0,3052
708,16949,0,0,3051
709,16953,0,0,3047
710,16963,0,0,3037
711,16967,0,0,3033
712,16971,0,0,3029
713,16972,0,0,3028
714,16977,0,0,3023
715,16980,0,0,3020
716,16987,0,0,3013
717,16988,0,0,3012
718,16990,0,0,3010
719,16995,0,0,3005
720,16995,0,0,3005
721,17001,0,0,2999
722,17007,0,0,2993
723,17008,0,0,2992
724,17009,0,0,2991
725,17013,0,0,2987
726,17018,0,0,2982
727,17021,0,0,2979
728,17029,0,0,2971
729,17040,0,0,2960
730,17043,0,0,2957
