Iteration,Susceptible,Exposed,Infected,Recovered
0,19980,0,20,0
1,19967,13,20,0
2,19949,29,22,0
3,19930,42,27,1
4,19902,57,37,4
5,19859,84,52,5
6,19807,111,73,9
7,19749,139,76,36
8,19692,165,91,52
9,19606,200,126,68
10,19475,274,166,85
11,19335,340,205,120
12,19180,412,247,161
13,18999,474,319,208
14,18680,653,399,268
15,18368,802,489,341
16,18034,900,637,429
17,17488,1195,755,562
18,16907,1426,969,698
19,16214,1748,1156,882
20,15425,2070,1418,1087
21,14547,2348,1728,1377
22,13476,2802,2061,1661
23,12373,3216,2321,2090
24,11253,3483,2775,2489
25,10029,3731,3292,2948
26,8782,3913,3822,3483
27,7402,4196,4279,4123
28,6049,4404,4693,4854
29,5087,4175,5191,5547
30,3930,4243,5549,6278
31,3193,3765,6004,7038
32,2475,3498,6054,7973
33,1712,3309,6162,8817
34,1320,2814,6203,9663
35,1177,2226,6173,10424
36,949,1819,5985,11247
37,773,1527,5726,11974
38,745,1141,5538,12576
39,620,946,5209,13225
40,614,731,4930,13725
41,587,586,4566,14261
42,624,431,4185,14760
43,568,379,3856,15197
44,588,312,3642,15458
45,601,240,3329,15830
46,602,221,3023,16154
47,635,147,2806,16412
48,680,165,2580,16575
49,734,133,2388,16745
50,739,111,2165,16985
51,736,107,1992,17165
52,759,93,1802,17346
53,784,89,1613,17514
54,809,80,1482,17629
55,855,47,1353,17745
56,895,54,1210,17841
57,934,21,1124,17921
58,962,40,984,18014
59,1009,37,899,18055
60,1043,42,817,18098
61,1085,27,704,18184
62,1116,41,652,18191
63,1151,30,621,18198
64,1192,19,537,18252
65,1229,16,465,18290
66,1281,18,413,18288
67,1339,18,378,18265
68,1354,28,334,18284
69,1392,20,320,18268
70,1425,26,280,18269
71,1488,12,263,18237
72,1532,21,229,18218
73,1565,15,218,18202
74,1584,23,205,18188
75,1653,3,196,18148
76,1678,17,159,18146
77,1718,10,156,18116
78,1763,7,142,18088
79,1800,5,133,18062
80,1846,10,120,18024
81,1883,9,122,17986
82,1923,7,107,17963
83,1969,8,97,17926
84,1998,7,95,17900
85,2043,4,83,17870
86,2085,9,77,17829
87,2132,12,79,17777
88,2157,6,79,17758
89,2184,8,59,17749
90,2239,4,51,17706
91,2273,8,47,17672
92,2310,6,46,17638
93,2369,4,44,17583
94,2429,5,41,17525
95,2487,5,41,17467
96,2553,5,40,17402
97,2599,5,36,17360
98,2655,5,38,17302
99,2720,2,36,17242
100,2781,4,27,17188
101,2845,8,26,17121
102,2909,8,32,17051
103,2982,13,32,16973
104,3057,2,40,16901
105,3114,7,28,16851
106,3198,5,23,16774
107,3253,4,17,16726
108,3351,1,17,16631
109,3416,1,15,16568
110,3446,3,13,16538
111,3507,0,16,16477
112,3566,3,13,16418
113,3635,1,11,16353
114,3675,4,12,16309
115,3711,2,6,16281
116,3744,1,5,16250
117,3798,0,2,16200
118,3832,0,2,16166
119,3882,0,1,16117
120,3920,1,1,16078
121,3961,0,1,16038
122,4010,0,0,15990
123,4038,0,0,15962
124,4067,0,0,15933
125,4122,0,0,15878
126,4161,0,0,15839
127,4187,0,0,15813
128,4226,0,0,15774
129,4265,0,0,15735
130,4296,0,0,15704
131,4344,0,0,15656
132,4386,0,0,15614
133,4427,0,0,15573
134,4475,0,0,15525
135,4533,0,0,15467
136,4565,0,0,15435
137,4615,0,0,15385
138,4668,0,0,15332
139,4704,0,0,15296
140,4741,0,0,15259
141,4789,0,0,15211
142,4814,0,0,15186
143,4868,0,0,15132
144,4914,0,0,15086
145,4949,0,0,15051
146,5005,0,0,14995
147,5059,0,0,14941
148,5100,0,0,14900
149,5148,0,0,14852
150,5196,0,0,14804
151,5248,0,0,14752
152,5287,0,0,14713
153,5324,0,0,14676
154,5387,0,0,14613
155,5424,0,0,14576
156,5475,0,0,14525
157,5511,0,0,14489
158,5543,0,0,14457
159,5589,0,0,14411
160,5643,0,0,14357
161,5690,0,0,14310
162,5720,0,0,14280
163,5755,0,0,14245
164,5820,0,0,14180
165,5861,0,0,14139
166,5896,0,0,14104
167,5936,0,0,14064
168,5975,0,0,14025
169,6009,0,0,13991
170,6043,0,0,13957
171,6065,0,0,13935
172,6083,0,0,13917
173,6092,0,0,13908
174,6116,0,0,13884
175,6142,0,0,13858
176,6170,0,0,13830
177,6211,0,0,13789
178,6252,0,0,13748
179,6280,0,0,13720
180,6313,0,0,13687
181,6344,0,0,13656
182,6373,0,0,13627
183,6417,0,0,13583
184,6459,0,0,13541
185,6486,0,0,13514
186,6515,0,0,13485
187,6563,0,0,13437
188,6594,0,0,13406
189,6628,0,0,13372
190,6666,0,0,13334
191,6704,0,0,13296
192,6736,0,0,13264
193,6772,0,0,13228
194,6831,0,0,13169
195,6873,0,0,13127
196,6927,0,0,13073
197,6976,0,0,13024
198,7023,0,0,12977
199,7066,0,0,12934
200,7107,0,0,12893
201,7148,0,0,12852
202,7204,0,0,12796
203,7231,0,0,12769
204,7285,0,0,12715
205,7314,0,0,12686
206,7348,0,0,12652
207,7366,0,0,12634
208,7398,0,0,12602
209,7425,0,0,12575
210,7461,0,0,12539
211,7528,0,0,12472
212,7571,0,0,12429
213,7587,0,0,12413
214,7619,0,0,12381
215,7664,0,0,12336
216,7692,0,0,12308
217,7723,0,0,12277
218,7774,0,0,12226
219,7799,0,0,12201
220,7816,0,0,12184
221,7854,0,0,12146
222,7888,0,0,12112
223,7936,0,0,12064
224,7974,0,0,12026
225,8005,0,0,11995
226,8042,0,0,11958
227,8062,0,0,11938
228,8096,0,0,11904
229,8126,0,0,11874
230,8173,0,0,11827
231,8211,0,0,11789
232,8262,0,0,11738
233,8326,0,0,11674
234,8358,0,0,11642
235,8391,0,0,11609
236,8437,0,0,11563
237,8495,0,0,11505
238,8551,0,0,11449
239,8578,0,0,11422
240,8619,0,0,11381
241,8659,0,0,11341
242,8709,0,0,11291
243,8740,0,0,11260
244,8768,0,0,11232
245,8788,0,0,11212
246,8803,0,0,11197
247,8829,0,0,11171
248,8851,0,0,11149
249,8877,0,0,11123
250,8889,0,0,11111
251,8906,0,0,11094
252,8926,0,0,11074
253,8957,0,0,11043
254,8985,0,0,11015
255,9009,0,0,10991
256,9045,0,0,10955
257,9095,0,0,10905
258,9131,0,0,10869
259,9161,0,0,10839
260,9190,0,0,10810
261,9200,0,0,10800
262,9243,0,0,10757
263,9306,0,0,10694
264,9346,0,0,10654
265,9376,0,0,10624
266,9399,0,0,10601
267,9434,0,0,10566
268,9464,0,0,10536
269,9493,0,0,10507
270,9517,0,0,10483
271,9547,0,0,10453
272,9559,0,0,10441
273,9575,0,0,10425
274,9587,0,0,10413
275,9605,0,0,10395
276,9624,0,0,10376
277,9646,0,0,10354
278,9663,0,0,10337
279,9681,0,0,10319
280,9705,0,0,10295
281,9722,0,0,10278
282,9736,0,0,10264
283,9765,0,0,10235
284,9794,0,0,10206
285,9827,0,0,10173
286,9855,0,0,10145
287,9886,0,0,10114
288,9929,0,0,10071
289,9962,0,0,10038
290,9990,0,0,10010
291,10017,0,0,9983
292,10043,0,0,9957
293,10073,0,0,9927
294,10123,0,0,9877
295,10146,0,0,9854
296,10170,0,0,9830
297,10193,0,0,9807
298,10217,0,0,9783
299,10236,0,0,9764
300,10258,0,0,9742
301,10291,0,0,9709
302,10307,0,0,9693
303,10350,0,0,9650
304,10372,0,0,9628
305,10405,0,0,9595
306,10434,0,0,9566
307,10458,0,0,9542
308,10502,0,0,9498
309,10518,0,0,9482
310,10537,0,0,9463
311,10555,0,0,9445
312,10575,0,0,9425
313,10605,0,0,9395
314,10629,0,0,9371
315,10659,0,0,9341
316,10673,0,0,9327
317,10691,0,0,9309
318,10709,0,0,9291
319,10740,0,0,9260
320,10771,0,0,9229
321,10788,0,0,9212
322,10802,0,0,9198
323,10838,0,0,9162
324,10865,0,0,9135
325,10895,0,0,9105
326,10921,0,0,9079
327,10947,0,0,9053
328,10964,0,0,9036
329,10977,0,0,9023
330,10992,0,0,9008
331,11017,0,0,8983
332,11043,0,0,8957
333,11071,0,0,8929
334,11095,0,0,8905
335,11117,0,0,8883
336,11140,0,0,8860
337,11161,0,0,8839
338,11191,0,0,8809
339,11212,0,0,8788
340,11229,0,0,8771
341,11253,0,0,8747
342,11271,0,0,8729
343,11297,0,0,8703
344,11309,0,0,8691
345,11330,0,0,8670
346,11344,0,0,8656
347,11368,0,0,8632
348,11389,0,0,8611
349,11400,0,0,8600
350,11427,0,0,8573
351,11444,0,0,8556
352,11481,0,0,8519
353,11497,0,0,8503
354,11515,0,0,8485
355,11521,0,0,8479
356,11527,0,0,8473
357,11548,0,0,8452
358,11561,0,0,8439
359,11568,0,0,8432
360,11590,0,0,8410
361,11614,0,0,8386
362,11637,0,0,8363
363,11647,0,0,8353
364,11669,0,0,8331
365,11699,0,0,8301
366,11713,0,0,8287
367,11729,0,0,8271
368,11745,0,0,8255
369,11765,0,0,8235
370,11780,0,0,8220
371,11804,0,0,8196
372,11820,0,0,8180
373,11846,0,0,8154
374,11865,0,0,8135
375,11886,0,0,8114
376,11917,0,0,8083
377,11942,0,0,8058
378,11956,0,0,8044
379,11983,0,0,8017
380,12005,0,0,7995
381,12022,0,0,7978
382,12040,0,0,7960
383,12049,0,0,7951
384,12056,0,0,7944
385,12067,0,0,7933
386,12091,0,0,7909
387,12109,0,0,7891
388,12115,0,0,7885
389,12124,0,0,7876
390,12136,0,0,7864
391,12157,0,0,7843
392,12170,0,0,7830
393,12179,0,0,7821
394,12193,0,0,7807
395,12209,0,0,7791
396,12232,0,0,7768
397,12264,0,0,7736
398,12277,0,0,7723
399,12283,0,0,7717
400,12293,0,0,7707
401,12302,0,0,7698
402,12317,0,0,7683
403,12326,0,0,7674
404,12336,0,0,7664
405,12346,0,0,7654
406,12360,0,0,7640
407,12367,0,0,7633
408,12378,0,0,7622
409,12397,0,0,7603
410,12408,0,0,7592
411,12421,0,0,7579
412,12438,0,0,7562
413,12449,0,0,7551
414,12459,0,0,7541
415,12462,0,0,7538
416,12470,0,0,7530
417,12472,0,0,7528
418,12476,0,0,7524
419,12484,0,0,7516
420,12497,0,0,7503
421,12524,0,0,7476
422,12545,0,0,7455
423,12551,0,0,7449
424,12566,0,0,7434
425,12587,0,0,7413
426,12593,0,0,7407
427,12605,0,0,7395
428,12621,0,0,7379
429,12632,0,0,7368
430,12644,0,0,7356
431,12661,0,0,7339
432,12687,0,0,7313
433,12721,0,0,7279
434,12740,0,0,7260
435,12779,0,0,7221
436,12810,0,0,7190
437,12840,0,0,7160
438,12866,0,0,7134
439,12880,0,0,7120
440,12897,0,0,7103
441,12919,0,0,7081
442,12961,0,0,7039
443,12979,0,0,7021
444,12996,0,0,7004
445,13019,0,0,6981
446,13033,0,0,6967
447,13066,0,0,6934
448,13094,0,0,6906
449,13125,0,0,6875
450,13145,0,0,6855
451,13173,0,0,6827
452,13202,0,0,6798
453,13222,0,0,6778
454,13244,0,0,6756
455,13268,0,0,6732
456,13289,0,0,6711
457,13314,0,0,6686
458,13329,0,0,6671
459,13341,0,0,6659
460,13355,0,0,6645
461,13387,0,0,6613
462,13405,0,0,6595
463,13427,0,0,6573
464,13445,0,0,6555
465,13461,0,0,6539
466,13483,0,0,6517
467,13519,0,0,6481
468,13534,0,0,6466
469,13563,0,0,6437
470,13586,0,0,6414
471,13608,0,0,6392
472,13624,0,0,6376
473,13647,0,0,6353
474,13675,0,0,6325
475,13685,0,0,6315
476,13712,0,0,6288
477,13736,0,0,6264
478,13763,0,0,6237
479,13775,0,0,6225
480,13794,0,0,6206
481,13807,0,0,6193
482,13824,0,0,6176
483,13837,0,0,6163
484,13854,0,0,6146
485,13873,0,0,6127
486,13896,0,0,6104
487,13922,0,0,6078
488,13949,0,0,6051
489,13969,0,0,6031
490,13989,0,0,6011
491,14027,0,0,5973
492,14066,0,0,5934
493,14115,0,0,5885
494,14136,0,0,5864
495,14154,0,0,5846
496,14182,0,0,5818
497,14215,0,0,5785
498,14250,0,0,5750
499,14272,0,0,5728
500,14289,0,0,5711
501,14305,0,0,5695
502,14325,0,0,5675
503,14354,0,0,5646
504,14381,0,0,5619
505,14409,0,0,5591
506,14432,0,0,5568
507,14445,0,0,5555
508,14465,0,0,5535
509,14477,0,0,5523
510,14485,0,0,5515
511,14498,0,0,5502
512,14515,0,0,5485
513,14531,0,0,5469
514,14545,0,0,5455
515,14547,0,0,5453
516,14554,0,0,5446
517,14568,0,0,5432
518,14571,0,0,5429
519,14574,0,0,5426
520,14588,0,0,5412
521,14602,0,0,5398
522,14609,0,0,5391
523,14619,0,0,5381
524,14630,0,0,5370
525,14632,0,0,5368
526,14646,0,0,5354
527,14652,0,0,5348
528,14671,0,0,5329
529,14673,0,0,5327
530,14692,0,0,5308
531,14705,0,0,5295
532,14713,0,0,5287
533,14729,0,0,5271
534,14748,0,0,5252
535,14762,0,0,5238
536,14771,0,0,5229
537,14811,0,0,5189
538,14821,0,0,5179
539,14844,0,0,5156
540,14857,0,0,5143
541,14879,0,0,5121
542,14904,0,0,5096
543,14924,0,0,5076
544,14937,0,0,5063
545,14958,0,0,5042
546,14975,0,0,5025
547,14988,0,0,5012
548,15032,0,0,4968
549,15050,0,0,4950
550,15074,0,0,4926
551,15090,0,0,4910
552,15107,0,0,4893
553,15122,0,0,4878
554,15137,0,0,4863
555,15153,0,0,4847
556,15173,0,0,4827
557,15191,0,0,4809
558,15204,0,0,4796
559,15215,0,0,4785
560,15231,0,0,4769
561,15244,0,0,4756
562,15256,0,0,4744
563,15265,0,0,4735
564,15279,0,0,4721
565,15284,0,0,4716
566,15288,0,0,4712
567,15291,0,0,4709
568,15296,0,0,4704
569,15308,0,0,4692
570,15318,0,0,4682
571,15326,0,0,4674
572,15338,0,0,4662
573,15348,0,0,4652
574,15351,0,0,4649
575,15363,0,0,4637
576,15377,0,0,4623
577,15385,0,0,4615
578,15388,0,0,4612
579,15409,0,0,4591
580,15417,0,0,4583
581,15432,0,0,4568
582,15445,0,0,4555
583,15452,0,0,4548
584,15461,0,0,4539
585,15477,0,0,4523
586,15489,0,0,4511
587,15511,0,0,4489
588,15530,0,0,4470
589,15542,0,0,4458
590,15547,0,0,4453
591,15565,0,0,4435
592,15579,0,0,4421
593,15590,0,0,4410
594,15611,0,0,4389
595,15630,0,0,4370
596,15653,0,0,4347
597,15670,0,0,4330
598,15684,0,0,4316
599,15707,0,0,4293
600,15717,0,0,4283
601,15742,0,0,4258
602,15752,0,0,4248
603,15765,0,0,4235
604,15781,0,0,4219
605,15801,0,0,4199
606,15810,0,0,4190
607,15826,0,0,4174
608,15836,0,0,4164
609,15862,0,0,4138
610,15869,0,0,4131
611,15885,0,0,4115
612,15893,0,0,4107
613,15905,0,0,4095
614,15920,0,0,4080
615,15939,0,0,4061
616,15953,0,0,4047
617,15966,0,0,4034
618,15983,0,0,4017
619,15997,0,0,4003
620,16006,0,0,3994
621,16027,0,0,3973
622,16038,0,0,3962
623,16043,0,0,3957
624,16060,0,0,3940
625,16080,0,0,3920
626,16089,0,0,3911
627,16105,0,0,3895
628,16121,0,0,3879
629,16128,0,0,3872
630,16143,0,0,3857
631,16160,0,0,3840
632,16167,0,0,3833
633,16176,0,0,3824
634,16188,0,0,3812
635,16200,0,0,3800
636,16209,0,0,3791
637,16218,0,0,3782
638,16225,0,0,3775
639,16233,0,0,3767
640,16239,0,0,3761
641,16241,0,0,3759
642,16248,0,0,3752
643,16249,0,0,3751
644,16249,0,0,3751
645,16256,0,0,3744
646,16260,0,0,3740
647,16260,0,0,3740
648,16261,0,0,3739
649,16265,0,0,3735
650,16265,0,0,3735
651,16268,0,0,3732
652,16274,0,0,3726
653,16279,0,0,3721
654,16280,0,0,3720
655,16283,0,0,3717
656,16284,0,0,3716
657,16288,0,0,3712
658,16293,0,0,3707
659,16296,0,0,3704
660,16311,0,0,3689
661,16319,0,0,3681
662,16324,0,0,3676
663,16329,0,0,3671
664,16335,0,0,3665
665,16342,0,0,3658
666,16344,0,0,3656
667,16355,0,0,3645
668,16367,0,0,3633
669,16374,0,0,3626
670,16378,0,0,3622
671,16386,0,0,3614
672,16399,0,0,3601
673,16411,0,0,3589
674,16423,0,0,3577
675,16433,0,0,3567
676,16441,0,0,3559
677,16448,0,0,3552
678,16456,0,0,3544
679,16474,0,0,3526
680,16479,0,0,3521
681,16486,0,0,3514
682,16495,0,0,3505
683,16507,0,0,3493
684,16512,0,0,3488
685,16527,0,0,3473
686,16532,0,0,3468
687,16547,0,0,3453
688,16554,0,0,3446
689,16561,0,0,3439
690,16567,0,0,3433
691,16580,0,0,3420
692,16598,0,0,3402
693,16616,0,0,3384
694,16637,0,0,3363
695,16658,0,0,3342
696,16670,0,0,3330
697,16685,0,0,3315
698,16704,0,0,3296
699,16716,0,0,3284
700,16732,0,0,3268
701,16759,0,0,3241
702,16768,0,0,3232
703,16780,0,0,3220
704,16787,0,0,3213
705,16802,0,0,3198
706,16814,0,0,3186
707,16827,0,0,3173
708,16833,0,0,3167
709,16841,0,0,3159
710,16856,0,0,3144
711,16858,0,0,3142
712,16865,0,0,3135
713,16871,0,0,3129
714,16874,0,0,3126
715,16876,0,0,3124
716,16881,0,0,3119
717,16888,0,0,3112
718,16896,0,0,3104
719,16898,0,0,3102
720,16900,0,0,3100
721,16900,0,0,3100
722,16900,0,0,3100
723,16905,0,0,3095
724,16910,0,0,3090
725,16911,0,0,3089
726,16912,0,0,3088
727,16916,0,0,3084
728,16917,0,0,3083
729,16927,0,0,3073
730,16929,0,0,3071
