Iteration,Susceptible,Exposed,Infected,Recovered
0,19980,0,20,0
1,19967,13,20,0
2,19948,26,26,0
3,19923,44,30,3
4,19898,57,38,7
5,19857,74,54,15
6,19825,87,64,24
7,19765,119,78,38
8,19706,144,91,59
9,19625,187,111,77
10,19521,236,150,93
11,19401,291,179,129
12,19269,354,210,167
13,19109,406,267,218
14,18879,522,320,279
15,18597,655,406,342
16,18260,828,497,415
17,17900,983,597,520
18,17456,1162,745,637
19,16843,1465,914,778
20,16147,1753,1133,967
21,15404,2022,1399,1175
22,14520,2370,1663,1447
23,13368,2809,2076,1747
24,12075,3306,2494,2125
25,11097,3323,2993,2587
26,9904,3627,3266,3203
27,8436,4131,3675,3758
28,7327,4065,4214,4394
29,6173,4137,4529,5161
30,5059,4032,4978,5931
31,4100,3791,5372,6737
32,3417,3446,5593,7544
33,2920,2955,5822,8303
34,2295,2803,5822,9080
35,1827,2426,6027,9720
36,1600,1990,5929,10481
37,1264,1776,5773,11187
38,1170,1466,5513,11851
39,1037,1307,5222,12434
40,816,1230,4906,13048
41,748,958,4690,13604
42,711,808,4296,14185
43,716,636,3984,14664
44,713,530,3674,15083
45,733,429,3477,15361
46,750,376,3251,15623
47,761,288,2986,15965
48,816,224,2677,16283
49,903,152,2465,16480
50,867,237,2226,16670
51,854,173,2153,16820
52,888,130,1943,17039
53,911,129,1725,17235
54,954,106,1596,17344
55,1034,75,1461,17430
56,1102,73,1328,17497
57,1137,75,1236,17552
58,1176,75,1163,17586
59,1199,76,1068,17657
60,1264,44,979,17713
61,1294,57,878,17771
62,1333,56,821,17790
63,1404,36,750,17810
64,1447,50,675,17828
65,1508,56,653,17783
66,1532,58,615,17795
67,1577,31,580,17812
68,1629,40,509,17822
69,1682,45,462,17811
70,1749,42,430,17779
71,1795,41,413,17751
72,1872,19,394,17715
73,1950,15,350,17685
74,2012,24,313,17651
75,2056,30,296,17618
76,2108,37,270,17585
77,2172,25,253,17550
78,2230,14,227,17529
79,2309,23,190,17478
80,2342,26,177,17455
81,2396,13,166,17425
82,2438,26,147,17389
83,2496,12,152,17340
84,2544,14,126,17316
85,2613,18,124,17245
86,2656,13,117,17214
87,2720,12,106,17162
88,2806,15,99,17080
89,2862,11,89,17038
90,2892,23,82,17003
91,2942,6,93,16959
92,2981,16,72,16931
93,3035,9,78,16878
94,3125,9,63,16803
95,3195,7,56,16742
96,3255,5,50,16690
97,3311,7,43,16639
98,3384,7,38,16571
99,3455,4,37,16504
100,3524,9,33,16434
101,3586,4,36,16374
102,3669,6,31,16294
103,3711,3,32,16254
104,3793,6,29,16172
105,3846,5,27,16122
106,3899,2,27,16072
107,3966,6,19,16009
108,4018,5,21,15956
109,4091,3,20,15886
110,4140,3,19,15838
111,4214,3,17,15766
112,4252,2,16,15730
113,4305,4,13,15678
114,4355,2,11,15632
115,4398,2,11,15589
116,4444,4,8,15544
117,4482,4,10,15504
118,4526,1,9,15464
119,4558,2,5,15435
120,4593,5,4,15398
121,4632,3,5,15360
122,4686,2,4,15308
123,4717,3,4,15276
124,4753,0,4,15243
125,4804,0,2,15194
126,4840,1,0,15159
127,4881,0,1,15118
128,4909,1,1,15089
129,4971,0,1,15028
130,5023,0,1,14976
131,5070,0,0,14930
132,5122,0,0,14878
133,5182,0,0,14818
134,5208,0,0,14792
135,5281,0,0,14719
136,5341,0,0,14659
137,5393,0,0,14607
138,5437,0,0,14563
139,5486,0,0,14514
140,5524,0,0,14476
141,5548,0,0,14452
142,5575,0,0,14425
143,5618,0,0,14382
144,5658,0,0,14342
145,5689,0,0,14311
146,5716,0,0,14284
147,5742,0,0,14258
148,5764,0,0,14236
149,5816,0,0,14184
150,5843,0,0,14157
151,5875,0,0,14125
152,5930,0,0,14070
153,5952,0,0,14048
154,5978,0,0,14022
155,6007,0,0,13993
156,6042,0,0,13958
157,6085,0,0,13915
158,6123,0,0,13877
159,6143,0,0,13857
160,6183,0,0,13817
161,6235,0,0,13765
162,6279,0,0,13721
163,6318,0,0,13682
164,6341,0,0,13659
165,6374,0,0,13626
166,6415,0,0,13585
167,6470,0,0,13530
168,6518,0,0,13482
169,6562,0,0,13438
170,6621,0,0,13379
171,6664,0,0,13336
172,6708,0,0,13292
173,6729,0,0,13271
174,6768,0,0,13232
175,6788,0,0,13212
176,6827,0,0,13173
177,6864,0,0,13136
178,6889,0,0,13111
179,6910,0,0,13090
180,6936,0,0,13064
181,6968,0,0,13032
182,6989,0,0,13011
183,7026,0,0,12974
184,7060,0,0,12940
185,7097,0,0,12903
186,7120,0,0,12880
187,7147,0,0,12853
188,7173,0,0,12827
189,7205,0,0,12795
190,7241,0,0,12759
191,7269,0,0,12731
192,7307,0,0,12693
193,7333,0,0,12667
194,7365,0,0,12635
195,7387,0,0,12613
196,7412,0,0,12588
197,7436,0,0,12564
198,7465,0,0,12535
199,7508,0,0,12492
200,7523,0,0,12477
201,7559,0,0,12441
202,7594,0,0,12406
203,7612,0,0,12388
204,7639,0,0,12361
205,7669,0,0,12331
206,7708,0,0,12292
207,7745,0,0,12255
208,7776,0,0,12224
209,7813,0,0,12187
210,7849,0,0,12151
211,7878,0,0,12122
212,7909,0,0,12091
213,7944,0,0,12056
214,7984,0,0,12016
215,8017,0,0,11983
216,8060,0,0,11940
217,8090,0,0,11910
218,8124,0,0,11876
219,8159,0,0,11841
220,8197,0,0,11803
221,8221,0,0,11779
222,8254,0,0,11746
223,8287,0,0,11713
224,8313,0,0,11687
225,8346,0,0,11654
226,8383,0,0,11617
227,8398,0,0,11602
228,8446,0,0,11554
229,8483,0,0,11517
230,8518,0,0,11482
231,8542,0,0,11458
232,8564,0,0,11436
233,8580,0,0,11420
234,8594,0,0,11406
235,8626,0,0,11374
236,8641,0,0,11359
237,8656,0,0,11344
238,8671,0,0,11329
239,8687,0,0,11313
240,8694,0,0,11306
241,8709,0,0,11291
242,8723,0,0,11277
243,8736,0,0,11264
244,8743,0,0,11257
245,8761,0,0,11239
246,8774,0,0,11226
247,8783,0,0,11217
248,8795,0,0,11205
249,8802,0,0,11198
250,8820,0,0,11180
251,8840,0,0,11160
252,8859,0,0,11141
253,8879,0,0,11121
254,8900,0,0,11100
255,8919,0,0,11081
256,8936,0,0,11064
257,8963,0,0,11037
258,8989,0,0,11011
259,9020,0,0,10980
260,9067,0,0,10933
261,9082,0,0,10918
262,9109,0,0,10891
263,9136,0,0,10864
264,9183,0,0,10817
265,9202,0,0,10798
266,9228,0,0,10772
267,9271,0,0,10729
268,9300,0,0,10700
269,9333,0,0,10667
270,9377,0,0,10623
271,9435,0,0,10565
272,9465,0,0,10535
273,9518,0,0,10482
274,9547,0,0,10453
275,9593,0,0,10407
276,9629,0,0,10371
277,9664,0,0,10336
278,9704,0,0,10296
279,9729,0,0,10271
280,9775,0,0,10225
281,9822,0,0,10178
282,9855,0,0,10145
283,9877,0,0,10123
284,9893,0,0,10107
285,9920,0,0,10080
286,9957,0,0,10043
287,9985,0,0,10015
288,10018,0,0,9982
289,10047,0,0,9953
290,10064,0,0,9936
291,10089,0,0,9911
292,10113,0,0,9887
293,10141,0,0,9859
294,10172,0,0,9828
295,10200,0,0,9800
296,10241,0,0,9759
297,10260,0,0,9740
298,10307,0,0,9693
299,10325,0,0,9675
300,10366,0,0,9634
301,10392,0,0,9608
302,10407,0,0,9593
303,10438,0,0,9562
304,10448,0,0,9552
305,10473,0,0,9527
306,10494,0,0,9506
307,10505,0,0,9495
308,10524,0,0,9476
309,10546,0,0,9454
310,10558,0,0,9442
311,10566,0,0,9434
312,10569,0,0,9431
313,10581,0,0,9419
314,10599,0,0,9401
315,10611,0,0,9389
316,10624,0,0,9376
317,10634,0,0,9366
318,10646,0,0,9354
319,10658,0,0,9342
320,10670,0,0,9330
321,10679,0,0,9321
322,10697,0,0,9303
323,10710,0,0,9290
324,10723,0,0,9277
325,10748,0,0,9252
326,10760,0,0,9240
327,10781,0,0,9219
328,10797,0,0,9203
329,10823,0,0,9177
330,10849,0,0,9151
331,10874,0,0,9126
332,10897,0,0,9103
333,10909,0,0,9091
334,10929,0,0,9071
335,10944,0,0,9056
336,10962,0,0,9038
337,10991,0,0,9009
338,11018,0,0,8982
339,11031,0,0,8969
340,11054,0,0,8946
341,11077,0,0,8923
342,11086,0,0,8914
343,11117,0,0,8883
344,11135,0,0,8865
345,11165,0,0,8835
346,11189,0,0,8811
347,11230,0,0,8770
348,11265,0,0,8735
349,11290,0,0,8710
350,11327,0,0,8673
351,11355,0,0,8645
352,11371,0,0,8629
353,11415,0,0,8585
354,11438,0,0,8562
355,11466,0,0,8534
356,11485,0,0,8515
357,11500,0,0,8500
358,11539,0,0,8461
359,11559,0,0,8441
360,11583,0,0,8417
361,11609,0,0,8391
362,11624,0,0,8376
363,11649,0,0,8351
364,11664,0,0,8336
365,11688,0,0,8312
366,11715,0,0,8285
367,11732,0,0,8268
368,11757,0,0,8243
369,11785,0,0,8215
370,11813,0,0,8187
371,11831,0,0,8169
372,11861,0,0,8139
373,11892,0,0,8108
374,11911,0,0,8089
375,11933,0,0,8067
376,11952,0,0,8048
377,11970,0,0,8030
378,11986,0,0,8014
379,12002,0,0,7998
380,12023,0,0,7977
381,12044,0,0,7956
382,12050,0,0,7950
383,12071,0,0,7929
384,12090,0,0,7910
385,12108,0,0,7892
386,12132,0,0,7868
387,12155,0,0,7845
388,12160,0,0,7840
389,12167,0,0,7833
390,12187,0,0,7813
391,12203,0,0,7797
392,12233,0,0,7767
393,12246,0,0,7754
394,12264,0,0,7736
395,12289,0,0,7711
396,12312,0,0,7688
397,12326,0,0,7674
398,12340,0,0,7660
399,12360,0,0,7640
400,12386,0,0,7614
401,12402,0,0,7598
402,12422,0,0,7578
403,12439,0,0,7561
404,12454,0,0,7546
405,12485,0,0,7515
406,12495,0,0,7505
407,12517,0,0,7483
408,12528,0,0,7472
409,12539,0,0,7461
410,12563,0,0,7437
411,12580,0,0,7420
412,12604,0,0,7396
413,12622,0,0,7378
414,12629,0,0,7371
415,12652,0,0,7348
416,12667,0,0,7333
417,12686,0,0,7314
418,12714,0,0,7286
419,12728,0,0,7272
420,12758,0,0,7242
421,12766,0,0,7234
422,12781,0,0,7219
423,12793,0,0,7207
424,12819,0,0,7181
425,12845,0,0,7155
426,12869,0,0,7131
427,12888,0,0,7112
428,12904,0,0,7096
429,12925,0,0,7075
430,12946,0,0,7054
431,12950,0,0,7050
432,12984,0,0,7016
433,13019,0,0,6981
434,13059,0,0,6941
435,13079,0,0,6921
436,13095,0,0,6905
437,13109,0,0,6891
438,13122,0,0,6878
439,13139,0,0,6861
440,13160,0,0,6840
441,13185,0,0,6815
442,13200,0,0,6800
443,13230,0,0,6770
444,13244,0,0,6756
445,13260,0,0,6740
446,13284,0,0,6716
447,13302,0,0,6698
448,13319,0,0,6681
449,13340,0,0,6660
450,13365,0,0,6635
451,13372,0,0,6628
452,13382,0,0,6618
453,13395,0,0,6605
454,13406,0,0,6594
455,13414,0,0,6586
456,13419,0,0,6581
457,13428,0,0,6572
458,13442,0,0,6558
459,13446,0,0,6554
460,13452,0,0,6548
461,13458,0,0,6542
462,13477,0,0,6523
463,13495,0,0,6505
464,13508,0,0,6492
465,13533,0,0,6467
466,13553,0,0,6447
467,13570,0,0,6430
468,13581,0,0,6419
469,13595,0,0,6405
470,13614,0,0,6386
471,13636,0,0,6364
472,13659,0,0,6341
473,13676,0,0,6324
474,13696,0,0,6304
475,13724,0,0,6276
476,13752,0,0,6248
477,13769,0,0,6231
478,13797,0,0,6203
479,13823,0,0,6177
480,13845,0,0,6155
481,13889,0,0,6111
482,13917,0,0,6083
483,13938,0,0,6062
484,13959,0,0,6041
485,13979,0,0,6021
486,14000,0,0,6000
487,14023,0,0,5977
488,14044,0,0,5956
489,14072,0,0,5928
490,14105,0,0,5895
491,14134,0,0,5866
492,14165,0,0,5835
493,14186,0,0,5814
494,14217,0,0,5783
495,14236,0,0,5764
496,14262,0,0,5738
497,14286,0,0,5714
498,14311,0,0,5689
499,14333,0,0,5667
500,14346,0,0,5654
501,14385,0,0,5615
502,14394,0,0,5606
503,14427,0,0,5573
504,14449,0,0,5551
505,14471,0,0,5529
506,14499,0,0,5501
507,14516,0,0,5484
508,14538,0,0,5462
509,14546,0,0,5454
510,14557,0,0,5443
511,14580,0,0,5420
512,14593,0,0,5407
513,14604,0,0,5396
514,14633,0,0,5367
515,14655,0,0,5345
516,14673,0,0,5327
517,14697,0,0,5303
518,14719,0,0,5281
519,14740,0,0,5260
520,14755,0,0,5245
521,14777,0,0,5223
522,14800,0,0,5200
523,14809,0,0,5191
524,14823,0,0,5177
525,14833,0,0,5167
526,14854,0,0,5146
527,14870,0,0,5130
528,14880,0,0,5120
529,14898,0,0,5102
530,14918,0,0,5082
531,14935,0,0,5065
532,14954,0,0,5046
533,14963,0,0,5037
534,14968,0,0,5032
535,14994,0,0,5006
536,15005,0,0,4995
537,15013,0,0,4987
538,15019,0,0,4981
539,15035,0,0,4965
540,15041,0,0,4959
541,15063,0,0,4937
542,15074,0,0,4926
543,15083,0,0,4917
544,15091,0,0,4909
545,15109,0,0,4891
546,15128,0,0,4872
547,15141,0,0,4859
548,15148,0,0,4852
549,15158,0,0,4842
550,15174,0,0,4826
551,15180,0,0,4820
552,15188,0,0,4812
553,15195,0,0,4805
554,15199,0,0,4801
555,15201,0,0,4799
556,15212,0,0,4788
557,15220,0,0,4780
558,15225,0,0,4775
559,15236,0,0,4764
560,15246,0,0,4754
561,15255,0,0,4745
562,15272,0,0,4728
563,15287,0,0,4713
564,15293,0,0,4707
565,15297,0,0,4703
566,15303,0,0,4697
567,15313,0,0,4687
568,15324,0,0,4676
569,15334,0,0,4666
570,15340,0,0,4660
571,15349,0,0,4651
572,15361,0,0,4639
573,15371,0,0,4629
574,15383,0,0,4617
575,15391,0,0,4609
576,15398,0,0,4602
577,15425,0,0,4575
578,15431,0,0,4569
579,15450,0,0,4550
580,15474,0,0,4526
581,15492,0,0,4508
582,15504,0,0,4496
583,15517,0,0,4483
584,15520,0,0,4480
585,15538,0,0,4462
586,15550,0,0,4450
587,15572,0,0,4428
588,15594,0,0,4406
589,15605,0,0,4395
590,15622,0,0,4378
591,15638,0,0,4362
592,15655,0,0,4345
593,15671,0,0,4329
594,15689,0,0,4311
595,15711,0,0,4289
596,15725,0,0,4275
597,15729,0,0,4271
598,15746,0,0,4254
599,15770,0,0,4230
600,15783,0,0,4217
601,15789,0,0,4211
602,15803,0,0,4197
603,15812,0,0,4188
604,15837,0,0,4163
605,15854,0,0,4146
606,15858,0,0,4142
607,15863,0,0,4137
608,15870,0,0,4130
609,15878,0,0,4122
610,15882,0,0,4118
611,15898,0,0,4102
612,15912,0,0,4088
613,15923,0,0,4077
614,15929,0,0,4071
615,15944,0,0,4056
616,15949,0,0,4051
617,15954,0,0,4046
618,15963,0,0,4037
619,15966,0,0,4034
620,15969,0,0,4031
621,15973,0,0,4027
622,15977,0,0,4023
623,15989,0,0,4011
624,15996,0,0,4004
625,16003,0,0,3997
626,16013,0,0,3987
627,16018,0,0,3982
628,16022,0,0,3978
629,16026,0,0,3974
630,16033,0,0,3967
631,16049,0,0,3951
632,16053,0,0,3947
633,16059,0,0,3941
634,16064,0,0,3936
635,16065,0,0,3935
636,16079,0,0,3921
637,16089,0,0,3911
638,16101,0,0,3899
639,16106,0,0,3894
640,16108,0,0,3892
641,16124,0,0,3876
642,16125,0,0,3875
643,16139,0,0,3861
644,16144,0,0,3856
645,16148,0,0,3852
646,16157,0,0,3843
647,16162,0,0,3838
648,16167,0,0,3833
649,16181,0,0,3819
650,16188,0,0,3812
651,16196,0,0,3804
652,16201,0,0,3799
653,16219,0,0,3781
654,16247,0,0,3753
655,16264,0,0,3736
656,16279,0,0,3721
657,16300,0,0,3700
658,16307,0,0,3693
659,16322,0,0,3678
660,16342,0,0,3658
661,16353,0,0,3647
662,16365,0,0,3635
663,16388,0,0,3612
664,16400,0,0,3600
665,16402,0,0,3598
666,16406,0,0,3594
667,16422,0,0,3578
668,16432,0,0,3568
669,16452,0,0,3548
670,16464,0,0,3536
671,16472,0,0,3528
672,16482,0,0,3518
673,16494,0,0,3506
674,16503,0,0,3497
675,16509,0,0,3491
676,16516,0,0,3484
677,16522,0,0,3478
678,16531,0,0,3469
679,16541,0,0,3459
680,16566,0,0,3434
681,16585,0,0,3415
682,16586,0,0,3414
683,16594,0,0,3406
684,16606,0,0,3394
685,16620,0,0,3380
686,16630,0,0,3370
687,16640,0,0,3360
688,16653,0,0,3347
689,16658,0,0,3342
690,16666,0,0,3334
691,16674,0,0,3326
692,16683,0,0,3317
693,16685,0,0,3315
694,16695,0,0,3305
695,16702,0,0,3298
696,16704,0,0,3296
697,16714,0,0,3286
698,16721,0,0,3279
699,16746,0,0,3254
700,16759,0,0,3241
701,16775,0,0,3225
702,16796,0,0,3204
703,16811,0,0,3189
704,16825,0,0,3175
705,16836,0,0,3164
706,16860,0,0,3140
707,16870,0,0,3130
708,16876,0,0,3124
709,16899,0,0,3101
710,16916,0,0,3084
711,16928,0,0,3072
712,16945,0,0,3055
713,16955,0,0,3045
714,16970,0,0,3030
715,16980,0,0,3020
716,16982,0,0,3018
717,16991,0,0,3009
718,17002,0,0,2998
719,17010,0,0,2990
720,17014,0,0,2986
721,17023,0,0,2977
722,17030,0,0,2970
723,17039,0,0,2961
724,17047,0,0,2953
725,17051,0,0,2949
726,17057,0,0,2943
727,17063,0,0,2937
728,17074,0,0,2926
729,17084,0,0,2916
730,17090,0,0,2910
