Iteration,Susceptible,Exposed,Infected,Recovered
0,19980,0,20,0
1,19963,17,20,0
2,19948,27,22,3
3,19928,42,26,4
4,19895,66,30,9
5,19884,61,25,30
6,19852,71,40,37
7,19820,84,50,46
8,19787,92,69,52
9,19726,126,83,65
10,19655,152,112,81
11,19569,205,119,107
12,19477,242,148,133
13,19346,286,202,166
14,19143,399,250,208
15,18904,523,313,260
16,18669,635,364,332
17,18362,794,429,415
18,17982,948,581,489
19,17558,1079,741,622
20,17000,1308,927,765
21,16338,1651,1091,920
22,15510,2011,1341,1138
23,14722,2254,1594,1430
24,13810,2495,1976,1719
25,12870,2778,2262,2090
26,11798,3135,2505,2562
27,10624,3436,2886,3054
28,9343,3846,3248,3563
29,8154,3966,3797,4083
30,6918,4003,4412,4667
31,5840,3996,4779,5385
32,4814,3988,5003,6195
33,4000,3700,5310,6990
34,3364,3385,5508,7743
35,2931,2837,5788,8444
36,2342,2610,5768,9280
37,2001,2304,5725,9970
38,1612,2069,5676,10643
39,1408,1774,5495,11323
40,1257,1433,5389,11921
41,1120,1200,5123,12557
42,982,1036,4851,13131
43,865,922,4618,13595
44,896,718,4334,14052
45,836,633,3985,14546
46,829,546,3752,14873
47,878,452,3461,15209
48,871,398,3184,15547
49,895,325,2959,15821
50,850,295,2743,16112
51,820,251,2574,16355
52,845,182,2383,16590
53,870,142,2151,16837
54,908,117,1986,16989
55,953,105,1802,17140
56,1017,78,1659,17246
57,1031,126,1502,17341
58,1084,84,1428,17404
59,1116,91,1280,17513
60,1160,106,1186,17548
61,1240,57,1119,17584
62,1277,76,998,17649
63,1310,70,918,17702
64,1389,58,853,17700
65,1442,35,759,17764
66,1492,61,684,17763
67,1538,43,650,17769
68,1573,74,595,17758
69,1610,50,571,17769
70,1622,59,508,17811
71,1670,37,474,17819
72,1717,52,416,17815
73,1810,17,393,17780
74,1857,47,337,17759
75,1937,20,345,17698
76,1984,27,293,17696
77,2059,18,276,17647
78,2119,17,245,17619
79,2150,25,221,17604
80,2197,20,219,17564
81,2254,21,197,17528
82,2328,17,170,17485
83,2397,20,162,17421
84,2458,15,143,17384
85,2545,12,128,17315
86,2621,15,112,17252
87,2712,7,101,17180
88,2789,7,78,17126
89,2846,6,62,17086
90,2911,3,54,17032
91,2966,7,43,16984
92,3032,2,40,16926
93,3109,2,36,16853
94,3174,2,28,16796
95,3243,4,26,16727
96,3311,3,26,16660
97,3371,3,21,16605
98,3441,2,18,16539
99,3511,2,17,16470
100,3568,5,17,16410
101,3632,5,18,16345
102,3696,3,19,16282
103,3737,4,13,16246
104,3788,4,13,16195
105,3845,3,15,16137
106,3907,0,11,16082
107,3982,2,9,16007
108,4057,2,9,15932
109,4114,0,7,15879
110,4165,3,4,15828
111,4217,1,5,15777
112,4257,0,4,15739
113,4289,0,0,15711
114,4350,0,0,15650
115,4398,0,0,15602
116,4448,0,0,15552
117,4499,0,0,15501
118,4554,0,0,15446
119,4621,0,0,15379
120,4674,0,0,15326
121,4713,0,0,15287
122,4770,0,0,15230
123,4816,0,0,15184
124,4871,0,0,15129
125,4927,0,0,15073
126,5001,0,0,14999
127,5053,0,0,14947
128,5093,0,0,14907
129,5131,0,0,14869
130,5170,0,0,14830
131,5197,0,0,14803
132,5236,0,0,14764
133,5274,0,0,14726
134,5314,0,0,14686
135,5360,0,0,14640
136,5407,0,0,14593
137,5447,0,0,14553
138,5503,0,0,14497
139,5531,0,0,14469
140,5573,0,0,14427
141,5606,0,0,14394
142,5647,0,0,14353
143,5700,0,0,14300
144,5728,0,0,14272
145,5770,0,0,14230
146,5806,0,0,14194
147,5835,0,0,14165
148,5874,0,0,14126
149,5908,0,0,14092
150,5940,0,0,14060
151,5981,0,0,14019
152,6005,0,0,13995
153,6063,0,0,13937
154,6095,0,0,13905
155,6151,0,0,13849
156,6192,0,0,13808
157,6241,0,0,13759
158,6289,0,0,13711
159,6328,0,0,13672
160,6356,0,0,13644
161,6411,0,0,13589
162,6448,0,0,13552
163,6495,0,0,13505
164,6527,0,0,13473
165,6573,0,0,13427
166,6614,0,0,13386
167,6651,0,0,13349
168,6687,0,0,13313
169,6718,0,0,13282
170,6747,0,0,13253
171,6772,0,0,13228
172,6783,0,0,13217
173,6808,0,0,13192
174,6826,0,0,13174
175,6832,0,0,13168
176,6856,0,0,13144
177,6888,0,0,13112
178,6907,0,0,13093
179,6917,0,0,13083
180,6936,0,0,13064
181,6947,0,0,13053
182,6967,0,0,13033
183,6985,0,0,13015
184,7002,0,0,12998
185,7026,0,0,12974
186,7048,0,0,12952
187,7073,0,0,12927
188,7090,0,0,12910
189,7118,0,0,12882
190,7139,0,0,12861
191,7162,0,0,12838
192,7191,0,0,12809
193,7208,0,0,12792
194,7237,0,0,12763
195,7263,0,0,12737
196,7295,0,0,12705
197,7322,0,0,12678
198,7336,0,0,12664
199,7358,0,0,12642
200,7404,0,0,12596
201,7417,0,0,12583
202,7443,0,0,12557
203,7463,0,0,12537
204,7481,0,0,12519
205,7517,0,0,12483
206,7550,0,0,12450
207,7571,0,0,12429
208,7592,0,0,12408
209,7614,0,0,12386
210,7648,0,0,12352
211,7671,0,0,12329
212,7709,0,0,12291
213,7729,0,0,12271
214,7746,0,0,12254
215,7773,0,0,12227
216,7795,0,0,12205
217,7819,0,0,12181
218,7843,0,0,12157
219,7870,0,0,12130
220,7902,0,0,12098
221,7932,0,0,12068
222,7965,0,0,12035
223,8000,0,0,12000
224,8039,0,0,11961
225,8082,0,0,11918
226,8111,0,0,11889
227,8147,0,0,11853
228,8170,0,0,11830
229,8204,0,0,11796
230,8245,0,0,11755
231,8285,0,0,11715
232,8319,0,0,11681
233,8357,0,0,11643
234,8395,0,0,11605
235,8452,0,0,11548
236,8503,0,0,11497
237,8524,0,0,11476
238,8552,0,0,11448
239,8583,0,0,11417
240,8614,0,0,11386
241,8661,0,0,11339
242,8705,0,0,11295
243,8743,0,0,11257
244,8768,0,0,11232
245,8799,0,0,11201
246,8837,0,0,11163
247,8873,0,0,11127
248,8892,0,0,11108
249,8932,0,0,11068
250,8978,0,0,11022
251,9009,0,0,10991
252,9048,0,0,10952
253,9067,0,0,10933
254,9095,0,0,10905
255,9135,0,0,10865
256,9168,0,0,10832
257,9212,0,0,10788
258,9259,0,0,10741
259,9299,0,0,10701
260,9340,0,0,10660
261,9379,0,0,10621
262,9410,0,0,10590
263,9439,0,0,10561
264,9480,0,0,10520
265,9530,0,0,10470
266,9568,0,0,10432
267,9590,0,0,10410
268,9615,0,0,10385
269,9649,0,0,10351
270,9673,0,0,10327
271,9690,0,0,10310
272,9717,0,0,10283
273,9756,0,0,10244
274,9773,0,0,10227
275,9794,0,0,10206
276,9811,0,0,10189
277,9837,0,0,10163
278,9853,0,0,10147
279,9887,0,0,10113
280,9900,0,0,10100
281,9922,0,0,10078
282,9958,0,0,10042
283,9979,0,0,10021
284,10016,0,0,9984
285,10059,0,0,9941
286,10099,0,0,9901
287,10114,0,0,9886
288,10142,0,0,9858
289,10191,0,0,9809
290,10222,0,0,9778
291,10257,0,0,9743
292,10293,0,0,9707
293,10319,0,0,9681
294,10335,0,0,9665
295,10340,0,0,9660
296,10351,0,0,9649
297,10377,0,0,9623
298,10395,0,0,9605
299,10405,0,0,9595
300,10417,0,0,9583
301,10437,0,0,9563
302,10458,0,0,9542
303,10469,0,0,9531
304,10496,0,0,9504
305,10511,0,0,9489
306,10531,0,0,9469
307,10546,0,0,9454
308,10586,0,0,9414
309,10604,0,0,9396
310,10622,0,0,9378
311,10655,0,0,9345
312,10693,0,0,9307
313,10719,0,0,9281
314,10753,0,0,9247
315,10783,0,0,9217
316,10819,0,0,9181
317,10853,0,0,9147
318,10896,0,0,9104
319,10931,0,0,9069
320,10968,0,0,9032
321,10984,0,0,9016
322,11010,0,0,8990
323,11035,0,0,8965
324,11052,0,0,8948
325,11077,0,0,8923
326,11108,0,0,8892
327,11124,0,0,8876
328,11140,0,0,8860
329,11156,0,0,8844
330,11168,0,0,8832
331,11189,0,0,8811
332,11215,0,0,8785
333,11235,0,0,8765
334,11259,0,0,8741
335,11282,0,0,8718
336,11295,0,0,8705
337,11320,0,0,8680
338,11335,0,0,8665
339,11352,0,0,8648
340,11378,0,0,8622
341,11405,0,0,8595
342,11423,0,0,8577
343,11437,0,0,8563
344,11458,0,0,8542
345,11472,0,0,8528
346,11489,0,0,8511
347,11498,0,0,8502
348,11523,0,0,8477
349,11555,0,0,8445
350,11574,0,0,8426
351,11594,0,0,8406
352,11607,0,0,8393
353,11628,0,0,8372
354,11643,0,0,8357
355,11662,0,0,8338
356,11689,0,0,8311
357,11720,0,0,8280
358,11744,0,0,8256
359,11768,0,0,8232
360,11796,0,0,8204
361,11823,0,0,8177
362,11838,0,0,8162
363,11860,0,0,8140
364,11880,0,0,8120
365,11903,0,0,8097
366,11927,0,0,8073
367,11944,0,0,8056
368,11960,0,0,8040
369,11994,0,0,8006
370,12019,0,0,7981
371,12034,0,0,7966
372,12047,0,0,7953
373,12067,0,0,7933
374,12100,0,0,7900
375,12113,0,0,7887
376,12127,0,0,7873
377,12150,0,0,7850
378,12191,0,0,7809
379,12221,0,0,7779
380,12231,0,0,7769
381,12254,0,0,7746
382,12278,0,0,7722
383,12290,0,0,7710
384,12315,0,0,7685
385,12343,0,0,7657
386,12361,0,0,7639
387,12377,0,0,7623
388,12387,0,0,7613
389,12396,0,0,7604
390,12408,0,0,7592
391,12425,0,0,7575
392,12442,0,0,7558
393,12458,0,0,7542
394,12467,0,0,7533
395,12483,0,0,7517
396,12488,0,0,7512
397,12505,0,0,7495
398,12514,0,0,7486
399,12533,0,0,7467
400,12549,0,0,7451
401,12556,0,0,7444
402,12562,0,0,7438
403,12568,0,0,7432
404,12573,0,0,7427
405,12586,0,0,7414
406,12604,0,0,7396
407,12626,0,0,7374
408,12644,0,0,7356
409,12666,0,0,7334
410,12679,0,0,7321
411,12702,0,0,7298
412,12737,0,0,7263
413,12775,0,0,7225
414,12787,0,0,7213
415,12814,0,0,7186
416,12836,0,0,7164
417,12859,0,0,7141
418,12887,0,0,7113
419,12905,0,0,7095
420,12933,0,0,7067
421,12961,0,0,7039
422,12972,0,0,7028
423,12994,0,0,7006
424,13018,0,0,6982
425,13042,0,0,6958
426,13087,0,0,6913
427,13105,0,0,6895
428,13136,0,0,6864
429,13170,0,0,6830
430,13200,0,0,6800
431,13228,0,0,6772
432,13249,0,0,6751
433,13271,0,0,6729
434,13287,0,0,6713
435,13308,0,0,6692
436,13343,0,0,6657
437,13363,0,0,6637
438,13391,0,0,6609
439,13413,0,0,6587
440,13423,0,0,6577
441,13443,0,0,6557
442,13457,0,0,6543
443,13469,0,0,6531
444,13490,0,0,6510
445,13497,0,0,6503
446,13524,0,0,6476
447,13538,0,0,6462
448,13547,0,0,6453
449,13570,0,0,6430
450,13582,0,0,6418
451,13598,0,0,6402
452,13608,0,0,6392
453,13623,0,0,6377
454,13650,0,0,6350
455,13666,0,0,6334
456,13689,0,0,6311
457,13702,0,0,6298
458,13711,0,0,6289
459,13728,0,0,6272
460,13738,0,0,6262
461,13743,0,0,6257
462,13760,0,0,6240
463,13764,0,0,6236
464,13766,0,0,6234
465,13772,0,0,6228
466,13784,0,0,6216
467,13803,0,0,6197
468,13812,0,0,6188
469,13837,0,0,6163
470,13859,0,0,6141
471,13869,0,0,6131
472,13882,0,0,6118
473,13891,0,0,6109
474,13898,0,0,6102
475,13911,0,0,6089
476,13918,0,0,6082
477,13931,0,0,6069
478,13943,0,0,6057
479,13956,0,0,6044
480,13973,0,0,6027
481,13985,0,0,6015
482,13991,0,0,6009
483,13997,0,0,6003
484,14010,0,0,5990
485,14025,0,0,5975
486,14036,0,0,5964
487,14051,0,0,5949
488,14065,0,0,5935
489,14082,0,0,5918
490,14093,0,0,5907
491,14094,0,0,5906
492,14115,0,0,5885
493,14134,0,0,5866
494,14138,0,0,5862
495,14144,0,0,5856
496,14156,0,0,5844
497,14176,0,0,5824
498,14186,0,0,5814
499,14200,0,0,5800
500,14214,0,0,5786
501,14237,0,0,5763
502,14248,0,0,5752
503,14250,0,0,5750
504,14265,0,0,5735
505,14272,0,0,5728
506,14292,0,0,5708
507,14305,0,0,5695
508,14324,0,0,5676
509,14343,0,0,5657
510,14354,0,0,5646
511,14368,0,0,5632
512,14390,0,0,5610
513,14400,0,0,5600
514,14414,0,0,5586
515,14427,0,0,5573
516,14453,0,0,5547
517,14483,0,0,5517
518,14513,0,0,5487
519,14523,0,0,5477
520,14543,0,0,5457
521,14563,0,0,5437
522,14572,0,0,5428
523,14583,0,0,5417
524,14596,0,0,5404
525,14611,0,0,5389
526,14617,0,0,5383
527,14632,0,0,5368
528,14638,0,0,5362
529,14644,0,0,5356
530,14648,0,0,5352
531,14661,0,0,5339
532,14672,0,0,5328
533,14691,0,0,5309
534,14702,0,0,5298
535,14712,0,0,5288
536,14721,0,0,5279
537,14726,0,0,5274
538,14743,0,0,5257
539,14752,0,0,5248
540,14769,0,0,5231
541,14773,0,0,5227
542,14784,0,0,5216
543,14793,0,0,5207
544,14813,0,0,5187
545,14827,0,0,5173
546,14835,0,0,5165
547,14850,0,0,5150
548,14865,0,0,5135
549,14878,0,0,5122
550,14882,0,0,5118
551,14896,0,0,5104
552,14906,0,0,5094
553,14918,0,0,5082
554,14919,0,0,5081
555,14921,0,0,5079
556,14941,0,0,5059
557,14959,0,0,5041
558,14968,0,0,5032
559,14974,0,0,5026
560,14979,0,0,5021
561,15004,0,0,4996
562,15018,0,0,4982
563,15033,0,0,4967
564,15047,0,0,4953
565,15063,0,0,4937
566,15083,0,0,4917
567,15091,0,0,4909
568,15103,0,0,4897
569,15112,0,0,4888
570,15129,0,0,4871
571,15138,0,0,4862
572,15154,0,0,4846
573,15170,0,0,4830
574,15184,0,0,4816
575,15198,0,0,4802
576,15212,0,0,4788
577,15235,0,0,4765
578,15249,0,0,4751
579,15261,0,0,4739
580,15276,0,0,4724
581,15294,0,0,4706
582,15303,0,0,4697
583,15320,0,0,4680
584,15332,0,0,4668
585,15350,0,0,4650
586,15363,0,0,4637
587,15383,0,0,4617
588,15406,0,0,4594
589,15429,0,0,4571
590,15439,0,0,4561
591,15464,0,0,4536
592,15473,0,0,4527
593,15487,0,0,4513
594,15498,0,0,4502
595,15509,0,0,4491
596,15528,0,0,4472
597,15533,0,0,4467
598,15544,0,0,4456
599,15557,0,0,4443
600,15561,0,0,4439
601,15577,0,0,4423
602,15588,0,0,4412
603,15597,0,0,4403
604,15600,0,0,4400
605,15618,0,0,4382
606,15629,0,0,4371
607,15650,0,0,4350
608,15666,0,0,4334
609,15683,0,0,4317
610,15692,0,0,4308
611,15700,0,0,4300
612,15708,0,0,4292
613,15709,0,0,4291
614,15719,0,0,4281
615,15727,0,0,4273
616,15733,0,0,4267
617,15737,0,0,4263
618,15743,0,0,4257
619,15750,0,0,4250
620,15768,0,0,4232
621,15788,0,0,4212
622,15799,0,0,4201
623,15804,0,0,4196
624,15816,0,0,4184
625,15820,0,0,4180
626,15822,0,0,4178
627,15833,0,0,4167
628,15842,0,0,4158
629,15848,0,0,4152
630,15858,0,0,4142
631,15863,0,0,4137
632,15866,0,0,4134
633,15868,0,0,4132
634,15879,0,0,4121
635,15884,0,0,4116
636,15895,0,0,4105
637,15902,0,0,4098
638,15907,0,0,4093
639,15925,0,0,4075
640,15929,0,0,4071
641,15939,0,0,4061
642,15940,0,0,4060
643,15952,0,0,4048
644,15954,0,0,4046
645,15980,0,0,4020
646,15989,0,0,4011
647,15995,0,0,4005
648,16003,0,0,3997
649,16010,0,0,3990
650,16014,0,0,3986
651,16018,0,0,3982
652,16019,0,0,3981
653,16020,0,0,3980
654,16024,0,0,3976
655,16027,0,0,3973
656,16037,0,0,3963
657,16037,0,0,3963
658,16043,0,0,3957
659,16043,0,0,3957
660,16054,0,0,3946
661,16073,0,0,3927
662,16078,0,0,3922
663,16078,0,0,3922
664,16081,0,0,3919
665,16083,0,0,3917
666,16093,0,0,3907
667,16104,0,0,3896
668,16110,0,0,3890
669,16115,0,0,3885
670,16120,0,0,3880
671,16128,0,0,3872
672,16140,0,0,3860
673,16150,0,0,3850
674,16160,0,0,3840
675,16170,0,0,3830
676,16177,0,0,3823
677,16191,0,0,3809
678,16207,0,0,3793
679,16220,0,0,3780
680,16223,0,0,3777
681,16236,0,0,3764
682,16255,0,0,3745
683,16272,0,0,3728
684,16286,0,0,3714
685,16298,0,0,3702
686,16316,0,0,3684
687,16324,0,0,3676
688,16337,0,0,3663
689,16350,0,0,3650
690,16363,0,0,3637
691,16368,0,0,3632
692,16382,0,0,3618
693,16399,0,0,3601
694,16406,0,0,3594
695,16419,0,0,3581
696,16432,0,0,3568
697,16449,0,0,3551
698,16454,0,0,3546
699,16457,0,0,3543
700,16465,0,0,3535
701,16483,0,0,3517
702,16499,0,0,3501
703,16502,0,0,3498
704,16512,0,0,3488
705,16524,0,0,3476
706,16535,0,0,3465
707,16544,0,0,3456
708,16553,0,0,3447
709,16560,0,0,3440
710,16570,0,0,3430
711,16581,0,0,3419
712,16583,0,0,3417
713,16602,0,0,3398
714,16611,0,0,3389
715,16623,0,0,3377
716,16624,0,0,3376
717,16639,0,0,3361
718,16646,0,0,3354
719,16650,0,0,3350
720,16660,0,0,3340
721,16670,0,0,3330
722,16671,0,0,3329
723,16695,0,0,3305
724,16714,0,0,3286
725,16725,0,0,3275
726,16741,0,0,3259
727,16747,0,0,3253
728,16770,0,0,3230
729,16792,0,0,3208
730,16808,0,0,3192
