Iteration,Susceptible,Exposed,Infected,Recovered
0,19980,0,20,0
1,19969,11,20,0
2,19948,30,22,0
3,19921,43,34,2
4,19892,67,35,6
5,19862,79,51,8
6,19805,110,74,11
7,19747,149,82,22
8,19668,175,119,38
9,19583,209,134,74
10,19466,264,164,106
11,19355,309,195,141
12,19189,392,240,179
13,19007,464,300,229
14,18774,573,356,297
15,18477,714,438,371
16,18067,933,538,462
17,17625,1127,676,572
18,17074,1381,859,686
19,16461,1638,1035,866
20,15712,1953,1288,1047
21,14785,2326,1589,1300
22,13837,2641,1937,1585
23,12905,2851,2351,1893
24,11686,3310,2703,2301
25,10277,3710,3235,2778
26,8787,4088,3801,3324
27,7448,4282,4263,4007
28,6198,4390,4587,4825
29,5146,4258,5054,5542
30,4240,3926,5541,6293
31,3417,3714,5664,7205
32,2823,3285,5868,8024
33,2310,2941,5899,8850
34,1997,2531,5896,9576
35,1726,2120,5789,10365
36,1553,1743,5608,11096
37,1324,1571,5401,11704
38,1192,1375,5217,12216
39,1109,1144,4889,12858
40,1005,1008,4642,13345
41,942,858,4354,13846
42,807,811,4131,14251
43,770,609,3917,14704
44,752,512,3653,15083
45,757,410,3377,15456
46,725,368,3165,15742
47,724,304,2914,16058
48,775,209,2640,16376
49,867,152,2401,16580
50,970,97,2181,16752
51,973,116,2006,16905
52,1008,87,1909,16996
53,1036,119,1734,17111
54,1107,75,1637,17181
55,1149,87,1476,17288
56,1192,84,1388,17336
57,1232,76,1278,17414
58,1276,70,1194,17460
59,1313,72,1103,17512
60,1364,69,988,17579
61,1398,70,903,17629
62,1411,91,829,17669
63,1433,82,772,17713
64,1453,80,710,17757
65,1508,51,675,17766
66,1565,56,604,17775
67,1618,26,577,17779
68,1668,28,528,17776
69,1691,52,477,17780
70,1714,62,477,17747
71,1772,42,458,17728
72,1796,46,418,17740
73,1805,59,406,17730
74,1879,17,408,17696
75,1909,33,330,17728
76,1949,25,324,17702
77,2011,32,294,17663
78,2090,20,280,17610
79,2138,24,248,17590
80,2200,20,221,17559
81,2266,12,185,17537
82,2317,12,159,17512
83,2379,17,146,17458
84,2463,17,138,17382
85,2549,16,130,17305
86,2604,11,116,17269
87,2690,9,91,17210
88,2754,5,63,17178
89,2812,4,55,17129
90,2870,11,40,17079
91,2949,2,42,17007
92,3021,4,23,16952
93,3108,6,25,16861
94,3173,1,19,16807
95,3237,3,16,16744
96,3283,2,15,16700
97,3366,1,11,16622
98,3408,0,4,16588
99,3469,0,1,16530
100,3524,0,1,16475
101,3588,0,1,16411
102,3637,0,1,16362
103,3677,0,1,16322
104,3739,0,1,16260
105,3777,0,1,16222
106,3827,0,1,16172
107,3873,0,1,16126
108,3961,0,1,16038
109,3993,0,1,16006
110,4031,0,1,15968
111,4074,0,1,15925
112,4123,0,1,15876
113,4168,0,1,15831
114,4223,0,1,15776
115,4284,1,1,15714
116,4310,0,2,15688
117,4362,0,1,15637
118,4406,0,1,15593
119,4442,0,1,15557
120,4476,0,0,15524
121,4504,0,0,15496
122,4543,0,0,15457
123,4589,0,0,15411
124,4623,0,0,15377
125,4649,0,0,15351
126,4686,0,0,15314
127,4727,0,0,15273
128,4757,0,0,15243
129,4810,0,0,15190
130,4856,0,0,15144
131,4898,0,0,15102
132,4942,0,0,15058
133,5000,0,0,15000
134,5027,0,0,14973
135,5067,0,0,14933
136,5104,0,0,14896
137,5164,0,0,14836
138,5205,0,0,14795
139,5255,0,0,14745
140,5294,0,0,14706
141,5353,0,0,14647
142,5382,0,0,14618
143,5423,0,0,14577
144,5453,0,0,14547
145,5501,0,0,14499
146,5561,0,0,14439
147,5605,0,0,14395
148,5636,0,0,14364
149,5681,0,0,14319
150,5719,0,0,14281
151,5756,0,0,14244
152,5793,0,0,14207
153,5819,0,0,14181
154,5850,0,0,14150
155,5887,0,0,14113
156,5926,0,0,14074
157,5959,0,0,14041
158,5976,0,0,14024
159,6018,0,0,13982
160,6041,0,0,13959
161,6074,0,0,13926
162,6107,0,0,13893
163,6149,0,0,13851
164,6188,0,0,13812
165,6230,0,0,13770
166,6272,0,0,13728
167,6300,0,0,13700
168,6323,0,0,13677
169,6355,0,0,13645
170,6421,0,0,13579
171,6441,0,0,13559
172,6476,0,0,13524
173,6516,0,0,13484
174,6562,0,0,13438
175,6593,0,0,13407
176,6637,0,0,13363
177,6672,0,0,13328
178,6691,0,0,13309
179,6731,0,0,13269
180,6769,0,0,13231
181,6800,0,0,13200
182,6824,0,0,13176
183,6850,0,0,13150
184,6896,0,0,13104
185,6918,0,0,13082
186,6958,0,0,13042
187,7001,0,0,12999
188,7056,0,0,12944
189,7098,0,0,12902
190,7133,0,0,12867
191,7186,0,0,12814
192,7210,0,0,12790
193,7246,0,0,12754
194,7290,0,0,12710
195,7322,0,0,12678
196,7348,0,0,12652
197,7390,0,0,12610
198,7432,0,0,12568
199,7467,0,0,12533
200,7493,0,0,12507
201,7529,0,0,12471
202,7578,0,0,12422
203,7614,0,0,12386
204,7642,0,0,12358
205,7681,0,0,12319
206,7702,0,0,12298
207,7721,0,0,12279
208,7739,0,0,12261
209,7774,0,0,12226
210,7800,0,0,12200
211,7834,0,0,12166
212,7872,0,0,12128
213,7906,0,0,12094
214,7929,0,0,12071
215,7962,0,0,12038
216,8010,0,0,11990
217,8065,0,0,11935
218,8099,0,0,11901
219,8135,0,0,11865
220,8172,0,0,11828
221,8207,0,0,11793
222,8229,0,0,11771
223,8268,0,0,11732
224,8296,0,0,11704
225,8338,0,0,11662
226,8389,0,0,11611
227,8423,0,0,11577
228,8458,0,0,11542
229,8502,0,0,11498
230,8532,0,0,11468
231,8561,0,0,11439
232,8580,0,0,11420
233,8625,0,0,11375
234,8647,0,0,11353
235,8667,0,0,11333
236,8697,0,0,11303
237,8709,0,0,11291
238,8742,0,0,11258
239,8756,0,0,11244
240,8780,0,0,11220
241,8813,0,0,11187
242,8841,0,0,11159
243,8864,0,0,11136
244,8906,0,0,11094
245,8933,0,0,11067
246,8954,0,0,11046
247,8980,0,0,11020
248,9010,0,0,10990
249,9040,0,0,10960
250,9060,0,0,10940
251,9104,0,0,10896
252,9131,0,0,10869
253,9160,0,0,10840
254,9197,0,0,10803
255,9217,0,0,10783
256,9245,0,0,10755
257,9275,0,0,10725
258,9309,0,0,10691
259,9368,0,0,10632
260,9403,0,0,10597
261,9426,0,0,10574
262,9449,0,0,10551
263,9475,0,0,10525
264,9493,0,0,10507
265,9514,0,0,10486
266,9545,0,0,10455
267,9582,0,0,10418
268,9599,0,0,10401
269,9617,0,0,10383
270,9652,0,0,10348
271,9675,0,0,10325
272,9695,0,0,10305
273,9714,0,0,10286
274,9746,0,0,10254
275,9769,0,0,10231
276,9784,0,0,10216
277,9818,0,0,10182
278,9843,0,0,10157
279,9862,0,0,10138
280,9878,0,0,10122
281,9909,0,0,10091
282,9924,0,0,10076
283,9961,0,0,10039
284,9994,0,0,10006
285,10011,0,0,9989
286,10027,0,0,9973
287,10070,0,0,9930
288,10109,0,0,9891
289,10129,0,0,9871
290,10162,0,0,9838
291,10192,0,0,9808
292,10208,0,0,9792
293,10237,0,0,9763
294,10260,0,0,9740
295,10285,0,0,9715
296,10306,0,0,9694
297,10325,0,0,9675
298,10348,0,0,9652
299,10381,0,0,9619
300,10394,0,0,9606
301,10413,0,0,9587
302,10440,0,0,9560
303,10470,0,0,9530
304,10488,0,0,9512
305,10516,0,0,9484
306,10530,0,0,9470
307,10554,0,0,9446
308,10574,0,0,9426
309,10591,0,0,9409
310,10599,0,0,9401
311,10610,0,0,9390
312,10629,0,0,9371
313,10656,0,0,9344
314,10673,0,0,9327
315,10694,0,0,9306
316,10741,0,0,9259
317,10767,0,0,9233
318,10794,0,0,9206
319,10823,0,0,9177
320,10851,0,0,9149
321,10877,0,0,9123
322,10898,0,0,9102
323,10927,0,0,9073
324,10949,0,0,9051
325,10968,0,0,9032
326,10984,0,0,9016
327,10996,0,0,9004
328,11015,0,0,8985
329,11024,0,0,8976
330,11059,0,0,8941
331,11074,0,0,8926
332,11079,0,0,8921
333,11094,0,0,8906
334,11110,0,0,8890
335,11136,0,0,8864
336,11151,0,0,8849
337,11156,0,0,8844
338,11171,0,0,8829
339,11185,0,0,8815
340,11198,0,0,8802
341,11214,0,0,8786
342,11223,0,0,8777
343,11233,0,0,8767
344,11253,0,0,8747
345,11265,0,0,8735
346,11282,0,0,8718
347,11292,0,0,8708
348,11299,0,0,8701
349,11311,0,0,8689
350,11322,0,0,8678
351,11339,0,0,8661
352,11364,0,0,8636
353,11381,0,0,8619
354,11396,0,0,8604
355,11422,0,0,8578
356,11438,0,0,8562
357,11455,0,0,8545
358,11471,0,0,8529
359,11481,0,0,8519
360,11500,0,0,8500
361,11512,0,0,8488
362,11526,0,0,8474
363,11554,0,0,8446
364,11572,0,0,8428
365,11583,0,0,8417
366,11590,0,0,8410
367,11620,0,0,8380
368,11636,0,0,8364
369,11643,0,0,8357
370,11654,0,0,8346
371,11674,0,0,8326
372,11696,0,0,8304
373,11712,0,0,8288
374,11726,0,0,8274
375,11740,0,0,8260
376,11757,0,0,8243
377,11780,0,0,8220
378,11802,0,0,8198
379,11812,0,0,8188
380,11824,0,0,8176
381,11842,0,0,8158
382,11869,0,0,8131
383,11888,0,0,8112
384,11917,0,0,8083
385,11927,0,0,8073
386,11961,0,0,8039
387,11981,0,0,8019
388,12007,0,0,7993
389,12031,0,0,7969
390,12035,0,0,7965
391,12059,0,0,7941
392,12076,0,0,7924
393,12095,0,0,7905
394,12113,0,0,7887
395,12142,0,0,7858
396,12155,0,0,7845
397,12177,0,0,7823
398,12190,0,0,7810
399,12204,0,0,7796
400,12226,0,0,7774
401,12246,0,0,7754
402,12266,0,0,7734
403,12296,0,0,7704
404,12309,0,0,7691
405,12314,0,0,7686
406,12330,0,0,7670
407,12344,0,0,7656
408,12356,0,0,7644
409,12367,0,0,7633
410,12379,0,0,7621
411,12389,0,0,7611
412,12405,0,0,7595
413,12417,0,0,7583
414,12442,0,0,7558
415,12450,0,0,7550
416,12464,0,0,7536
417,12481,0,0,7519
418,12508,0,0,7492
419,12522,0,0,7478
420,12539,0,0,7461
421,12575,0,0,7425
422,12613,0,0,7387
423,12643,0,0,7357
424,12668,0,0,7332
425,12695,0,0,7305
426,12726,0,0,7274
427,12743,0,0,7257
428,12769,0,0,7231
429,12799,0,0,7201
430,12833,0,0,7167
431,12862,0,0,7138
432,12885,0,0,7115
433,12914,0,0,7086
434,12932,0,0,7068
435,12950,0,0,7050
436,12980,0,0,7020
437,12997,0,0,7003
438,13025,0,0,6975
439,13055,0,0,6945
440,13068,0,0,6932
441,13083,0,0,6917
442,13117,0,0,6883
443,13150,0,0,6850
444,13165,0,0,6835
445,13173,0,0,6827
446,13192,0,0,6808
447,13200,0,0,6800
448,13215,0,0,6785
449,13221,0,0,6779
450,13239,0,0,6761
451,13257,0,0,6743
452,13270,0,0,6730
453,13290,0,0,6710
454,13305,0,0,6695
455,13328,0,0,6672
456,13339,0,0,6661
457,13355,0,0,6645
458,13375,0,0,6625
459,13387,0,0,6613
460,13396,0,0,6604
461,13415,0,0,6585
462,13426,0,0,6574
463,13442,0,0,6558
464,13457,0,0,6543
465,13473,0,0,6527
466,13491,0,0,6509
467,13505,0,0,6495
468,13527,0,0,6473
469,13539,0,0,6461
470,13547,0,0,6453
471,13557,0,0,6443
472,13570,0,0,6430
473,13614,0,0,6386
474,13637,0,0,6363
475,13655,0,0,6345
476,13680,0,0,6320
477,13717,0,0,6283
478,13750,0,0,6250
479,13774,0,0,6226
480,13798,0,0,6202
481,13810,0,0,6190
482,13833,0,0,6167
483,13849,0,0,6151
484,13864,0,0,6136
485,13875,0,0,6125
486,13892,0,0,6108
487,13905,0,0,6095
488,13917,0,0,6083
489,13925,0,0,6075
490,13950,0,0,6050
491,13973,0,0,6027
492,14003,0,0,5997
493,14014,0,0,5986
494,14026,0,0,5974
495,14051,0,0,5949
496,14079,0,0,5921
497,14102,0,0,5898
498,14114,0,0,5886
499,14132,0,0,5868
500,14146,0,0,5854
501,14170,0,0,5830
502,14197,0,0,5803
503,14226,0,0,5774
504,14246,0,0,5754
505,14258,0,0,5742
506,14272,0,0,5728
507,14285,0,0,5715
508,14316,0,0,5684
509,14330,0,0,5670
510,14360,0,0,5640
511,14384,0,0,5616
512,14399,0,0,5601
513,14417,0,0,5583
514,14429,0,0,5571
515,14457,0,0,5543
516,14461,0,0,5539
517,14475,0,0,5525
518,14492,0,0,5508
519,14526,0,0,5474
520,14542,0,0,5458
521,14561,0,0,5439
522,14574,0,0,5426
523,14594,0,0,5406
524,14609,0,0,5391
525,14627,0,0,5373
526,14659,0,0,5341
527,14671,0,0,5329
528,14692,0,0,5308
529,14719,0,0,5281
530,14732,0,0,5268
531,14742,0,0,5258
532,14763,0,0,5237
533,14784,0,0,5216
534,14794,0,0,5206
535,14816,0,0,5184
536,14836,0,0,5164
537,14861,0,0,5139
538,14890,0,0,5110
539,14920,0,0,5080
540,14958,0,0,5042
541,14972,0,0,5028
542,14993,0,0,5007
543,15016,0,0,4984
544,15046,0,0,4954
545,15076,0,0,4924
546,15087,0,0,4913
547,15094,0,0,4906
548,15123,0,0,4877
549,15130,0,0,4870
550,15145,0,0,4855
551,15152,0,0,4848
552,15170,0,0,4830
553,15185,0,0,4815
554,15210,0,0,4790
555,15217,0,0,4783
556,15228,0,0,4772
557,15250,0,0,4750
558,15271,0,0,4729
559,15279,0,0,4721
560,15291,0,0,4709
561,15301,0,0,4699
562,15310,0,0,4690
563,15316,0,0,4684
564,15321,0,0,4679
565,15326,0,0,4674
566,15339,0,0,4661
567,15347,0,0,4653
568,15354,0,0,4646
569,15370,0,0,4630
570,15384,0,0,4616
571,15399,0,0,4601
572,15416,0,0,4584
573,15427,0,0,4573
574,15436,0,0,4564
575,15450,0,0,4550
576,15467,0,0,4533
577,15479,0,0,4521
578,15490,0,0,4510
579,15504,0,0,4496
580,15518,0,0,4482
581,15532,0,0,4468
582,15549,0,0,4451
583,15573,0,0,4427
584,15584,0,0,4416
585,15598,0,0,4402
586,15612,0,0,4388
587,15615,0,0,4385
588,15630,0,0,4370
589,15649,0,0,4351
590,15664,0,0,4336
591,15679,0,0,4321
592,15683,0,0,4317
593,15698,0,0,4302
594,15710,0,0,4290
595,15718,0,0,4282
596,15723,0,0,4277
597,15743,0,0,4257
598,15763,0,0,4237
599,15776,0,0,4224
600,15787,0,0,4213
601,15794,0,0,4206
602,15807,0,0,4193
603,15815,0,0,4185
604,15825,0,0,4175
605,15841,0,0,4159
606,15849,0,0,4151
607,15859,0,0,4141
608,15871,0,0,4129
609,15881,0,0,4119
610,15890,0,0,4110
611,15891,0,0,4109
612,15907,0,0,4093
613,15918,0,0,4082
614,15945,0,0,4055
615,15962,0,0,4038
616,15973,0,0,4027
617,15979,0,0,4021
618,15992,0,0,4008
619,16010,0,0,3990
620,16031,0,0,3969
621,16047,0,0,3953
622,16056,0,0,3944
623,16064,0,0,3936
624,16077,0,0,3923
625,16106,0,0,3894
626,16120,0,0,3880
627,16126,0,0,3874
628,16139,0,0,3861
629,16146,0,0,3854
630,16151,0,0,3849
631,16182,0,0,3818
632,16184,0,0,3816
633,16199,0,0,3801
634,16209,0,0,3791
635,16218,0,0,3782
636,16220,0,0,3780
637,16226,0,0,3774
638,16236,0,0,3764
639,16239,0,0,3761
640,16244,0,0,3756
641,16258,0,0,3742
642,16266,0,0,3734
643,16278,0,0,3722
644,16290,0,0,3710
645,16300,0,0,3700
646,16307,0,0,3693
647,16324,0,0,3676
648,16340,0,0,3660
649,16350,0,0,3650
650,16358,0,0,3642
651,16365,0,0,3635
652,16376,0,0,3624
653,16384,0,0,3616
654,16400,0,0,3600
655,16404,0,0,3596
656,16408,0,0,3592
657,16415,0,0,3585
658,16419,0,0,3581
659,16421,0,0,3579
660,16424,0,0,3576
661,16431,0,0,3569
662,16435,0,0,3565
663,16436,0,0,3564
664,16439,0,0,3561
665,16444,0,0,3556
666,16454,0,0,3546
667,16455,0,0,3545
668,16461,0,0,3539
669,16471,0,0,3529
670,16480,0,0,3520
671,16483,0,0,3517
672,16485,0,0,3515
673,16487,0,0,3513
674,16505,0,0,3495
675,16511,0,0,3489
676,16520,0,0,3480
677,16531,0,0,3469
678,16535,0,0,3465
679,16541,0,0,3459
680,16552,0,0,3448
681,16561,0,0,3439
682,16566,0,0,3434
683,16573,0,0,3427
684,16573,0,0,3427
685,16585,0,0,3415
686,16585,0,0,3415
687,16610,0,0,3390
688,16616,0,0,3384
689,16624,0,0,3376
690,16639,0,0,3361
691,16645,0,0,3355
692,16655,0,0,3345
693,16661,0,0,3339
694,16668,0,0,3332
695,16671,0,0,3329
696,16679,0,0,3321
697,16683,0,0,3317
698,16698,0,0,3302
699,16704,0,0,3296
700,16720,0,0,3280
701,16723,0,0,3277
702,16736,0,0,3264
703,16738,0,0,3262
704,16738,0,0,3262
705,16745,0,0,3255
706,16757,0,0,3243
707,16759,0,0,3241
708,16767,0,0,3233
709,16773,0,0,3227
710,16779,0,0,3221
711,16781,0,0,3219
712,16790,0,0,3210
713,16791,0,0,3209
714,16797,0,0,3203
715,16801,0,0,3199
716,16803,0,0,3197
717,16806,0,0,3194
718,16812,0,0,3188
719,16818,0,0,3182
720,16821,0,0,3179
721,16826,0,0,3174
722,16833,0,0,3167
723,16843,0,0,3157
724,16853,0,0,3147
725,16867,0,0,3133
726,16876,0,0,3124
727,16879,0,0,3121
728,16883,0,0,3117
729,16891,0,0,3109
730,16899,0,0,3101
