Iteration,Susceptible,Exposed,Infected,Recovered
0,19980,0,20,0
1,19966,14,20,0
2,19940,34,26,0
3,19922,43,22,13
4,19904,54,24,18
5,19883,56,36,25
6,19848,76,44,32
7,19815,87,62,36
8,19766,112,69,53
9,19703,138,87,72
10,19645,165,96,94
11,19558,198,127,117
12,19452,242,168,138
13,19314,301,211,174
14,19145,389,254,212
15,18948,482,303,267
16,18703,592,374,331
17,18362,777,460,401
18,18004,938,567,491
19,17531,1146,717,606
20,17052,1318,904,726
21,16476,1523,1116,885
22,15716,1860,1323,1101
23,14851,2268,1525,1356
24,13930,2548,1890,1632
25,12770,2987,2272,1971
26,11736,3161,2712,2391
27,10444,3607,3109,2840
28,9176,3844,3550,3430
29,7954,4064,3961,4021
30,6766,4155,4400,4679
31,5577,4227,4762,5434
32,4448,4212,5205,6135
33,3604,3878,5641,6877
34,2881,3624,5851,7644
35,2230,3315,6021,8434
36,1957,2682,6180,9181
37,1567,2399,6062,9972
38,1329,1977,5960,10734
39,1117,1735,5677,11471
40,973,1427,5526,12074
41,829,1173,5277,12721
42,723,941,5117,13219
43,601,801,4817,13781
44,592,615,4558,14235
45,604,464,4231,14701
46,643,327,3913,15117
47,677,279,3579,15465
48,615,260,3296,15829
49,664,181,3068,16087
50,710,179,2722,16389
51,751,179,2467,16603
52,792,135,2282,16791
53,780,160,2100,16960
54,827,95,1964,17114
55,866,83,1745,17306
56,900,103,1569,17428
57,977,70,1491,17462
58,995,93,1326,17586
59,1058,62,1215,17665
60,1071,68,1081,17780
61,1107,61,967,17865
62,1130,64,850,17956
63,1165,71,770,17994
64,1224,39,720,18017
65,1247,48,597,18108
66,1294,29,555,18122
67,1352,28,498,18122
68,1391,35,469,18105
69,1434,31,423,18112
70,1513,21,381,18085
71,1581,25,330,18064
72,1622,34,308,18036
73,1694,37,284,17985
74,1768,19,265,17948
75,1827,7,227,17939
76,1887,6,203,17904
77,1963,18,175,17844
78,2013,15,168,17804
79,2064,9,155,17772
80,2122,10,136,17732
81,2170,14,132,17684
82,2223,13,125,17639
83,2297,6,119,17578
84,2342,14,101,17543
85,2409,9,102,17480
86,2469,8,89,17434
87,2511,9,83,17397
88,2585,18,78,17319
89,2626,13,88,17273
90,2697,6,83,17214
91,2754,7,76,17163
92,2824,2,77,17097
93,2864,9,62,17065
94,2935,7,65,16993
95,2976,6,61,16957
96,3038,7,55,16900
97,3097,6,57,16840
98,3140,8,57,16795
99,3199,6,55,16740
100,3239,9,54,16698
101,3293,6,54,16647
102,3337,4,44,16615
103,3381,5,40,16574
104,3426,7,40,16527
105,3474,7,41,16478
106,3528,5,29,16438
107,3576,2,26,16396
108,3621,2,20,16357
109,3659,3,20,16318
110,3700,3,19,16278
111,3736,4,21,16239
112,3769,3,20,16208
113,3806,1,19,16174
114,3843,1,14,16142
115,3882,3,9,16106
116,3933,1,9,16057
117,3976,0,6,16018
118,4016,1,4,15979
119,4051,2,3,15944
120,4125,0,3,15872
121,4171,0,2,15827
122,4226,0,0,15774
123,4284,0,0,15716
124,4349,0,0,15651
125,4422,0,0,15578
126,4464,0,0,15536
127,4505,0,0,15495
128,4550,0,0,15450
129,4593,0,0,15407
130,4669,0,0,15331
131,4726,0,0,15274
132,4770,0,0,15230
133,4818,0,0,15182
134,4865,0,0,15135
135,4926,0,0,15074
136,4988,0,0,15012
137,5020,0,0,14980
138,5047,0,0,14953
139,5086,0,0,14914
140,5116,0,0,14884
141,5153,0,0,14847
142,5198,0,0,14802
143,5241,0,0,14759
144,5293,0,0,14707
145,5329,0,0,14671
146,5372,0,0,14628
147,5430,0,0,14570
148,5477,0,0,14523
149,5527,0,0,14473
150,5547,0,0,14453
151,5582,0,0,14418
152,5614,0,0,14386
153,5655,0,0,14345
154,5680,0,0,14320
155,5712,0,0,14288
156,5740,0,0,14260
157,5778,0,0,14222
158,5813,0,0,14187
159,5864,0,0,14136
160,5891,0,0,14109
161,5924,0,0,14076
162,5951,0,0,14049
163,5994,0,0,14006
164,6033,0,0,13967
165,6049,0,0,13951
166,6072,0,0,13928
167,6103,0,0,13897
168,6132,0,0,13868
169,6156,0,0,13844
170,6191,0,0,13809
171,6225,0,0,13775
172,6252,0,0,13748
173,6293,0,0,13707
174,6317,0,0,13683
175,6341,0,0,13659
176,6365,0,0,13635
177,6378,0,0,13622
178,6395,0,0,13605
179,6422,0,0,13578
180,6436,0,0,13564
181,6462,0,0,13538
182,6503,0,0,13497
183,6532,0,0,13468
184,6562,0,0,13438
185,6580,0,0,13420
186,6609,0,0,13391
187,6631,0,0,13369
188,6669,0,0,13331
189,6694,0,0,13306
190,6722,0,0,13278
191,6744,0,0,13256
192,6773,0,0,13227
193,6791,0,0,13209
194,6821,0,0,13179
195,6846,0,0,13154
196,6864,0,0,13136
197,6885,0,0,13115
198,6901,0,0,13099
199,6920,0,0,13080
200,6958,0,0,13042
201,6992,0,0,13008
202,7020,0,0,12980
203,7048,0,0,12952
204,7082,0,0,12918
205,7111,0,0,12889
206,7140,0,0,12860
207,7166,0,0,12834
208,7202,0,0,12798
209,7221,0,0,12779
210,7247,0,0,12753
211,7276,0,0,12724
212,7313,0,0,12687
213,7362,0,0,12638
214,7394,0,0,12606
215,7419,0,0,12581
216,7464,0,0,12536
217,7495,0,0,12505
218,7526,0,0,12474
219,7565,0,0,12435
220,7599,0,0,12401
221,7624,0,0,12376
222,7658,0,0,12342
223,7685,0,0,12315
224,7730,0,0,12270
225,7759,0,0,12241
226,7804,0,0,12196
227,7839,0,0,12161
228,7881,0,0,12119
229,7903,0,0,12097
230,7937,0,0,12063
231,7964,0,0,12036
232,8001,0,0,11999
233,8022,0,0,11978
234,8057,0,0,11943
235,8103,0,0,11897
236,8164,0,0,11836
237,8219,0,0,11781
238,8264,0,0,11736
239,8296,0,0,11704
240,8332,0,0,11668
241,8370,0,0,11630
242,8401,0,0,11599
243,8426,0,0,11574
244,8442,0,0,11558
245,8474,0,0,11526
246,8498,0,0,11502
247,8528,0,0,11472
248,8549,0,0,11451
249,8557,0,0,11443
250,8584,0,0,11416
251,8602,0,0,11398
252,8621,0,0,11379
253,8633,0,0,11367
254,8676,0,0,11324
255,8706,0,0,11294
256,8732,0,0,11268
257,8762,0,0,11238
258,8773,0,0,11227
259,8790,0,0,11210
260,8809,0,0,11191
261,8829,0,0,11171
262,8855,0,0,11145
263,8868,0,0,11132
264,8894,0,0,11106
265,8913,0,0,11087
266,8958,0,0,11042
267,8972,0,0,11028
268,9019,0,0,10981
269,9041,0,0,10959
270,9075,0,0,10925
271,9099,0,0,10901
272,9125,0,0,10875
273,9154,0,0,10846
274,9178,0,0,10822
275,9208,0,0,10792
276,9233,0,0,10767
277,9270,0,0,10730
278,9296,0,0,10704
279,9320,0,0,10680
280,9351,0,0,10649
281,9382,0,0,10618
282,9402,0,0,10598
283,9428,0,0,10572
284,9459,0,0,10541
285,9495,0,0,10505
286,9545,0,0,10455
287,9579,0,0,10421
288,9615,0,0,10385
289,9646,0,0,10354
290,9670,0,0,10330
291,9704,0,0,10296
292,9729,0,0,10271
293,9746,0,0,10254
294,9773,0,0,10227
295,9805,0,0,10195
296,9823,0,0,10177
297,9849,0,0,10151
298,9866,0,0,10134
299,9897,0,0,10103
300,9914,0,0,10086
301,9947,0,0,10053
302,9959,0,0,10041
303,9984,0,0,10016
304,10021,0,0,9979
305,10059,0,0,9941
306,10079,0,0,9921
307,10091,0,0,9909
308,10102,0,0,9898
309,10119,0,0,9881
310,10134,0,0,9866
311,10148,0,0,9852
312,10167,0,0,9833
313,10186,0,0,9814
314,10204,0,0,9796
315,10225,0,0,9775
316,10240,0,0,9760
317,10258,0,0,9742
318,10274,0,0,9726
319,10289,0,0,9711
320,10320,0,0,9680
321,10350,0,0,9650
322,10379,0,0,9621
323,10408,0,0,9592
324,10422,0,0,9578
325,10453,0,0,9547
326,10483,0,0,9517
327,10508,0,0,9492
328,10528,0,0,9472
329,10564,0,0,9436
330,10585,0,0,9415
331,10621,0,0,9379
332,10641,0,0,9359
333,10668,0,0,9332
334,10693,0,0,9307
335,10712,0,0,9288
336,10728,0,0,9272
337,10757,0,0,9243
338,10794,0,0,9206
339,10822,0,0,9178
340,10843,0,0,9157
341,10858,0,0,9142
342,10891,0,0,9109
343,10907,0,0,9093
344,10930,0,0,9070
345,10949,0,0,9051
346,10973,0,0,9027
347,11011,0,0,8989
348,11029,0,0,8971
349,11047,0,0,8953
350,11067,0,0,8933
351,11092,0,0,8908
352,11105,0,0,8895
353,11121,0,0,8879
354,11140,0,0,8860
355,11149,0,0,8851
356,11174,0,0,8826
357,11183,0,0,8817
358,11197,0,0,8803
359,11217,0,0,8783
360,11238,0,0,8762
361,11264,0,0,8736
362,11281,0,0,8719
363,11304,0,0,8696
364,11324,0,0,8676
365,11337,0,0,8663
366,11369,0,0,8631
367,11384,0,0,8616
368,11412,0,0,8588
369,11440,0,0,8560
370,11471,0,0,8529
371,11488,0,0,8512
372,11511,0,0,8489
373,11536,0,0,8464
374,11563,0,0,8437
375,11588,0,0,8412
376,11608,0,0,8392
377,11625,0,0,8375
378,11639,0,0,8361
379,11673,0,0,8327
380,11693,0,0,8307
381,11718,0,0,8282
382,11750,0,0,8250
383,11773,0,0,8227
384,11791,0,0,8209
385,11821,0,0,8179
386,11838,0,0,8162
387,11871,0,0,8129
388,11904,0,0,8096
389,11929,0,0,8071
390,11944,0,0,8056
391,11969,0,0,8031
392,11995,0,0,8005
393,12020,0,0,7980
394,12038,0,0,7962
395,12076,0,0,7924
396,12097,0,0,7903
397,12124,0,0,7876
398,12139,0,0,7861
399,12157,0,0,7843
400,12178,0,0,7822
401,12188,0,0,7812
402,12197,0,0,7803
403,12218,0,0,7782
404,12232,0,0,7768
405,12240,0,0,7760
406,12255,0,0,7745
407,12266,0,0,7734
408,12284,0,0,7716
409,12304,0,0,7696
410,12318,0,0,7682
411,12326,0,0,7674
412,12344,0,0,7656
413,12356,0,0,7644
414,12375,0,0,7625
415,12386,0,0,7614
416,12407,0,0,7593
417,12423,0,0,7577
418,12447,0,0,7553
419,12460,0,0,7540
420,12485,0,0,7515
421,12493,0,0,7507
422,12510,0,0,7490
423,12526,0,0,7474
424,12545,0,0,7455
425,12564,0,0,7436
426,12575,0,0,7425
427,12595,0,0,7405
428,12602,0,0,7398
429,12620,0,0,7380
430,12645,0,0,7355
431,12664,0,0,7336
432,12684,0,0,7316
433,12695,0,0,7305
434,12721,0,0,7279
435,12745,0,0,7255
436,12767,0,0,7233
437,12775,0,0,7225
438,12778,0,0,7222
439,12795,0,0,7205
440,12804,0,0,7196
441,12816,0,0,7184
442,12827,0,0,7173
443,12844,0,0,7156
444,12878,0,0,7122
445,12893,0,0,7107
446,12904,0,0,7096
447,12918,0,0,7082
448,12927,0,0,7073
449,12949,0,0,7051
450,12965,0,0,7035
451,12974,0,0,7026
452,12992,0,0,7008
453,13016,0,0,6984
454,13026,0,0,6974
455,13037,0,0,6963
456,13047,0,0,6953
457,13054,0,0,6946
458,13073,0,0,6927
459,13085,0,0,6915
460,13097,0,0,6903
461,13116,0,0,6884
462,13140,0,0,6860
463,13170,0,0,6830
464,13198,0,0,6802
465,13229,0,0,6771
466,13242,0,0,6758
467,13252,0,0,6748
468,13265,0,0,6735
469,13280,0,0,6720
470,13297,0,0,6703
471,13312,0,0,6688
472,13330,0,0,6670
473,13354,0,0,6646
474,13374,0,0,6626
475,13393,0,0,6607
476,13410,0,0,6590
477,13430,0,0,6570
478,13449,0,0,6551
479,13471,0,0,6529
480,13503,0,0,6497
481,13512,0,0,6488
482,13534,0,0,6466
483,13582,0,0,6418
484,13620,0,0,6380
485,13667,0,0,6333
486,13700,0,0,6300
487,13738,0,0,6262
488,13773,0,0,6227
489,13798,0,0,6202
490,13826,0,0,6174
491,13848,0,0,6152
492,13880,0,0,6120
493,13897,0,0,6103
494,13918,0,0,6082
495,13937,0,0,6063
496,13951,0,0,6049
497,13992,0,0,6008
498,14003,0,0,5997
499,14031,0,0,5969
500,14047,0,0,5953
501,14069,0,0,5931
502,14096,0,0,5904
503,14124,0,0,5876
504,14137,0,0,5863
505,14159,0,0,5841
506,14189,0,0,5811
507,14207,0,0,5793
508,14233,0,0,5767
509,14248,0,0,5752
510,14284,0,0,5716
511,14317,0,0,5683
512,14333,0,0,5667
513,14356,0,0,5644
514,14382,0,0,5618
515,14404,0,0,5596
516,14420,0,0,5580
517,14439,0,0,5561
518,14453,0,0,5547
519,14462,0,0,5538
520,14485,0,0,5515
521,14509,0,0,5491
522,14518,0,0,5482
523,14535,0,0,5465
524,14554,0,0,5446
525,14569,0,0,5431
526,14583,0,0,5417
527,14595,0,0,5405
528,14616,0,0,5384
529,14625,0,0,5375
530,14632,0,0,5368
531,14643,0,0,5357
532,14649,0,0,5351
533,14652,0,0,5348
534,14656,0,0,5344
535,14663,0,0,5337
536,14673,0,0,5327
537,14675,0,0,5325
538,14679,0,0,5321
539,14698,0,0,5302
540,14712,0,0,5288
541,14726,0,0,5274
542,14736,0,0,5264
543,14744,0,0,5256
544,14752,0,0,5248
545,14765,0,0,5235
546,14778,0,0,5222
547,14790,0,0,5210
548,14799,0,0,5201
549,14801,0,0,5199
550,14813,0,0,5187
551,14820,0,0,5180
552,14825,0,0,5175
553,14834,0,0,5166
554,14840,0,0,5160
555,14844,0,0,5156
556,14847,0,0,5153
557,14850,0,0,5150
558,14862,0,0,5138
559,14876,0,0,5124
560,14884,0,0,5116
561,14892,0,0,5108
562,14902,0,0,5098
563,14907,0,0,5093
564,14918,0,0,5082
565,14931,0,0,5069
566,14938,0,0,5062
567,14955,0,0,5045
568,14966,0,0,5034
569,14984,0,0,5016
570,15000,0,0,5000
571,15017,0,0,4983
572,15032,0,0,4968
573,15041,0,0,4959
574,15068,0,0,4932
575,15080,0,0,4920
576,15092,0,0,4908
577,15119,0,0,4881
578,15139,0,0,4861
579,15158,0,0,4842
580,15199,0,0,4801
581,15214,0,0,4786
582,15233,0,0,4767
583,15248,0,0,4752
584,15277,0,0,4723
585,15301,0,0,4699
586,15320,0,0,4680
587,15344,0,0,4656
588,15361,0,0,4639
589,15393,0,0,4607
590,15412,0,0,4588
591,15432,0,0,4568
592,15446,0,0,4554
593,15473,0,0,4527
594,15491,0,0,4509
595,15498,0,0,4502
596,15504,0,0,4496
597,15511,0,0,4489
598,15530,0,0,4470
599,15544,0,0,4456
600,15557,0,0,4443
601,15571,0,0,4429
602,15590,0,0,4410
603,15601,0,0,4399
604,15609,0,0,4391
605,15627,0,0,4373
606,15640,0,0,4360
607,15647,0,0,4353
608,15651,0,0,4349
609,15666,0,0,4334
610,15680,0,0,4320
611,15700,0,0,4300
612,15716,0,0,4284
613,15728,0,0,4272
614,15754,0,0,4246
615,15772,0,0,4228
616,15779,0,0,4221
617,15787,0,0,4213
618,15804,0,0,4196
619,15825,0,0,4175
620,15837,0,0,4163
621,15852,0,0,4148
622,15864,0,0,4136
623,15875,0,0,4125
624,15891,0,0,4109
625,15912,0,0,4088
626,15925,0,0,4075
627,15950,0,0,4050
628,15961,0,0,4039
629,15978,0,0,4022
630,15997,0,0,4003
631,16014,0,0,3986
632,16020,0,0,3980
633,16039,0,0,3961
634,16063,0,0,3937
635,16072,0,0,3928
636,16078,0,0,3922
637,16103,0,0,3897
638,16109,0,0,3891
639,16120,0,0,3880
640,16132,0,0,3868
641,16135,0,0,3865
642,16144,0,0,3856
643,16159,0,0,3841
644,16176,0,0,3824
645,16183,0,0,3817
646,16199,0,0,3801
647,16215,0,0,3785
648,16234,0,0,3766
649,16250,0,0,3750
650,16263,0,0,3737
651,16281,0,0,3719
652,16287,0,0,3713
653,16297,0,0,3703
654,16314,0,0,3686
655,16328,0,0,3672
656,16351,0,0,3649
657,16362,0,0,3638
658,16374,0,0,3626
659,16396,0,0,3604
660,16413,0,0,3587
661,16425,0,0,3575
662,16450,0,0,3550
663,16470,0,0,3530
664,16476,0,0,3524
665,16492,0,0,3508
666,16499,0,0,3501
667,16510,0,0,3490
668,16528,0,0,3472
669,16535,0,0,3465
670,16536,0,0,3464
671,16542,0,0,3458
672,16553,0,0,3447
673,16565,0,0,3435
674,16579,0,0,3421
675,16580,0,0,3420
676,16593,0,0,3407
677,16598,0,0,3402
678,16605,0,0,3395
679,16611,0,0,3389
680,16617,0,0,3383
681,16618,0,0,3382
682,16630,0,0,3370
683,16650,0,0,3350
684,16653,0,0,3347
685,16658,0,0,3342
686,16662,0,0,3338
687,16665,0,0,3335
688,16675,0,0,3325
689,16680,0,0,3320
690,16681,0,0,3319
691,16693,0,0,3307
692,16698,0,0,3302
693,16704,0,0,3296
694,16712,0,0,3288
695,16719,0,0,3281
696,16724,0,0,3276
697,16729,0,0,3271
698,16730,0,0,3270
699,16730,0,0,3270
700,16731,0,0,3269
701,16739,0,0,3261
702,16743,0,0,3257
703,16744,0,0,3256
704,16747,0,0,3253
705,16749,0,0,3251
706,16751,0,0,3249
707,16751,0,0,3249
708,16755,0,0,3245
709,16759,0,0,3241
710,16765,0,0,3235
711,16766,0,0,3234
712,16770,0,0,3230
713,16779,0,0,3221
714,16782,0,0,3218
715,16783,0,0,3217
716,16791,0,0,3209
717,16792,0,0,3208
718,16794,0,0,3206
719,16799,0,0,3201
720,16800,0,0,3200
721,16802,0,0,3198
722,16804,0,0,3196
723,16810,0,0,3190
724,16811,0,0,3189
725,16814,0,0,3186
726,16817,0,0,3183
727,16819,0,0,3181
728,16823,0,0,3177
729,16826,0,0,3174
730,16830,0,0,3170
