Iteration,Susceptible,Exposed,Infected,Recovered
0,19980,0,20,0
1,19980,0,0,20
2,19980,0,0,20
3,19980,0,0,20
4,19980,0,0,20
5,19980,0,0,20
6,19980,0,0,20
7,19980,0,0,20
8,19980,0,0,20
9,19980,0,0,20
10,19980,0,0,20
11,19980,0,0,20
12,19980,0,0,20
13,19980,0,0,20
14,19980,0,0,20
15,19980,0,0,20
16,19980,0,0,20
17,19980,0,0,20
18,19980,0,0,20
19,19980,0,0,20
20,19980,0,0,20
21,19980,0,0,20
22,19980,0,0,20
23,19980,0,0,20
24,19980,0,0,20
25,19980,0,0,20
26,19980,0,0,20
27,19980,0,0,20
28,19980,0,0,20
29,19980,0,0,20
30,19980,0,0,20
31,20000,0,0,0
32,20000,0,0,0
33,20000,0,0,0
34,20000,0,0,0
35,20000,0,0,0
36,20000,0,0,0
37,20000,0,0,0
38,20000,0,0,0
39,20000,0,0,0
40,20000,0,0,0
41,20000,0,0,0
42,20000,0,0,0
43,20000,0,0,0
44,20000,0,0,0
45,20000,0,0,0
46,20000,0,0,0
47,20000,0,0,0
48,20000,0,0,0
49,20000,0,0,0
50,20000,0,0,0
51,20000,0,0,0
52,20000,0,0,0
53,20000,0,0,0
54,20000,0,0,0
55,20000,0,0,0
56,20000,0,0,0
57,20000,0,0,0
58,20000,0,0,0
59,20000,0,0,0
60,20000,0,0,0
61,20000,0,0,0
62,20000,0,0,0
63,20000,0,0,0
64,20000,0,0,0
65,20000,0,0,0
66,20000,0,0,0
67,20000,0,0,0
68,20000,0,0,0
69,20000,0,0,0
70,20000,0,0,0
71,20000,0,0,0
72,20000,0,0,0
73,20000,0,0,0
74,20000,0,0,0
75,20000,0,0,0
76,20000,0,0,0
77,20000,0,0,0
78,20000,0,0,0
79,20000,0,0,0
80,20000,0,0,0
81,20000,0,0,0
82,20000,0,0,0
83,20000,0,0,0
84,20000,0,0,0
85,20000,0,0,0
86,20000,0,0,0
87,20000,0,0,0
88,20000,0,0,0
89,20000,0,0,0
90,20000,0,0,0
91,20000,0,0,0
92,20000,0,0,0
93,20000,0,0,0
94,20000,0,0,0
95,20000,0,0,0
96,20000,0,0,0
97,20000,0,0,0
98,20000,0,0,0
99,20000,0,0,0
100,20000,0,0,0
101,20000,0,0,0
102,20000,0,0,0
103,20000,0,0,0
104,20000,0,0,0
105,20000,0,0,0
106,20000,0,0,0
107,20000,0,0,0
108,20000,0,0,0
109,20000,0,0,0
110,20000,0,0,0
111,20000,0,0,0
112,20000,0,0,0
113,20000,0,0,0
114,20000,0,0,0
115,20000,0,0,0
116,20000,0,0,0
117,20000,0,0,0
118,20000,0,0,0
119,20000,0,0,0
120,20000,0,0,0
121,20000,0,0,0
122,20000,0,0,0
123,20000,0,0,0
124,20000,0,0,0
125,20000,0,0,0
126,20000,0,0,0
127,20000,0,0,0
128,20000,0,0,0
129,20000,0,0,0
130,20000,0,0,0
131,20000,0,0,0
132,20000,0,0,0
133,20000,0,0,0
134,20000,0,0,0
135,20000,0,0,0
136,20000,0,0,0
137,20000,0,0,0
138,20000,0,0,0
139,20000,0,0,0
140,20000,0,0,0
141,20000,0,0,0
142,20000,0,0,0
143,20000,0,0,0
144,20000,0,0,0
145,20000,0,0,0
146,20000,0,0,0
147,20000,0,0,0
148,20000,0,0,0
149,20000,0,0,0
150,20000,0,0,0
151,20000,0,0,0
152,20000,0,0,0
153,20000,0,0,0
154,20000,0,0,0
155,20000,0,0,0
156,20000,0,0,0
157,20000,0,0,0
158,20000,0,0,0
159,20000,0,0,0
160,20000,0,0,0
161,20000,0,0,0
162,20000,0,0,0
163,20000,0,0,0
164,20000,0,0,0
165,20000,0,0,0
166,20000,0,0,0
167,20000,0,0,0
168,20000,0,0,0
169,20000,0,0,0
170,20000,0,0,0
171,20000,0,0,0
172,20000,0,0,0
173,20000,0,0,0
174,20000,0,0,0
175,20000,0,0,0
176,20000,0,0,0
177,20000,0,0,0
178,20000,0,0,0
179,20000,0,0,0
180,20000,0,0,0
181,20000,0,0,0
182,20000,0,0,0
183,20000,0,0,0
184,20000,0,0,0
185,20000,0,0,0
186,20000,0,0,0
187,20000,0,0,0
188,20000,0,0,0
189,20000,0,0,0
190,20000,0,0,0
191,20000,0,0,0
192,20000,0,0,0
193,20000,0,0,0
194,20000,0,0,0
195,20000,0,0,0
196,20000,0,0,0
197,20000,0,0,0
198,20000,0,0,0
199,20000,0,0,0
200,20000,0,0,0
201,20000,0,0,0
202,20000,0,0,0
203,20000,0,0,0
204,20000,0,0,0
205,20000,0,0,0
206,20000,0,0,0
207,20000,0,0,0
208,20000,0,0,0
209,20000,0,0,0
210,20000,0,0,0
211,20000,0,0,0
212,20000,0,0,0
213,20000,0,0,0
214,20000,0,0,0
215,20000,0,0,0
216,20000,0,0,0
217,20000,0,0,0
218,20000,0,0,0
219,20000,0,0,0
220,20000,0,0,0
221,20000,0,0,0
222,20000,0,0,0
223,20000,0,0,0
224,20000,0,0,0
225,20000,0,0,0
226,20000,0,0,0
227,20000,0,0,0
228,20000,0,0,0
229,20000,0,0,0
230,20000,0,0,0
231,20000,0,0,0
232,20000,0,0,0
233,20000,0,0,0
234,20000,0,0,0
235,20000,0,0,0
236,20000,0,0,0
237,20000,0,0,0
238,20000,0,0,0
239,20000,0,0,0
240,20000,0,0,0
241,20000,0,0,0
242,20000,0,0,0
243,20000,0,0,0
244,20000,0,0,0
245,20000,0,0,0
246,20000,0,0,0
247,20000,0,0,0
248,20000,0,0,0
249,20000,0,0,0
250,20000,0,0,0
251,20000,0,0,0
252,20000,0,0,0
253,20000,0,0,0
254,20000,0,0,0
255,20000,0,0,0
256,20000,0,0,0
257,20000,0,0,0
258,20000,0,0,0
259,20000,0,0,0
260,20000,0,0,0
261,20000,0,0,0
262,20000,0,0,0
263,20000,0,0,0
264,20000,0,0,0
265,20000,0,0,0
266,20000,0,0,0
267,20000,0,0,0
268,20000,0,0,0
269,20000,0,0,0
270,20000,0,0,0
271,20000,0,0,0
272,20000,0,0,0
273,20000,0,0,0
274,20000,0,0,0
275,20000,0,0,0
276,20000,0,0,0
277,20000,0,0,0
278,20000,0,0,0
279,20000,0,0,0
280,20000,0,0,0
281,20000,0,0,0
282,20000,0,0,0
283,20000,0,0,0
284,20000,0,0,0
285,20000,0,0,0
286,20000,0,0,0
287,20000,0,0,0
288,20000,0,0,0
289,20000,0,0,0
290,20000,0,0,0
291,20000,0,0,0
292,20000,0,0,0
293,20000,0,0,0
294,20000,0,0,0
295,20000,0,0,0
296,20000,0,0,0
297,20000,0,0,0
298,20000,0,0,0
299,20000,0,0,0
300,20000,0,0,0
301,20000,0,0,0
302,20000,0,0,0
303,20000,0,0,0
304,20000,0,0,0
305,20000,0,0,0
306,20000,0,0,0
307,20000,0,0,0
308,20000,0,0,0
309,20000,0,0,0
310,20000,0,0,0
311,20000,0,0,0
312,20000,0,0,0
313,20000,0,0,0
314,20000,0,0,0
315,20000,0,0,0
316,20000,0,0,0
317,20000,0,0,0
318,20000,0,0,0
319,20000,0,0,0
320,20000,0,0,0
321,20000,0,0,0
322,20000,0,0,0
323,20000,0,0,0
324,20000,0,0,0
325,20000,0,0,0
326,20000,0,0,0
327,20000,0,0,0
328,20000,0,0,0
329,20000,0,0,0
330,20000,0,0,0
331,20000,0,0,0
332,20000,0,0,0
333,20000,0,0,0
334,20000,0,0,0
335,20000,0,0,0
336,20000,0,0,0
337,20000,0,0,0
338,20000,0,0,0
339,20000,0,0,0
340,20000,0,0,0
341,20000,0,0,0
342,20000,0,0,0
343,20000,0,0,0
344,20000,0,0,0
345,20000,0,0,0
346,20000,0,0,0
347,20000,0,0,0
348,20000,0,0,0
349,20000,0,0,0
350,20000,0,0,0
351,20000,0,0,0
352,20000,0,0,0
353,20000,0,0,0
354,20000,0,0,0
355,20000,0,0,0
356,20000,0,0,0
357,20000,0,0,0
358,20000,0,0,0
359,20000,0,0,0
360,20000,0,0,0
361,20000,0,0,0
362,20000,0,0,0
363,20000,0,0,0
364,20000,0,0,0
365,20000,0,0,0
366,20000,0,0,0
367,20000,0,0,0
368,20000,0,0,0
369,20000,0,0,0
370,20000,0,0,0
371,20000,0,0,0
372,20000,0,0,0
373,20000,0,0,0
374,20000,0,0,0
375,20000,0,0,0
376,20000,0,0,0
377,20000,0,0,0
378,20000,0,0,0
379,20000,0,0,0
380,20000,0,0,0
381,20000,0,0,0
382,20000,0,0,0
383,20000,0,0,0
384,20000,0,0,0
385,20000,0,0,0
386,20000,0,0,0
387,20000,0,0,0
388,20000,0,0,0
389,20000,0,0,0
390,20000,0,0,0
391,20000,0,0,0
392,20000,0,0,0
393,20000,0,0,0
394,20000,0,0,0
395,20000,0,0,0
396,20000,0,0,0
397,20000,0,0,0
398,20000,0,0,0
399,20000,0,0,0
400,20000,0,0,0
401,20000,0,0,0
402,20000,0,0,0
403,20000,0,0,0
404,20000,0,0,0
405,20000,0,0,0
406,20000,0,0,0
407,20000,0,0,0
408,20000,0,0,0
409,20000,0,0,0
410,20000,0,0,0
411,20000,0,0,0
412,20000,0,0,0
413,20000,0,0,0
414,20000,0,0,0
415,20000,0,0,0
416,20000,0,0,0
417,20000,0,0,0
418,20000,0,0,0
419,20000,0,0,0
420,20000,0,0,0
421,20000,0,0,0
422,20000,0,0,0
423,20000,0,0,0
424,20000,0,0,0
425,20000,0,0,0
426,20000,0,0,0
427,20000,0,0,0
428,20000,0,0,0
429,20000,0,0,0
430,20000,0,0,0
431,20000,0,0,0
432,20000,0,0,0
433,20000,0,0,0
434,20000,0,0,0
435,20000,0,0,0
436,20000,0,0,0
437,20000,0,0,0
438,20000,0,0,0
439,20000,0,0,0
440,20000,0,0,0
441,20000,0,0,0
442,20000,0,0,0
443,20000,0,0,0
444,20000,0,0,0
445,20000,0,0,0
446,20000,0,0,0
447,20000,0,0,0
448,20000,0,0,0
449,20000,0,0,0
450,20000,0,0,0
451,20000,0,0,0
452,20000,0,0,0
453,20000,0,0,0
454,20000,0,0,0
455,20000,0,0,0
456,20000,0,0,0
457,20000,0,0,0
458,20000,0,0,0
459,20000,0,0,0
460,20000,0,0,0
461,20000,0,0,0
462,20000,0,0,0
463,20000,0,0,0
464,20000,0,0,0
465,20000,0,0,0
466,20000,0,0,0
467,20000,0,0,0
468,20000,0,0,0
469,20000,0,0,0
470,20000,0,0,0
471,20000,0,0,0
472,20000,0,0,0
473,20000,0,0,0
474,20000,0,0,0
475,20000,0,0,0
476,20000,0,0,0
477,20000,0,0,0
478,20000,0,0,0
479,20000,0,0,0
480,20000,0,0,0
481,20000,0,0,0
482,20000,0,0,0
483,20000,0,0,0
484,20000,0,0,0
485,20000,0,0,0
486,20000,0,0,0
487,20000,0,0,0
488,20000,0,0,0
489,20000,0,0,0
490,20000,0,0,0
491,20000,0,0,0
492,20000,0,0,0
493,20000,0,0,0
494,20000,0,0,0
495,20000,0,0,0
496,20000,0,0,0
497,20000,0,0,0
498,20000,0,0,0
499,20000,0,0,0
500,20000,0,0,0
501,20000,0,0,0
502,20000,0,0,0
503,20000,0,0,0
504,20000,0,0,0
505,20000,0,0,0
506,20000,0,0,0
507,20000,0,0,0
508,20000,0,0,0
509,20000,0,0,0
510,20000,0,0,0
511,20000,0,0,0
512,20000,0,0,0
513,20000,0,0,0
514,20000,0,0,0
515,20000,0,0,0
516,20000,0,0,0
517,20000,0,0,0
518,20000,0,0,0
519,20000,0,0,0
520,20000,0,0,0
521,20000,0,0,0
522,20000,0,0,0
523,20000,0,0,0
524,20000,0,0,0
525,20000,0,0,0
526,20000,0,0,0
527,20000,0,0,0
528,20000,0,0,0
529,20000,0,0,0
530,20000,0,0,0
531,20000,0,0,0
532,20000,0,0,0
533,20000,0,0,0
534,20000,0,0,0
535,20000,0,0,0
536,20000,0,0,0
537,20000,0,0,0
538,20000,0,0,0
539,20000,0,0,0
540,20000,0,0,0
541,20000,0,0,0
542,20000,0,0,0
543,20000,0,0,0
544,20000,0,0,0
545,20000,0,0,0
546,20000,0,0,0
547,20000,0,0,0
548,20000,0,0,0
549,20000,0,0,0
550,20000,0,0,0
551,20000,0,0,0
552,20000,0,0,0
553,20000,0,0,0
554,20000,0,0,0
555,20000,0,0,0
556,20000,0,0,0
557,20000,0,0,0
558,20000,0,0,0
559,20000,0,0,0
560,20000,0,0,0
561,20000,0,0,0
562,20000,0,0,0
563,20000,0,0,0
564,20000,0,0,0
565,20000,0,0,0
566,20000,0,0,0
567,20000,0,0,0
568,20000,0,0,0
569,20000,0,0,0
570,20000,0,0,0
571,20000,0,0,0
572,20000,0,0,0
573,20000,0,0,0
574,20000,0,0,0
575,20000,0,0,0
576,20000,0,0,0
577,20000,0,0,0
578,20000,0,0,0
579,20000,0,0,0
580,20000,0,0,0
581,20000,0,0,0
582,20000,0,0,0
583,20000,0,0,0
584,20000,0,0,0
585,20000,0,0,0
586,20000,0,0,0
587,20000,0,0,0
588,20000,0,0,0
589,20000,0,0,0
590,20000,0,0,0
591,20000,0,0,0
592,20000,0,0,0
593,20000,0,0,0
594,20000,0,0,0
595,20000,0,0,0
596,20000,0,0,0
597,20000,0,0,0
598,20000,0,0,0
599,20000,0,0,0
600,20000,0,0,0
601,20000,0,0,0
602,20000,0,0,0
603,20000,0,0,0
604,20000,0,0,0
605,20000,0,0,0
606,20000,0,0,0
607,20000,0,0,0
608,20000,0,0,0
609,20000,0,0,0
610,20000,0,0,0
611,20000,0,0,0
612,20000,0,0,0
613,20000,0,0,0
614,20000,0,0,0
615,20000,0,0,0
616,20000,0,0,0
617,20000,0,0,0
618,20000,0,0,0
619,20000,0,0,0
620,20000,0,0,0
621,20000,0,0,0
622,20000,0,0,0
623,20000,0,0,0
624,20000,0,0,0
625,20000,0,0,0
626,20000,0,0,0
627,20000,0,0,0
628,20000,0,0,0
629,20000,0,0,0
630,20000,0,0,0
631,20000,0,0,0
632,20000,0,0,0
633,20000,0,0,0
634,20000,0,0,0
635,20000,0,0,0
636,20000,0,0,0
637,20000,0,0,0
638,20000,0,0,0
639,20000,0,0,0
640,20000,0,0,0
641,20000,0,0,0
642,20000,0,0,0
643,20000,0,0,0
644,20000,0,0,0
645,20000,0,0,0
646,20000,0,0,0
647,20000,0,0,0
648,20000,0,0,0
649,20000,0,0,0
650,20000,0,0,0
651,20000,0,0,0
652,20000,0,0,0
653,20000,0,0,0
654,20000,0,0,0
655,20000,0,0,0
656,20000,0,0,0
657,20000,0,0,0
658,20000,0,0,0
659,20000,0,0,0
660,20000,0,0,0
661,20000,0,0,0
662,20000,0,0,0
663,20000,0,0,0
664,20000,0,0,0
665,20000,0,0,0
666,20000,0,0,0
667,20000,0,0,0
668,20000,0,0,0
669,20000,0,0,0
670,20000,0,0,0
671,20000,0,0,0
672,20000,0,0,0
673,20000,0,0,0
674,20000,0,0,0
675,20000,0,0,0
676,20000,0,0,0
677,20000,0,0,0
678,20000,0,0,0
679,20000,0,0,0
680,20000,0,0,0
681,20000,0,0,0
682,20000,0,0,0
683,20000,0,0,0
684,20000,0,0,0
685,20000,0,0,0
686,20000,0,0,0
687,20000,0,0,0
688,20000,0,0,0
689,20000,0,0,0
690,20000,0,0,0
691,20000,0,0,0
692,20000,0,0,0
693,20000,0,0,0
694,20000,0,0,0
695,20000,0,0,0
696,20000,0,0,0
697,20000,0,0,0
698,20000,0,0,0
699,20000,0,0,0
700,20000,0,0,0
701,20000,0,0,0
702,20000,0,0,0
703,20000,0,0,0
704,20000,0,0,0
705,20000,0,0,0
706,20000,0,0,0
707,20000,0,0,0
708,20000,0,0,0
709,20000,0,0,0
710,20000,0,0,0
711,20000,0,0,0
712,20000,0,0,0
713,20000,0,0,0
714,20000,0,0,0
715,20000,0,0,0
716,20000,0,0,0
717,20000,0,0,0
718,20000,0,0,0
719,20000,0,0,0
720,20000,0,0,0
721,20000,0,0,0
722,20000,0,0,0
723,20000,0,0,0
724,20000,0,0,0
725,20000,0,0,0
726,20000,0,0,0
727,20000,0,0,0
728,20000,0,0,0
729,20000,0,0,0
730,20000,0,0,0
